Place,Name,CyrillicName,Sex,BirthDate,Division,WeightClassKg,BodyweightKg,Squat1Kg,Squat2Kg,Squat3Kg,Best3SquatKg,Squat4Kg,Bench1Kg,Bench2Kg,Bench3Kg,Best3BenchKg,Bench4Kg,Deadlift1Kg,Deadlift2Kg,Deadlift3Kg,Best3DeadliftKg,Deadlift4Kg,TotalKg,Tested,Event,Equipment
1,Alena Ulbutova,Алена Улбутова,F,1994-01-24,Open,52,51,-75,-75,80,80,,-45,45,-47.5,45,,87.5,92.5,-97.5,92.5,,217.5,No,SBD,Raw
1,Tatyana Seredintseva,Татьяна Серединцева,F,1979-06-01,Open,67.5,65.9,120,125,130,130,,65,70,-72.5,70,,140,145,147.5,147.5,,347.5,No,SBD,Raw
1,Elena Nefedova,Елена Нефедова,F,1972-05-04,Masters 40-49,67.5,67.5,90,97.5,100,100,,70,75,77.5,77.5,,135,142.5,150,150,-160,327.5,No,SBD,Raw
1,Natalya Podobryaeva,Наталья Подобряева,F,2001-12-27,Sub-Juniors 17-19,75,75,90,97.5,-105,97.5,,55,57.5,-60,57.5,,117.5,125,-132.5,125,,280,No,SBD,Raw
2,Anastasiya Kalinina,Анастасия Калинина,F,1999-05-23,Sub-Juniors 17-19,75,71.4,-70,70,-80,70,,30,32.5,-35,32.5,,75,80,85,85,,187.5,No,SBD,Raw
1,Vadim Shishkin,Вадим Шишкин,M,2000-12-08,Sub-Juniors 17-19,60,57.9,120,-130,-130,120,,80,-90,-90,80,,120,135,140,140,,340,No,SBD,Raw
DQ,Gleb Kraev,Глеб Краев,M,2001-08-22,Sub-Juniors 17-19,67.5,65.6,-140,-145,-145,,,,,,,,,,,,,,No,SBD,Raw
1,Vladislav Upornikov,Владислав Упорников,M,2003-04-11,Teen 14-16,75,69.2,105,110,115,115,,65,70,-72.5,70,,130,140,145,145,,330,No,SBD,Raw
1,Stepan Devlyashov,Степан Девляшов,M,1998-09-25,Juniors 20-23,75,73.4,140,150,-160,150,,95,105,-110,105,,175,185,190,190,,445,No,SBD,Raw
1,Aleksandr Priymakov,Александр Приймаков,M,1995-07-23,Juniors 20-23,90,84.7,165,175,185,185,,135,140,145,145,,190,205,215,215,,545,No,SBD,Raw
2,Nikita Yandyganov,Никита Яндыганов,M,1995-10-01,Juniors 20-23,90,84.4,155,162.5,170,170,,115,122.5,130,130,,170,180,190,190,,490,No,SBD,Raw
1,Timofey Rogalskiy,Тимофей Рогальский,M,1991-09-29,Open,90,88.8,-170,170,190,190,,130,140,-150,140,,190,200,205,205,,535,No,SBD,Raw
1,Denis Lutsenko,Денис Луценко,M,2000-01-29,Sub-Juniors 17-19,100,93.8,180,190,202.5,202.5,,127.5,135,140,140,,190,200,205,205,,547.5,No,SBD,Raw
1,Ilya Terpak,Илья Терпак,M,1995-07-09,Juniors 20-23,100,94.8,132.5,137.5,140,140,,-97.5,97.5,100,100,,152.5,157.5,162.5,162.5,,402.5,No,SBD,Raw
1,Mikhail Zhidkov,Михаил Жидков,M,1973-05-13,Masters 40-49,100,98.7,175,-190,-190,175,,145,155,-160,155,,195,205,215,215,,545,No,SBD,Raw
1,Aleksandr Litvinov,Александр Литвинов,M,1979-06-05,Open,110,104,200,210,220,220,,125,130,135,135,,250,260,270,270,,625,No,SBD,Raw
1,Sergey Lyapustin,Сергей Ляпустин,M,1976-07-11,Masters 40-49,110,107.7,180,200,220,220,,120,130,135,135,,200,235,,235,,590,No,SBD,Raw
1,Kirill Bobrovskiy,Кирилл Бобровский,M,1981-02-16,Open,140,134.3,230,240,250,250,,170,180,190,190,,250,275,307.5,307.5,,747.5,No,SBD,Raw
1,Olga Shilina,Ольга Шилина,F,1983-01-03,Open,56,54.5,90,100,107.5,107.5,,45,50,52.5,52.5,,110,125,132.5,132.5,,292.5,No,SBD,Raw
1,Artem Furazhkin,Артем Фуражкин,M,2006-07-09,Youth,82.5,81.5,-60,60,70,70,,-40,40,45,45,,60,70,80,80,,195,No,SBD,Raw
1,Aleksandr Cherednichenko,Александр Чередниченко,M,1991-02-04,Open,90,89.9,250,262.5,-267.5,262.5,,180,185,190,190,,-300,300,-320,300,,752.5,No,SBD,Raw
1,Ilya Beskrovnyy,Илья Бескровный,M,2004-03-27,Teen 14-16,100,90.8,-80,90,105,105,,50,57.5,-60,57.5,,110,122.5,140,140,,302.5,No,SBD,Raw
1,Aleksey Blagodyrev,Алексей Благодырев,M,1991-07-03,Open,100,97.8,235,245,252.5,252.5,,165,177.5,185,185,,270,280,-287.5,280,,717.5,No,SBD,Raw
2,Nikita Bondarenko,Никита Бондаренко,M,1987-09-22,Open,100,98.5,-150,150,-160,150,,100,-105,-105,100,,190,-200,-200,190,,440,No,SBD,Raw
1,Konstantin Lozychenko,Константин Лозыченко,M,1972-01-11,Masters 40-49,100,96.6,190,200,205,205,,140,145,150,150,,230,240,-245,240,,595,No,SBD,Raw
1,Gadzhi Ragimov,Гаджи Рагимов,M,1989-12-13,Open,110,108.6,285,300,305,305,,200,210,-212.5,210,,290,307.5,310,310,,825,No,SBD,Raw
1,Anton Bespoludin,Антон Бесполудин,M,1976-12-27,Masters 40-49,125,118,220,230,240,240,,150,160,-165,160,,220,-230,-230,220,,620,No,SBD,Raw
1,Selbi Malikova,Сельби Маликова,F,1993-08-18,Open,48,47.9,60,-70,70,70,,30,37.5,-40,37.5,,100,110,-117.5,110,,217.5,No,SBD,Wraps
1,Valeriya Sorokina,Валерия Сорокина,F,2000-12-28,Sub-Juniors 17-19,52,52,97.5,-105,110,110,,65,67.5,-70,67.5,,-125,130,137.5,137.5,,315,No,SBD,Wraps
1,Valeriya Sorokina,Валерия Сорокина,F,2000-12-28,Open,52,52,97.5,-105,110,110,,65,67.5,-70,67.5,,-125,130,137.5,137.5,,315,No,SBD,Wraps
1,Larisa Shilenkova,Лариса Шиленкова,F,1979-02-23,Open,56,55.9,-95,100,110,110,,50,55,-57.5,55,,100,110,120,120,,285,No,SBD,Wraps
1,Natalya Podobryaeva,Наталья Подобряева,F,2001-12-27,Sub-Juniors 17-19,75,75,90,97.5,-105,97.5,,55,57.5,-60,57.5,,117.5,125,-132.5,125,,280,No,SBD,Wraps
1,Vladimir Zhadenov,Владимир Жаденов,M,1987-06-01,Open,67.5,66.4,-240,240,250,250,,130,-140,140,140,,220,-240,,220,,610,No,SBD,Wraps
1,Roman Nikiforov,Роман Никифоров,M,1986-11-27,Open,82.5,82,195,-205,210,210,,120,-125,,120,,225,230,-232.5,230,,560,No,SBD,Wraps
1,Sergey Omelyanenko,Сергей Омельяненко,M,1989-12-12,Open,90,86.6,160,167.5,175,175,,90,100,-105,100,,160,170,175,175,,450,No,SBD,Wraps
1,Maksim Kharkin,Максим Харькин,M,1985-07-04,Open,100,94.1,-200,200,-210,200,,120,130,135,135,,200,210,-217.5,210,,545,No,SBD,Wraps
2,Artur Khachatryan,Артур Хачатрян,M,1992-05-22,Open,100,97.3,-190,190,205,205,,102.5,110,-115,110,,190,205,210,210,,525,No,SBD,Wraps
1,Petr Zelenukin,Петр Зеленукин,M,1995-02-13,Open,110,104.8,-240,240,260,260,,160,170,175,175,,240,255,-265,255,,690,No,SBD,Wraps
2,Eduard Chibasov,Эдуард Чибасов,M,1993-07-26,Open,110,103,182.5,190,200,200,,120,127.5,130,130,,165,175,185,185,,515,No,SBD,Wraps
3,Konstantin Ivashchenko,Константин Иващенко,M,1991-02-06,Open,110,103.6,-170,175,-185,175,,90,-100,105,105,,190,210,-225,210,,490,No,SBD,Wraps
1,Valeriya Sorokina,Валерия Сорокина,F,2000-12-28,Sub-Juniors 17-19,52,52,97.5,-105,110,110,,65,67.5,-70,67.5,,-125,130,137.5,137.5,,315,No,SBD,Wraps
1,Snizhana Nazhmudinova,Снижана Нажмудинова,F,1995-10-28,Juniors 20-23,56,55.7,80,-92.5,-100,80,,-35,-35,35,35,,80,-90,-90,80,,195,No,SBD,Wraps
1,Marina Morozova,Марина Морозова,F,1978-10-09,Open,75,75,-200,210,-225,210,,105,-112.5,-112.5,105,,200,210,-220,210,,525,No,SBD,Wraps
1,Roman Stupnikov,Роман Ступников,M,1988-01-21,Open,82.5,82.4,280,295,305,305,,170,180,182.5,182.5,,310,325.5,,325.5,,813,No,SBD,Wraps
2,Ilya Korsunov,Илья Корсунов,M,1990-06-27,Open,82.5,81.7,240,-255,255,255,,135,145,-150,145,,245,255,262.5,262.5,,662.5,No,SBD,Wraps
3,Ivan Cherednichenko,Иван Чередниченко,M,1995-09-11,Open,82.5,79.9,210,220,-230,220,,135,150,157.5,157.5,,215,230,-252.5,230,,607.5,No,SBD,Wraps
1,Aleksandr Kukanov,Александр Куканов,M,1997-10-09,Juniors 20-23,90,83.5,140,-160,-175,140,,110,120,-130,120,,110,125,132.5,132.5,,392.5,No,SBD,Wraps
1,Igor Vorobev,Игорь Воробьев,M,1994-06-18,Open,100,98.8,320,335,-345,335,,175,185,,185,,-320,320,340,340,,860,No,SBD,Wraps
2,Nikolay Osipov,Николай Осипов,M,1980-01-01,Open,100,97.6,250,-260,265,265,,140,155,162.5,162.5,,-250,-270,270,270,,697.5,No,SBD,Wraps
3,Sergey Vypov,Сергей Выпов,M,1981-08-17,Open,100,96.5,260,280,-300,280,,150,155,-160,155,,250,255,-260,255,,690,No,SBD,Wraps
1,Maksim Nuyanzin,Максим Нуянзин,M,1996-10-10,Juniors 20-23,140,138,250,275,-300,275,,135,147.5,157.5,157.5,,230,240,-250,240,,672.5,No,SBD,Wraps
1,Arman Kulibaev,Арман Кулибаев,M,1983-01-18,Open,75,74.1,220,-235,245,245,,130,145,,145,,215,230,235,235,,625,No,SBD,Single-ply
1,Evgeniy Nefedov,Евгений Нефедов,M,1973-12-11,Masters 40-49,100,96.6,230,245,260,260,,-160,160,170,170,,260,270,-280,270,,700,No,SBD,Single-ply
1,Aleksey Emelyanov,Алексей Емельянов,M,1983-02-25,Open,82.5,80.2,265,285,300,300,,187.5,195,-200,195,,250,265,272.5,272.5,,767.5,No,SBD,Single-ply
1,Andrey Makeev,Андрей Макеев,M,1985-12-28,Open,110,106.1,310,335,,335,,240,250,-260,250,,235,250,,250,,835,No,SBD,Multi-ply
1,Valeriya Sorokina,Валерия Сорокина,F,2000-12-28,Sub-Juniors 17-19,52,52,,,,,,65,67.5,-70,67.5,,-125,130,137.5,137.5,,205,No,BD,Raw
1,Valeriya Sorokina,Валерия Сорокина,F,2000-12-28,Open,52,52,,,,,,65,67.5,-70,67.5,,-125,130,137.5,137.5,,205,No,BD,Raw
2,Lyubov Bondarenko,Любовь Бондаренко,F,1991-03-23,Open,52,51.5,,,,,,45,-50,-50,45,,100,112.5,-117.5,112.5,,157.5,No,BD,Raw
1,Bella Stepkina,Бэлла Степкина,F,1978-10-22,Open,75,73.6,,,,,,55,60,62.5,62.5,,130,140,147.5,147.5,,210,No,BD,Raw
1,Evgeniy Afanasev,Евгений Афанасьев,M,1988-04-22,Open,75,73,,,,,,125,-130,-130,125,,225,232.5,-237.5,232.5,,357.5,No,BD,Raw
1,Vladimir Kruglov,Владимир Круглов,M,1983-03-17,Open,100,99.9,,,,,,150,157.5,-162.5,157.5,,220,232.5,,232.5,,390,No,BD,Raw
2,Maksim Kharkin,Максим Харькин,M,1985-07-04,Open,100,94.1,,,,,,120,130,135,135,,200,210,-217.5,210,,345,No,BD,Raw
1,Valeriya Sorokina,Валерия Сорокина,F,2000-12-28,Sub-Juniors 17-19,52,52,,,,,,65,67.5,-70,67.5,,-125,130,137.5,137.5,,205,No,BD,Raw
1,Viktoriya Malinovskaya,Виктория Малиновская,F,1983-10-05,Open,75,68.6,,,,,,87.5,92.5,-95,92.5,,210,217.5,-225,217.5,,310,No,BD,Raw
1,Vladimir Goryunov,Владимир Горюнов,M,1953-02-02,Masters 60-69,90,83.4,,,,,,135,140,145,145,,200,210,215,215,,360,No,BD,Raw
1,Sergey Vypov,Сергей Выпов,M,1981-08-17,Open,100,96.5,,,,,,150,155,-160,155,,250,255,-260,255,,410,No,BD,Raw
1,Valeriya Sorokina,Валерия Сорокина,F,2000-12-28,Sub-Juniors 17-19,52,52,,,,,,65,67.5,-70,67.5,,,,,,,67.5,No,B,Raw
1,Aziza Martyanova,Азиза Мартьянова,F,1991-08-07,Open,52,51.2,,,,,,52.5,55,-57.5,55,,,,,,,55,No,B,Raw
2,Yana Yakusheva,Яна Якушева,F,1990-10-22,Open,52,51.8,,,,,,45,47.5,50,50,,,,,,,50,No,B,Raw
1,Olga Leonova,Ольга Леонова,F,1995-09-27,Juniors 20-23,56,55.3,,,,,,40,45,50,50,,,,,,,50,No,B,Raw
1,Mariya Druzhinina,Мария Дружинина,F,1994-05-18,Open,56,55.4,,,,,,57.5,-62.5,-62.5,57.5,,,,,,,57.5,No,B,Raw
2,Valentina Efremova,Валентина Ефремова,F,1988-05-16,Open,56,54.4,,,,,,52.5,-55,-55,52.5,,,,,,,52.5,No,B,Raw
1,Ekaterina Gunaeva,Екатерина Гунаева,F,1979-02-18,Masters 40-49,56,54.9,,,,,,57.5,62.5,-67.5,62.5,,,,,,,62.5,No,B,Raw
1,Maksim Verbenko,Максим Вербенко,M,2003-04-23,Teen 14-16,60,58.6,,,,,,90,95,-97.5,95,,,,,,,95,No,B,Raw
1,Vadim Shishkin,Вадим Шишкин,M,2000-12-08,Sub-Juniors 17-19,60,57.9,,,,,,80,-90,-90,80,,,,,,,80,No,B,Raw
DQ,Zakhar Dmitriev,Захар Дмитриев,M,2003-09-15,Teen 14-16,67.5,66,,,,,,-95,-95,-95,,,,,,,,,No,B,Raw
1,Gleb Kraev,Глеб Краев,M,2001-08-22,Sub-Juniors 17-19,67.5,65.6,,,,,,-95,105,107.5,107.5,,,,,,,107.5,No,B,Raw
1,Vyacheslav Vavilov,Вячеслав Вавилов,M,1990-08-02,Open,67.5,67.5,,,,,,120,127.5,-135,127.5,,,,,,,127.5,No,B,Raw
2,Valentin Nikitin,Валентин Никитин,M,1994-09-18,Open,67.5,67.1,,,,,,-107.5,107.5,-115,107.5,,,,,,,107.5,No,B,Raw
3,Evgeniy Zaveryukha,Евгений Заверюха,M,1980-09-11,Open,67.5,66.3,,,,,,-102.5,102.5,-107.5,102.5,,,,,,,102.5,No,B,Raw
1,Igor Popov,Игорь Попов,M,1968-08-03,Masters 50-59,67.5,67.5,,,,,,100,-102.5,,100,,,,,,,100,No,B,Raw
DQ,Aleksey Ruzheynikov,Алексей Ружейников,M,1998-07-28,Juniors 20-23,75,73.5,,,,,,-110,-110,-110,,,,,,,,,No,B,Raw
1,Artur Abdyushev,Артур Абдюшев,M,1993-02-28,Open,75,71.5,,,,,,155,-160,,155,,,,,,,155,No,B,Raw
2,Andranik Khachatryan,Андраник Хачатрян,M,1990-02-24,Open,75,71.7,,,,,,-130,130,135,135,,,,,,,135,No,B,Raw
3,Denis Bulanov,Денис Буланов,M,1989-10-26,Open,75,74.5,,,,,,130,-135,135,135,,,,,,,135,No,B,Raw
4,Mikhail Novikov,Михаил Новиков,M,1987-03-17,Open,75,72.8,,,,,,125,-135,-135,125,,,,,,,125,No,B,Raw
5,Dmitriy Grushevskiy,Дмитрий Грушевский,M,1987-10-07,Open,75,73.7,,,,,,-117.5,117.5,125,125,,,,,,,125,No,B,Raw
1,Yuriy Dvizov,Юрий Двизов,M,1947-02-05,Masters 70-79,75,74.5,,,,,,115,120,-122.5,120,,,,,,,120,No,B,Raw
1,Maksim Karplyuk,Максим Карплюк,M,1999-12-06,Sub-Juniors 17-19,82.5,81.7,,,,,,155,160,-165,160,,,,,,,160,No,B,Raw
1,Dmitriy Makarov,Дмитрий Макаров,M,1995-07-25,Juniors 20-23,82.5,81.6,,,,,,-145,145,-147.5,145,,,,,,,145,No,B,Raw
1,Vladimir Ageev,Владимир Агеев,M,1986-06-28,Open,82.5,81.9,,,,,,140,-145,145,145,,,,,,,145,No,B,Raw
2,Sergey Galich,Сергей Галич,M,1991-06-03,Open,82.5,81.7,,,,,,135,140,-147.5,140,,,,,,,140,No,B,Raw
3,Aleksandr Murzin,Александр Мурзин,M,1994-03-06,Open,82.5,79.5,,,,,,125,130,-135,130,,,,,,,130,No,B,Raw
4,Sergey Myasoedov,Сергей Мясоедов,M,1989-10-29,Open,82.5,80.3,,,,,,87.5,92.5,97.5,97.5,,,,,,,97.5,No,B,Raw
1,Danil Chuvakov,Данил Чуваков,M,2000-08-27,Sub-Juniors 17-19,90,88.9,,,,,,145,155,160,160,,,,,,,160,No,B,Raw
2,Dmitriy Sitnikov,Дмитрий Ситников,M,2000-10-27,Sub-Juniors 17-19,90,87.5,,,,,,132.5,-137.5,-137.5,132.5,,,,,,,132.5,No,B,Raw
1,Aleksandr Smorchkov,Александр Сморчков,M,1990-11-29,Open,90,89.7,,,,,,145,-150,-150,145,,,,,,,145,No,B,Raw
1,Asaf Akhmedov,Асаф Ахмедов,M,1965-07-23,Masters 50-59,90,86.8,,,,,,140,-147.5,-147.5,140,,,,,,,140,No,B,Raw
2,Yuriy Sunyaev,Юрий Суняев,M,1965-04-06,Masters 50-59,90,89.8,,,,,,105,110,115,115,,,,,,,115,No,B,Raw
1,Nikolay Reshetov,Николай Решетов,M,1959-02-23,Masters 60-69,90,89.6,,,,,,135,-142.5,-142.5,135,,,,,,,135,No,B,Raw
1,Inal Kilyarov,Инал Киляров,M,1994-02-13,Open,100,99.5,,,,,,177.5,-185,-185,177.5,,,,,,,177.5,No,B,Raw
2,Aleksey Evseev,Алексей Евсеев,M,1983-06-20,Open,100,93.6,,,,,,160,165,-170,165,,,,,,,165,No,B,Raw
3,Aleksandr Blinov,Александр Блинов,M,1987-08-24,Open,100,96.6,,,,,,-155,-155,155,155,,,,,,,155,No,B,Raw
4,Mikhail Pleshchenko,Михаил Плещенко,M,1989-02-09,Open,100,98,,,,,,130,135,140,140,,,,,,,140,No,B,Raw
1,Gennadiy Reznik,Геннадий Резник,M,1963-09-05,Masters 50-59,100,97.5,,,,,,110,-115,115,115,,,,,,,115,No,B,Raw
1,Vasiliy Shelestov,Василий Шелестов,M,1975-11-11,Open,110,106,,,,,,200,-205,-205,200,,,,,,,200,No,B,Raw
2,Yuriy Kharitonov,Юрий Харитонов,M,1982-03-08,Open,110,109.3,,,,,,-170,175,-180,175,,,,,,,175,No,B,Raw
3,Andrey Chashchin,Андрей Чащин,M,1984-10-24,Open,110,108.9,,,,,,147.5,155,160,160,,,,,,,160,No,B,Raw
1,Vasiliy Shelestov,Василий Шелестов,M,1975-11-11,Masters 40-49,110,106,,,,,,200,-205,-205,200,,,,,,,200,No,B,Raw
1,Mikhail Chukhryaev,Михаил Чухряев,M,1982-07-31,Open,125,113.4,,,,,,170,-175,-175,170,,,,,,,170,No,B,Raw
2,Aleksey Ovchinnikov,Алексей Овчинников,M,1986-02-28,Open,125,116.4,,,,,,165,170,-175,170,,,,,,,170,No,B,Raw
1,Darya Chumakova,Дарья Чумакова,F,2006-12-28,Youth,44,38.5,,,,,,20,25,27.5,27.5,,,,,,,27.5,No,B,Raw
1,Mariya Petrova,Мария Петрова,F,2002-09-02,Teen 14-16,56,56,,,,,,-55,55,60,60,,,,,,,60,No,B,Raw
2,Anastasiya Mironova,Анастасия Миронова,F,2003-08-06,Teen 14-16,56,55.8,,,,,,37.5,42.5,-45,42.5,,,,,,,42.5,No,B,Raw
1,Aleksandr Mishin,Александр Мишин,M,2003-12-18,Teen 14-16,52,51.9,,,,,,55,60,-65,60,,,,,,,60,No,B,Raw
2,Nikita Chubarov,Никита Чубаров,M,2004-01-27,Teen 14-16,52,40.9,,,,,,27.5,30,32.5,32.5,,,,,,,32.5,No,B,Raw
1,Roman Rumyantsev,Роман Румянцев,M,1978-04-11,Masters 40-49,75,72.4,,,,,,130,-135,135,135,,,,,,,135,No,B,Raw
1,Oleg Filimonov,Олег Филимонов,M,1987-03-12,Open,90,90,,,,,,250,-260,-260,250,,,,,,,250,No,B,Raw
2,Stanislav Spiridonok,Станислав Спиридонок,M,1986-10-06,Open,90,87.2,,,,,,170,175,180,180,,,,,,,180,No,B,Raw
3,Maksim Orlov,Максим Орлов,M,1981-12-21,Open,90,88.1,,,,,,160,167.5,175,175,,,,,,,175,No,B,Raw
1,Vladimir Kozlov,Владимир Козлов,M,1954-06-15,Masters 60-69,90,87.8,,,,,,145,150,155,155,,,,,,,155,No,B,Raw
1,Andrey Shkarpetin,Андрей Шкарпетин,M,1990-04-28,Open,100,98.3,,,,,,-215,215,220,220,,,,,,,220,No,B,Raw
DQ,Evgeniy Gromilin,Евгений Громилин,M,1991-11-01,Open,100,98.5,,,,,,-150,-160,-165,,,,,,,,,No,B,Raw
1,Maksim Kalinin,Максим Калинин,M,1993-06-01,Open,110,107,,,,,,200,215,-227.5,215,,,,,,,215,No,B,Raw
2,Maksim Golodnykh,Максим Голодных,M,1989-09-23,Open,110,105.9,,,,,,162.5,172.5,180,180,,,,,,,180,No,B,Raw
1,Maksim Sleptsov,Максим Слепцов,M,1977-06-18,Masters 40-49,110,105.6,,,,,,172.5,177.5,180,180,,,,,,,180,No,B,Raw
1,Evgeniy Abrosimov,Евгений Абросимов,M,1966-09-29,Masters 50-59,110,109,,,,,,180,-190,,180,,,,,,,180,No,B,Raw
1,Artur Arakelyan,Артур Аракелян,M,1987-08-08,Open,125,110.9,,,,,,210,215,220,220,,,,,,,220,No,B,Raw
2,Aleksandr Zhukov,Александр Жуков,M,1983-03-13,Open,125,110.6,,,,,,207.5,-212.5,,207.5,,,,,,,207.5,No,B,Raw
3,Dmitriy Kuryakin,Дмитрий Курякин,M,1982-12-05,Open,125,111.8,,,,,,162.5,172.5,-180,172.5,,,,,,,172.5,No,B,Raw
1,Pavel Kiselev,Павел Киселев,M,1999-11-03,Sub-Juniors 17-19,90,87.9,,,,,,177.5,185,-192.5,185,,,,,,,185,No,B,Single-ply
1,Dmitriy Kosterin,Дмитрий Костерин,M,1990-08-17,Open,90,89.3,,,,,,210,220,-230,220,,,,,,,220,No,B,Single-ply
1,Nikolay Reshetov,Николай Решетов,M,1959-02-23,Masters 60-69,90,89.6,,,,,,180,-190,-192.5,180,,,,,,,180,No,B,Single-ply
1,Nikolay Reshetov,Николай Решетов,M,1959-02-23,Masters 60-69,90,89.6,,,,,,180,-190,-192.5,180,,,,,,,180,No,B,Single-ply
1,Aleksandr Olkhovskiy,Александр Ольховский,M,1978-12-25,Open,110,110,,,,,,265,275,-280,275,,,,,,,275,No,B,Single-ply
1,Nikolay Reshetov,Николай Решетов,M,1959-02-23,Masters 60-69,90,89.6,,,,,,180,-190,-192.5,180,,,,,,,180,No,B,Multi-ply
1,Nikolay Reshetov,Николай Решетов,M,1959-02-23,Masters 60-69,90,89.6,,,,,,180,-190,-192.5,180,,,,,,,180,No,B,Multi-ply
1,Danila Shevyrev,Данила Шевырев,M,2001-01-29,Sub-Juniors 17-19,75,72,,,,,,140,-150,-150,140,,,,,,,140,No,B,Unlimited
1,Danil Chuvakov,Данил Чуваков,M,2000-08-27,Sub-Juniors 17-19,90,88.9,,,,,,210,220,-230,220,,,,,,,220,No,B,Unlimited
1,Ivan Gudkov,Иван Гудков,M,1992-03-16,Open,90,88.3,,,,,,250,260,270,270,-282.5,,,,,,270,No,B,Unlimited
2,Sergey Biryukov #1,Сергей Бирюков,M,1985-07-17,Open,90,87.2,,,,,,215,220,227.5,227.5,,,,,,,227.5,No,B,Unlimited
3,Valentin Parfenov,Валентин Парфенов,M,1991-06-17,Open,90,85.7,,,,,,-190,190,-217.5,190,,,,,,,190,No,B,Unlimited
4,Evgeniy Lebedev,Евгений Лебедев,M,1987-08-29,Open,90,87,,,,,,187.5,-217.5,-217.5,187.5,,,,,,,187.5,No,B,Unlimited
DQ,Sergey Evdokimov,Сергей Евдокимов,M,1991-09-13,Open,90,88.5,,,,,,-187.5,-187.5,-187.5,,,,,,,,,No,B,Unlimited
1,Nikolay Reshetov,Николай Решетов,M,1959-02-23,Masters 60-69,90,89.6,,,,,,200,210,-220,210,,,,,,,210,No,B,Unlimited
1,Aleksandr Bliznyuk,Александр Близнюк,M,1982-10-06,Open,100,99,,,,,,-240,240,255,255,,,,,,,255,No,B,Unlimited
2,Vladimir Kruglov,Владимир Круглов,M,1983-03-17,Open,100,99.9,,,,,,232.5,240,-245,240,,,,,,,240,No,B,Unlimited
3,Gennadiy Razgonin,Геннадий Разгонин,M,1986-09-07,Open,100,97.2,,,,,,210,-232.5,232.5,232.5,,,,,,,232.5,No,B,Unlimited
1,Evgeniy Afanasev,Евгений Афанасьев,M,1978-10-11,Masters 40-49,100,98.8,,,,,,202.5,-220,-220,202.5,,,,,,,202.5,No,B,Unlimited
1,Vladimir Petrykin,Владимир Петрыкин,M,1981-09-25,Open,110,101.5,,,,,,260,272.5,-290,272.5,,,,,,,272.5,No,B,Unlimited
2,Dmitriy Gonzhal,Дмитрий Гонжал,M,1986-04-18,Open,110,101.9,,,,,,215,225,-240,225,,,,,,,225,No,B,Unlimited
1,Aleksandr Yakovlev,Александр Яковлев,M,1978-07-13,Masters 40-49,110,101.8,,,,,,170,-180,180,180,,,,,,,180,No,B,Unlimited
1,Anton Ivanov,Антон Иванов,M,1999-06-15,Sub-Juniors 17-19,125,124.5,,,,,,205,220,227.5,227.5,235,,,,,,227.5,No,B,Unlimited
1,Alena Atroshenko,Алена Атрошенко,F,1989-08-29,Open,60,59.8,,,,,,90,-95,,90,,,,,,,90,No,B,Unlimited
1,Marina Morozova,Марина Морозова,F,1978-10-09,Open,75,75,,,,,,160,170,-180,170,,,,,,,170,No,B,Unlimited
2,Elmira Efendieva,Эльмира Эфендиева,F,1976-03-20,Open,75,70.7,,,,,,125,-130,-135,125,,,,,,,125,No,B,Unlimited
1,Igor Popov,Игорь Попов,M,1993-04-07,Open,60,60,,,,,,120,-125,,120,,,,,,,120,No,B,Unlimited
1,Nikolay Fedotov,Николай Федотов,M,1988-01-21,Open,75,70.3,,,,,,180,-192.5,-192.5,180,,,,,,,180,No,B,Unlimited
1,Vitaliy Artemov,Виталий Артемов,M,1989-09-06,Open,90,83.2,,,,,,-185,185,-192.5,185,,,,,,,185,No,B,Unlimited
1,Aleksey Kiryanov,Алексей Кирьянов,M,1989-04-07,Open,100,99.9,,,,,,260,272.5,-285,272.5,,,,,,,272.5,No,B,Unlimited
1,Dmitriy Sukhov,Дмитрий Сухов,M,1975-06-09,Open,110,110,,,,,,300,310,-315,310,,,,,,,310,No,B,Unlimited
2,Dmitriy Gonzhal,Дмитрий Гонжал,M,1986-04-18,Open,110,101.9,,,,,,215,225,-240,225,,,,,,,225,No,B,Unlimited
1,Dmitriy Sukhov,Дмитрий Сухов,M,1975-06-09,Masters 40-49,110,110,,,,,,300,310,-315,310,,,,,,,310,No,B,Unlimited
DQ,Dmitriy Lepaev,Дмитрий Лепаев,M,1978-10-02,Masters 40-49,110,103.6,,,,,,-230,-230,-230,,,,,,,,,No,B,Unlimited
1,Aleksandr Khmelev,Александр Хмелев,M,1971-09-19,Open,125,121.6,,,,,,312.5,335,350,350,360,,,,,,350,No,B,Unlimited
DQ,Aleksandr Zhukov,Александр Жуков,M,1983-03-13,Open,125,110.6,,,,,,-320,-320,-340,,,,,,,,,No,B,Unlimited
1,Aleksandr Khmelev,Александр Хмелев,M,1971-09-19,Masters 40-49,125,121.6,,,,,,312.5,335,350,350,360,,,,,,350,No,B,Unlimited
DQ,Nikolay Reshetov,Николай Решетов,M,1959-02-23,Masters 60-69,90,89.6,,,,,,-220,-225,-225,,,,,,,,,No,B,Unlimited
1,Pavel Guzev,Павел Гузев,M,1966-05-29,Open,125,123.5,,,,,,330,360,370,370,381,,,,,,370,No,B,Unlimited
1,Pavel Guzev,Павел Гузев,M,1966-05-29,Masters 50-59,125,123.5,,,,,,330,360,370,370,381,,,,,,370,No,B,Unlimited
1,Pavel Guzev,Павел Гузев,M,1966-05-29,Open,125,123.5,,,,,,330,360,370,370,381,,,,,,370,No,B,Unlimited
1,Pavel Guzev,Павел Гузев,M,1966-05-29,Masters 50-59,125,123.5,,,,,,330,360,370,370,381,,,,,,370,No,B,Unlimited
1,Sergey Golyush,Сергей Голюш,M,1972-09-01,Open,140,125.7,,,,,,320,-335,-335,320,,,,,,,320,No,B,Unlimited
1,Sergey Golyush,Сергей Голюш,M,1972-09-01,Masters 40-49,140,125.7,,,,,,320,-335,-335,320,,,,,,,320,No,B,Unlimited
1,Valeriya Sorokina,Валерия Сорокина,F,2000-12-28,Sub-Juniors 17-19,52,52,,,,,,,,,,,-125,130,137.5,137.5,,137.5,No,D,Raw
1,Elena Dokudovskaya,Елена Докудовская,F,1981-12-25,Open,52,52,,,,,,,,,,,125,-135,135,135,,135,No,D,Raw
2,Lyubov Bondarenko,Любовь Бондаренко,F,1991-03-23,Open,52,51.5,,,,,,,,,,,100,112.5,-117.5,112.5,,112.5,No,D,Raw
1,Olga Khodyreva,Ольга Ходырева,F,1957-01-09,Masters 60-69,56,56,,,,,,,,,,,95,100,-105,100,,100,No,D,Raw
1,Irina Karagicheva,Ирина Карагичева,F,1987-10-10,Open,67.5,61.5,,,,,,,,,,,107.5,117.5,122.5,122.5,,122.5,No,D,Raw
1,Bella Stepkina,Бэлла Степкина,F,1978-10-22,Open,75,73.6,,,,,,,,,,,130,140,147.5,147.5,,147.5,No,D,Raw
2,Valeriya Chernomashentseva,Валерия Черномашенцева,F,1989-01-07,Open,75,70.5,,,,,,,,,,,145,-152.5,-152.5,145,,145,No,D,Raw
1,Yaroslav Iryanov,Ярослав Ирьянов,M,2007-02-09,Youth,52,39.7,,,,,,,,,,,60,-70,-70,60,,60,No,D,Raw
1,Evgeniy Nishtun,Евгений Ништун,M,2000-11-30,Sub-Juniors 17-19,60,58.9,,,,,,,,,,,142.5,152.5,162.5,162.5,,162.5,No,D,Raw
1,Vyacheslav Vavilov,Вячеслав Вавилов,M,1990-08-02,Open,67.5,67.5,,,,,,,,,,,190,205,-222.5,205,,205,No,D,Raw
DQ,Aleksandr Dambinov,Александр Дамбинов,M,1936-03-12,Masters 80-89,67.5,65.7,,,,,,,,,,,-170,,,,,,No,D,Raw
1,Stanislav Zhabunin,Станислав Жабунин,M,2000-10-05,Sub-Juniors 17-19,75,72,,,,,,,,,,,160,172.5,182.5,182.5,,182.5,No,D,Raw
1,Aslan Iskarinov,Аслан Искаринов,M,1998-09-05,Juniors 20-23,75,71.5,,,,,,,,,,,-200,207.5,-212.5,207.5,,207.5,No,D,Raw
1,Evgeniy Afanasev,Евгений Афанасьев,M,1988-04-22,Open,75,73,,,,,,,,,,,225,232.5,-237.5,232.5,,232.5,No,D,Raw
2,Dakhir Semenov,Дахир Семенов,M,1994-05-02,Open,75,75,,,,,,,,,,,220,-232.5,,220,,220,No,D,Raw
1,Sergey Afanasev,Сергей Афанасьев,M,1990-05-02,Open,82.5,82.5,,,,,,,,,,,200,210,220,220,,220,No,D,Raw
DQ,Aleksey Khekalo,Алексей Хекало,M,2000-08-28,Open,82.5,80.9,,,,,,,,,,,-240,-240,-240,,,,No,D,Raw
1,Aleksandr Shchepetnov,Александр Щепетнов,M,1978-04-08,Masters 40-49,82.5,77.9,,,,,,,,,,,212.5,217.5,,217.5,,217.5,No,D,Raw
1,Mikhail Poruchaev,Михаил Поручаев,M,1986-05-20,Open,90,87.3,,,,,,,,,,,-222.5,232.5,240,240,,240,No,D,Raw
2,Sergey Yakovlev,Сергей Яковлев,M,1985-08-17,Open,90,89.3,,,,,,,,,,,200,215,232.5,232.5,,232.5,No,D,Raw
1,Aleksey Nazarov,Алексей Назаров,M,1990-01-28,Open,100,98,,,,,,,,,,,265,275,-282.5,275,,275,No,D,Raw
2,Sergey Balychev,Сергей Балычев,M,1980-04-28,Open,100,95.5,,,,,,,,,,,230,240,250,250,,250,No,D,Raw
3,Vladimir Kruglov,Владимир Круглов,M,1983-03-17,Open,100,99.9,,,,,,,,,,,220,232.5,,232.5,,232.5,No,D,Raw
4,Anton Kraynikov,Антон Крайников,M,1990-02-11,Open,100,100,,,,,,,,,,,190,200,-240,200,,200,No,D,Raw
1,Konstantin Ivashchenko,Константин Иващенко,M,1991-02-06,Open,110,103.6,,,,,,,,,,,190,210,-225,210,,210,No,D,Raw
1,Valeriya Sorokina,Валерия Сорокина,F,2000-12-28,Sub-Juniors 17-19,52,52,,,,,,,,,,,-125,130,137.5,137.5,,137.5,No,D,Raw
1,Svetlana Emelyanova,Светлана Емельянова,F,1990-10-04,Open,52,51.8,,,,,,,,,,,70,77.5,85,85,,85,No,D,Raw
1,Anastasiya Mironova,Анастасия Миронова,F,2003-08-06,Teen 14-16,56,55.8,,,,,,,,,,,95,100,105,105,,105,No,D,Raw
1,Olga Shilina,Ольга Шилина,F,1983-01-03,Open,56,54.5,,,,,,,,,,,110,125,132.5,132.5,,132.5,No,D,Raw
1,Viktoriya Malinovskaya,Виктория Малиновская,F,1983-10-05,Open,75,68.6,,,,,,,,,,,210,217.5,-225,217.5,,217.5,No,D,Raw
1,Sergey Russkov,Сергей Руссков,M,1991-09-07,Open,75,72.9,,,,,,,,,,,240,255,-260,255,,255,No,D,Raw
2,Orkhan Alikberov,Орхан Аликберов,M,1983-12-05,Open,75,73,,,,,,,,,,,242.5,-252.5,-257.5,242.5,,242.5,No,D,Raw
3,Mikhail Fatin,Михаил Фатин,M,1987-02-09,Open,75,74.5,,,,,,,,,,,230,-240,-240,230,,230,No,D,Raw
1,Roman Stupnikov,Роман Ступников,M,1988-01-21,Open,82.5,82.4,,,,,,,,,,,310,325.5,,325.5,,325.5,No,D,Raw
2,Vladislav Annushkin,Владислав Аннушкин,M,1990-11-06,Open,82.5,79.7,,,,,,,,,,,200,215,-227.5,215,,215,No,D,Raw
1,Aleksandr Cherednichenko,Александр Чередниченко,M,1991-02-04,Open,90,89.9,,,,,,,,,,,-300,300,-320,300,,300,No,D,Raw
2,Stanislav Spiridonok,Станислав Спиридонок,M,1986-10-06,Open,90,87.2,,,,,,,,,,,210,230,245,245,,245,No,D,Raw
3,Aleksandr Kirinkin,Александр Киринкин,M,1987-07-11,Open,90,89.4,,,,,,,,,,,-240,-240,240,240,,240,No,D,Raw
1,Aleksandr Losuchenko,Александр Лосученко,M,1955-12-06,Masters 60-69,90,89.2,,,,,,,,,,,260,272.5,,272.5,,272.5,No,D,Raw
1,Igor Vorobev,Игорь Воробьев,M,1994-06-18,Open,100,98.8,,,,,,,,,,,-320,320,340,340,,340,No,D,Raw
2,Ivan Parasotchenko,Иван Парасотченко,M,1984-08-08,Open,100,97.2,,,,,,,,,,,240,260,272.5,272.5,,272.5,No,D,Raw
3,Aleksey Kiselev,Алексей Киселев,M,1974-04-27,Open,100,100,,,,,,,,,,,255,265,272.5,272.5,,272.5,No,D,Raw
4,Sergey Yurev,Сергей Юрьев,M,1993-10-17,Open,100,99.7,,,,,,,,,,,220,240,-260,240,,240,No,D,Raw
1,Aleksey Kiselev,Алексей Киселев,M,1974-04-27,Masters 40-49,100,100,,,,,,,,,,,255,265,272.5,272.5,,272.5,No,D,Raw
1,Sergey Samoylov,Сергей Самойлов,M,1966-12-02,Masters 50-59,100,94.1,,,,,,,,,,,165,170,175,175,,175,No,D,Raw
1,Dmitriy Greznev,Дмитрий Грезнев,M,1974-11-26,Open,110,107.7,,,,,,,,,,,300,315,330,330,,330,No,D,Raw
2,Artem Tarakanov,Артем Тараканов,M,1992-07-03,Open,110,108.2,,,,,,,,,,,240,255,-285,255,,255,No,D,Raw
3,Nikita Rybalchenko,Никита Рыбальченко,M,1992-07-11,Open,110,105.7,,,,,,,,,,,-220,220,240,240,,240,No,D,Raw
1,Aleksandr Yakovlev,Александр Яковлев,M,1978-07-13,Masters 40-49,110,101.8,,,,,,,,,,,200,220,-230,220,,220,No,D,Raw
1,Oleg Portnov,Олег Портнов,M,1996-12-23,Open,125,121.9,,,,,,,,,,,335,345,355,355,,355,No,D,Raw
1,Valentin Trepshin,Валентин Трепшин,M,1987-06-10,Open,125,114.6,,,,,,,,,,,240,255,-270,255,,255,No,D,Raw
2,Dmitriy Egorov,Дмитрий Егоров,M,1982-10-05,Open,125,118,,,,,,,,,,,215,225,-230,225,,225,No,D,Raw
1,Vadim Shishkin,Вадим Шишкин,M,2000-12-08,Sub-Juniors 17-19,60,57.9,,,,,,,,,,,120,135,140,140,,140,No,D,Raw
1,Oleg Pichugin,Олег Пичугин,M,1966-04-02,Masters 50-59,100,91.6,,,,,,,,,,,275,285,295,295,-300,295,No,D,Raw
