Sex,Name,CyrillicName,Place,BodyweightKg,Squat1Kg,Squat2Kg,Squat3Kg,Best3SquatKg,Squat4Kg,Bench1Kg,Bench2Kg,Bench3Kg,Best3BenchKg,Bench4Kg,Deadlift1Kg,Deadlift2Kg,Deadlift3Kg,Best3DeadliftKg,Deadlift4Kg,TotalKg,WeightClassKg,Event,Equipment,Tested,Division,Age,BirthDate
M,Nail Salakhov,Наиль Салахов,1,66.5,120,-130,-130,120,,55,65,67.5,67.5,,120,125,130,130,,317.5,67.5,SBD,Raw,No,Pro Open,37,1982-08-03
M,Evgeniy Artyushin,Евгений Артюшин,1,98.9,225,240,-250,240,,130,145,150,150,,220,235,245,245,,635,100,SBD,Raw,No,Pro Masters 40-44,40,1979-01-29
F,Valentina Gridasova,Валентина Гридасова,1,60,80,-90,-90,80,,35,40,-42.5,40,,100,110,117.5,117.5,,237.5,60,SBD,Raw,No,Pro Masters 40-44,42,1976-11-15
F,Lusine Khachaturyan,Лусинэ Хачатурян,1,67.5,140,150,-160,150,,75,80,-85,80,,130,140,150,150,,380,67.5,SBD,Raw,No,Pro Juniors 20-23,23,1996-05-08
M,Valeriy Grishin,Валерий Гришин,1,95.5,-165,170,-180,170,,105,112.5,-120,112.5,,160,170,180,180,,462.5,100,SBD,Raw,No,Pro Teen 18-19,19,2000-08-19
M,Aleksandr Migutin,Александр Мигутин,1,33,,,,,,22.5,-25,25,25,,,,,,,25,52,B,Raw,No,Pro Youth,,2008-10-12
M,Kirill Kondratinskiy,Кирилл Кондратинский,1,56.9,,,,,,25,27.5,-30,27.5,,,,,,,27.5,60,B,Raw,No,Pro Youth,11,2008-03-04
M,Aleksandr Lebedev,Александр Лебедев,1,59.8,,,,,,85,100,107.5,107.5,,,,,,,107.5,60,B,Raw,No,Pro Open,35,1984-03-16
M,Aleksandr Dostovalov,Александр Достовалов,1,73.5,,,,,,125,-135,-135,125,,,,,,,125,75,B,Raw,No,Pro Open,31,1988-10-01
M,Roman Maslov,Роман Маслов,2,73.5,,,,,,-115,-120,120,120,,,,,,,120,75,B,Raw,No,Pro Open,35,1984-03-16
M,Mikhail Panin,Михаил Панин,1,80.7,,,,,,120,-125,-127.5,120,,,,,,,120,82.5,B,Raw,No,Pro Open,29,1989-11-27
M,Nikita Khlyntsev,Никита Хлынцев,2,79.9,,,,,,-100,-100,100,100,,,,,,,100,82.5,B,Raw,No,Pro Open,32,1987-07-28
M,Aleksey Fomkin,Алексей Фомкин,1,88.8,,,,,,-160,160,-170,160,,,,,,,160,90,B,Raw,No,Pro Open,27,1992-03-15
M,Roman Ivanov,Роман Иванов,1,88.2,,,,,,120,-135,140,140,,,,,,,140,90,B,Raw,No,Pro Masters 40-44,40,1978-11-07
M,Igor Semenov,Игорь Семенов,1,97.7,,,,,,150,-162.5,162.5,162.5,,,,,,,162.5,100,B,Raw,No,Pro Open,35,1984-05-01
M,Aleksandr Mikheev,Александр Михеев,2,97.9,,,,,,125,130,135,135,,,,,,,135,100,B,Raw,No,Pro Open,32,1987-05-21
M,Aleksey Ivanov,Алексей Иванов,1,96.4,,,,,,150,162.5,165,165,,,,,,,165,100,B,Raw,No,Pro Masters 40-44,44,1975-03-30
M,Yuriy Sobchenko,Юрий Собченко,2,98.8,,,,,,145,150,152.5,152.5,,,,,,,152.5,100,B,Raw,No,Pro Masters 40-44,43,1975-11-11
M,Vitaliy Smirnov,Виталий Смирнов,1,100.7,,,,,,165,172.5,177.5,177.5,,,,,,,177.5,110,B,Raw,No,Pro Open,38,1981-05-24
M,Sergey Turchaninov,Сергей Турчанинов,1,90,,,,,,,,,,,185,195,205,205,,205,90,D,Raw,No,Pro Open,29,1990-09-17
M,Roman Ivanov,Роман Иванов,1,88.3,,,,,,,,,,,-140,160,195,195,,195,90,D,Raw,No,Pro Masters 40-44,40,1978-11-07
M,Evgeniy Sokolov,Евгений Соколов,1,94.1,,,,,,,,,,,-140,165,195,195,,195,100,D,Raw,No,Pro Open,31,1988-02-06
