Sex,Name,CyrillicName,BodyweightKg,Squat1Kg,Squat2Kg,Squat3Kg,Best3SquatKg,Squat4Kg,Bench1Kg,Bench2Kg,Bench3Kg,Best3BenchKg,Bench4Kg,Deadlift1Kg,Deadlift2Kg,Deadlift3Kg,Best3DeadliftKg,Deadlift4Kg,TotalKg,WeightClassKg,Event,Equipment,Tested,Division,BirthDate,Place
F,Kseniya Moldovanova,Ксения Молдованова,47,45,50,55,55,,40,45,47.5,47.5,,50,55,60,60,,162.5,48,SBD,Raw,No,Pro Teen 13-15,2004-12-19,1
F,Darya Anosova,Дарья Аносова,48,-50,-50,50,50,,-30,-30,-30,,,,,,,,,48,SBD,Raw,No,Pro Juniors 20-23,1999-02-12,DQ
F,Yuliya Akulinina,Юлия Акулинина,59.5,90,95,-100,95,,-45,45,47.5,47.5,,95,100,105,105,,247.5,60,SBD,Raw,No,Pro Open,1987-10-01,1
F,Elena Kuzminova,Елена Кузьминова,62,65,70,80,80,,35,37.5,-40,37.5,,80,85,90,90,,207.5,67.5,SBD,Raw,No,Pro Teen 18-19,2000-08-06,1
F,Sofya Veselova,Софья Веселова,62,-55,55,60,60,,27.5,30,35,35,,55,65,75,75,,170,67.5,SBD,Raw,No,Pro Juniors 20-23,1998-04-21,1
M,Evgeniy Shabanov,Евгений Шабанов,62.5,120,125,-130,125,,75,80,-85,80,,120,125,130,130,,335,67.5,SBD,Raw,No,Pro Teen 13-15,2003-03-11,1
M,Stanislav Pshenichnyy,Станислав Пшеничный,64,80,85,90,90,,50,-57.5,-57.5,50,,90,95,100,100,,240,67.5,SBD,Raw,No,Pro Teen 13-15,2005-05-30,2
M,Ivan Krutov,Иван Крутов,66,100,110,120,120,,75,80,82.5,82.5,,170,180,190,190,,392.5,67.5,SBD,Raw,No,Pro Teen 16-17,2002-11-21,1
M,Maksim Chelnokov,Максим Челноков,63.5,100,110,-120,110,,85,90,92.5,92.5,,110,125,140,140,,342.5,67.5,SBD,Raw,No,Pro Teen 16-17,2001-06-11,2
M,Nikita Sorokin,Никита Сорокин,67.5,65,72.5,80,80,,60,65,-70,65,,100,110,115,115,,260,67.5,SBD,Raw,No,Pro Teen 16-17,2002-10-31,3
M,Nikita Latygin,Никита Латыгин,62,65,70,75,75,,60,65,-67.5,65,,100,-110,110,110,,250,67.5,SBD,Raw,No,Pro Teen 16-17,2002-06-25,4
M,Andrey Akimov,Андрей Акимов,73.5,100,110,120,120,,75,82.5,85,85,,110,125,-140,125,,330,75,SBD,Raw,No,Pro Teen 13-15,2005-02-24,1
M,Ilya Plekhanov,Илья Плеханов,74.8,80,90,102.5,102.5,,60,70,-80,70,,100,110,125,125,,297.5,75,SBD,Raw,No,Pro Teen 13-15,2005-03-01,2
M,Viktor Kabardin,Виктор Кабардин,82,145,152.5,160,160,,110,117.5,122.5,122.5,,185,200,212.5,212.5,,495,82.5,SBD,Raw,No,Pro Teen 18-19,1999-09-30,1
M,Nikolay Skopin,Николай Скопин,79.8,145,155,162.5,162.5,,95,105,-110,105,,160,-172.5,180,180,,447.5,82.5,SBD,Raw,No,Pro Teen 18-19,1999-05-21,2
M,Aleksandr Skurlatov,Александр Скурлатов,78.5,140,145,150,150,,95,100,-102.5,100,,180,185,190,190,,440,82.5,SBD,Raw,No,Pro Teen 18-19,1999-09-08,3
M,Gavriil Zakrzhevskiy,Гавриил Закржевский,90,120,-125,-125,120,,90,-95,95,95,,115,125,135,135,,350,90,SBD,Raw,No,Pro Teen 16-17,2002-12-29,1
M,Evgeniy Palkin,Евгений Палькин,86.5,145,155,160,160,,130,135,-137.5,135,,190,200,-205,200,,495,90,SBD,Raw,No,Pro Open,1973-03-14,1
M,Sergey Zubarev,Сергей Зубарев,88,210,220,-232.5,220,,,,,,,,,,,,,90,SBD,Raw,No,Pro Open,1964-03-31,DQ
M,Aleksandr Parshkov,Александр Паршков,90,-160,,,,,,,,,,,,,,,,90,SBD,Raw,No,Pro Open,1989-12-26,DQ
M,Aleksey Krasnoshchekov,Алексей Краснощеков,85,175,182.5,190,190,,150,155,-157.5,155,,220,235,245,245,,590,90,SBD,Raw,No,Pro Masters 40-44,1975-11-11,1
M,Aleksey Bolyak,Алексей Боляк,100,-180,-180,-180,,,,,,,,,,,,,,100,SBD,Raw,No,Pro Open,1985-02-12,DQ
M,Aleksandr Nikolaev,Александр Николаев,93,160,-170,-170,160,,-115,-115,115,115,,180,190,200,200,,475,100,SBD,Raw,No,Pro Masters 45-49,1969-03-06,1
M,Mikhail Slepov,Михаил Слепов,69.5,-110,115,-120,115,,80,85,87.5,87.5,,110,120,130,130,,332.5,75,SBD,Wraps,No,Pro Teen 13-15,2003-06-05,1
M,Aleksey Smagin,Алексей Смагин,122.5,200,-210,-215,200,,130,135,137.5,137.5,,200,210,220,220,,557.5,125,SBD,Wraps,No,Pro Open,1991-04-10,1
F,Viktoriya Orlova,Виктория Орлова,49.8,,,,,,50,55,-57.5,55,,,,,,,55,52,B,Raw,No,Pro Teen 13-15,2003-05-22,1
F,Sofya Berdenkova,Софья Берденкова,50.5,,,,,,32.5,35,37.5,37.5,,,,,,,37.5,52,B,Raw,No,Pro Teen 13-15,2003-11-02,2
F,Tatyana Kharitonova,Татьяна Харитонова,50,,,,,,35,-37.5,-37.5,35,,,,,,,35,52,B,Raw,No,Pro Teen 13-15,2004-05-23,3
F,Alyona Ulbutova,Алёна Улбутова,52,,,,,,42.5,-47.5,47.5,47.5,,,,,,,47.5,52,B,Raw,No,Pro Open,1994-01-24,1
F,Elena Skobelina,Елена Скобелина,55,,,,,,47.5,52.5,-57.5,52.5,,,,,,,52.5,56,B,Raw,No,Pro Masters 40-44,1974-08-12,1
F,Varvara Grigoreva,Варвара Григорьева,58.5,,,,,,45,47.5,50,50,,,,,,,50,60,B,Raw,No,Pro Teen 13-15,2004-01-05,1
F,Veronika Zhukova,Вероника Жукова,60,,,,,,45,47.5,50,50,,,,,,,50,60,B,Raw,No,Pro Open,1982-12-07,1
F,Anna-Mariya Lyudvikevich,Анна-Мария Людвикевич,72,,,,,,-70,70,75,75,,,,,,,75,75,B,Raw,No,Pro Open,1991-01-03,1
M,Dmitriy Zhukov,Дмитрий Жуков,50,,,,,,35,-40,40,40,,,,,,,40,52,B,Raw,No,Pro Youth,2008-05-30,1
M,Kirill Zhukov,Кирилл Жуков,40,,,,,,-27.5,27.5,30,30,,,,,,,30,52,B,Raw,No,Pro Youth,2007-02-09,2
M,Vadim Cherepanov,Вадим Черепанов,57,,,,,,85,-90,-95,85,,,,,,,85,60,B,Raw,No,Pro Teen 13-15,2003-05-03,1
M,Aleksandr Chegodaev,Александр Чегодаев,59,,,,,,62.5,67.5,70,70,,,,,,,70,60,B,Raw,No,Pro Teen 13-15,2004-03-15,2
M,Sergey Manyshev,Сергей Манышев,60,,,,,,-92.5,92.5,-97.5,92.5,,,,,,,92.5,60,B,Raw,No,Pro Teen 16-17,2001-12-10,1
M,Sergey Averyanov,Сергей Аверьянов,59.5,,,,,,80,85,-90,85,,,,,,,85,60,B,Raw,No,Pro Teen 16-17,2001-05-12,2
M,Anatoliy Zubarev,Анатолий Зубарев,61.8,,,,,,110,115,-120,115,,,,,,,115,67.5,B,Raw,No,Pro Teen 13-15,2003-03-20,1
M,Maksim Lopatkin,Максим Лопаткин,65,,,,,,65,72.5,-75,72.5,,,,,,,72.5,67.5,B,Raw,No,Pro Teen 16-17,2002-05-29,1
M,Mikhail Drygin,Михаил Дрыгин,65.5,,,,,,70,75,80,80,,,,,,,80,67.5,B,Raw,No,Pro Teen 18-19,2000-06-02,1
M,Boris Golodyaev,Борис Голодяев,71.5,,,,,,75,80,82.5,82.5,,,,,,,82.5,75,B,Raw,No,Pro Teen 13-15,2004-02-24,1
M,Aleksey Manyshev,Алексей Манышев,75,,,,,,115,120,-122.5,120,,,,,,,120,75,B,Raw,No,Pro Juniors 20-23,1996-08-28,1
M,Andrey Chegodaev,Андрей Чегодаев,81,,,,,,52.5,55,60,60,,,,,,,60,82.5,B,Raw,No,Pro Teen 13-15,2005-11-06,1
M,Artyom Kalinin,Артём Калинин,79.8,,,,,,90,95,-97.5,95,,,,,,,95,82.5,B,Raw,No,Pro Teen 16-17,2002-06-26,1
M,Vladimir Vladimirov,Владимир Владимиров,79.6,,,,,,150,155,160,160,,,,,,,160,82.5,B,Raw,No,Pro Open,1993-04-30,1
M,Vladimir Tregubenko,Владимир Трегубенко,82.5,,,,,,137.5,145,152.5,152.5,,,,,,,152.5,82.5,B,Raw,No,Pro Open,1987-08-14,2
M,Yakov Kislov,Яков Кислов,81.5,,,,,,130,-135,135,135,,,,,,,135,82.5,B,Raw,No,Pro Open,1992-10-01,3
M,Pavel Kiselev,Павел Киселев,86,,,,,,145,152.5,-157.5,152.5,,,,,,,152.5,90,B,Raw,No,Pro Teen 18-19,1999-11-03,1
M,David Avanesyan,Давид Аванесян,86,,,,,,122.5,127.5,132.5,132.5,,,,,,,132.5,90,B,Raw,No,Pro Teen 18-19,2000-09-06,2
M,Aleksandr Ivanov,Александр Иванов,87.5,,,,,,150,-155,157.5,157.5,,,,,,,157.5,90,B,Raw,No,Pro Open,1992-07-09,1
M,Evgeniy Leginkov,Евгений Легиньков,90,,,,,,150,157.5,-162.5,157.5,,,,,,,157.5,90,B,Raw,No,Pro Open,1987-01-15,2
M,Evgeniy Gorbunov,Евгений Горбунов,84,,,,,,135,145,-150,145,,,,,,,145,90,B,Raw,No,Pro Open,1992-10-27,3
M,Anton Morgunov,Антон Моргунов,86,,,,,,90,100,-110,100,,,,,,,100,90,B,Raw,No,Pro Open,1994-12-16,4
M,Igor Didenko,Игорь Диденко,95,,,,,,165,172.5,177.5,177.5,,,,,,,177.5,100,B,Raw,No,Pro Teen 18-19,1999-03-27,1
M,Maksim Moldovanov,Максим Молдованов,92,,,,,,147.5,155,160,160,,,,,,,160,100,B,Raw,No,Pro Juniors 20-23,1998-10-22,1
M,Vladislav Antipov,Владислав Антипов,95,,,,,,140,147.5,-152.5,147.5,,,,,,,147.5,100,B,Raw,No,Pro Juniors 20-23,1996-03-28,2
M,Vitaliy Cherednikov,Виталий Чередников,92.8,,,,,,130,135,-137.5,135,,,,,,,135,100,B,Raw,No,Pro Open,1982-03-26,1
M,Aleksandr Zhukov,Александр Жуков,109,,,,,,200,205,,205,,,,,,,205,110,B,Raw,No,Pro Open,1983-03-13,1
M,Anton Troyashkin,Антон Трояшкин,70,,,,,,220,235,-245,235,,,,,,,235,75,B,Unlimited,No,Pro Open,1992-08-17,1
M,Vladimir Lemaev,Владимир Лемаев,76,,,,,,230,-240,240,240,,,,,,,240,82.5,B,Unlimited,No,Pro Open,1983-12-27,1
M,Aleksandr Zhukov,Александр Жуков,109,,,,,,-300,310,,310,,,,,,,310,110,B,Unlimited,No,Pro Open,1983-03-13,1
M,Aleksandr Pavelev,Александр Павельев,110,,,,,,-200,220,230,230,,,,,,,230,110,B,Unlimited,No,Pro Open,1980-07-27,2
F,Tatyana Novikova,Татьяна Новикова,49,,,,,,,,,,,70,75,80,80,,80,52,D,Raw,No,Pro Juniors 20-23,1999-01-02,1
F,Olga Kuzminova,Ольга Кузьминова,60,,,,,,,,,,,60,-80,80,80,,80,60,D,Raw,No,Pro Juniors 20-23,1998-04-21,1
M,Sergey Averyanov,Сергей Аверьянов,59.5,,,,,,,,,,,110,125,135,135,,135,60,D,Raw,No,Pro Teen 16-17,2001-05-12,1
M,Aleksey Barkalov,Алексей Баркалов,60,,,,,,,,,,,110,122.5,130,130,,130,60,D,Raw,No,Pro Teen 18-19,1999-04-27,1
M,Vyacheslav Suchkov,Вячеслав Сучков,59,,,,,,,,,,,105,110,120,120,,120,60,D,Raw,No,Pro Juniors 20-23,1998-12-12,1
M,Dmitriy Golev,Дмитрий Голев,66.5,,,,,,,,,,,120,130,140,140,,140,67.5,D,Raw,No,Pro Teen 18-19,1999-04-12,1
M,Vadim Lukashov,Вадим Лукашов,78.8,,,,,,,,,,,110,130,140,140,,140,82.5,D,Raw,No,Pro Teen 18-19,1999-12-15,1
M,Aleksandr Parshkov,Александр Паршков,90,,,,,,,,,,,210,225,230,230,,230,90,D,Raw,No,Pro Open,1989-12-26,1
M,Roman Barinov,Роман Баринов,104,,,,,,,,,,,140,150,160,160,,160,110,D,Raw,No,Pro Teen 16-17,2001-05-13,1
