Place,WeightClassKg,Sex,Division,Name,CyrillicName,BirthDate,BodyweightKg,Best3SquatKg,Best3BenchKg,Best3DeadliftKg,TotalKg,Event,Equipment
1,44,M,Sub-Juniors,Andrey Bilїk,Андрей Бильїк,1998-12-13,44,90,55,100,245,SBD,Single-ply
1,48,M,Sub-Juniors,Sergey Miroshnikov,Сергей Мирошников,1993-06-08,48,105,70,120,295,SBD,Single-ply
2,48,M,Sub-Juniors,Vladislav Poltavets,Владислав Полтавец,1992-10-20,47.3,80,50,105,235,SBD,Single-ply
3,48,M,Sub-Juniors,Yaroslav Maslov,Ярослав Маслов,1995-10-05,46.5,80,45,85,210,SBD,Single-ply
1,52,M,Sub-Juniors,Dmitriy Bordyug,Дмитрий Бордюг,1996-08-12,51.5,145,80,140,365,SBD,Single-ply
2,52,M,Sub-Juniors,Oleg Lugansniy,Олег Лугансний,1996-01-01,51.7,120,60,135,315,SBD,Single-ply
3,52,M,Sub-Juniors,Stanislav Petruk,Станіслав Петрук,1994-11-29,51.7,100,55,120,275,SBD,Single-ply
1,56,M,Sub-Juniors,Mayk Loboda,Майк Лобода,1993-06-16,54.5,127.5,95,150,372.5,SBD,Single-ply
2,56,M,Sub-Juniors,Daniil Kovalev,Даниил Ковалев,1996-01-24,55.9,135,72.5,135,342.5,SBD,Single-ply
3,56,M,Sub-Juniors,Vladimir Volokitin,Владимир Волокитин,1996-07-14,55.4,127.5,67.5,130,325,SBD,Single-ply
4,56,M,Sub-Juniors,Stanislav Rudenko,Станислав Руденко,1997-01-01,56,107.5,60,110,277.5,SBD,Single-ply
1,60,M,Sub-Juniors,Yaroslav Khovalkin,Ярослав Ховалкін,1994-04-16,59.9,180,95,190,465,SBD,Single-ply
2,60,M,Sub-Juniors,Denis Tupakhin,Денис Тупахин,1994-01-28,58.7,160,110,175,445,SBD,Single-ply
1,67.5,M,Sub-Juniors,Aleksey Cheusov,Алексей Чеусов,1994-06-24,66.2,185,90,185,460,SBD,Single-ply
2,67.5,M,Sub-Juniors,Mikhail Tarakanovskiy,Михаил Таракановский,1995-06-23,63.6,160,110,165,435,SBD,Single-ply
3,67.5,M,Sub-Juniors,Yuriy Semenov,Юрий Семенов,1994-08-26,62.1,140,85,167.5,392.5,SBD,Single-ply
4,67.5,M,Sub-Juniors,Sergey Petrenko,Сергей Петренко,1993-09-19,64.7,140,80,160,380,SBD,Single-ply
5,67.5,M,Sub-Juniors,Yvan Zubko,Йван Зубко,1994-01-01,64.2,150,70,135,355,SBD,Single-ply
6,67.5,M,Sub-Juniors,Vasiliy Pavelev,Василий Павельев,1994-11-24,62.5,130,77.5,135,342.5,SBD,Single-ply
DQ,67.5,M,Sub-Juniors,Ruslan Leonov,Руслан Леонов,1995-07-04,63.9,90,-60,,,SBD,Single-ply
1,75,M,Sub-Juniors,Artem Degtyarenko,Артем Дегтяренко,1992-01-01,73,205,135,205,545,SBD,Single-ply
2,75,M,Sub-Juniors,Yvan Odarenko,Йван Одаренко,1992-05-09,72.7,197.5,107.5,192.5,497.5,SBD,Single-ply
3,75,M,Sub-Juniors,Vadim Bilїk,Вадим Бильїк,1994-01-08,74.2,180,105,195,480,SBD,Single-ply
4,75,M,Sub-Juniors,Evgeniy Mitchenkov,Евгений Митченков,1994-08-03,73.7,180,102.5,195,477.5,SBD,Single-ply
5,75,M,Sub-Juniors,Sergey Ignatyuk,Сергей Игнатюк,1993-11-02,69.1,160,110,200,470,SBD,Single-ply
6,75,M,Sub-Juniors,Aleksandr Balenko,Александр Баленко,1992-04-01,71.4,180,90,195,465,SBD,Single-ply
7,75,M,Sub-Juniors,Anatoliy Dyadichenko,Анатолий Дядиченко,1994-06-23,70,150,105,170,425,SBD,Single-ply
8,75,M,Sub-Juniors,Dima Mazurov,Дима Мазуров,1994-01-01,75,150,85,165,400,SBD,Single-ply
1,82.5,M,Sub-Juniors,Sergey Kovalenko,Сергей Коваленко,1994-03-05,77.6,240,140,240,620,SBD,Single-ply
2,82.5,M,Sub-Juniors,Sergey Zhuravlev #2,Сергей Журавлев,1993-07-02,82.2,190,170,195,555,SBD,Single-ply
3,82.5,M,Sub-Juniors,Giya Troyanov,Гія Троянов,1992-01-01,82.5,195,120,200,515,SBD,Single-ply
4,82.5,M,Sub-Juniors,Evgeniy Rebenok,Евгений Ребенок,1993-03-01,76.1,175,115,200,490,SBD,Single-ply
5,82.5,M,Sub-Juniors,Vadim Pilipenko,Вадим Пилипенко,1993-11-19,78.3,155,65,165,385,SBD,Single-ply
6,82.5,M,Sub-Juniors,Ruslan Ferar,Руслан Ферар,1993-10-12,79.9,120,72.5,155,347.5,SBD,Single-ply
1,90,M,Sub-Juniors,Roman Erbmin,Роман Ербмин,1993-01-25,89.4,250,140,200,590,SBD,Single-ply
2,90,M,Sub-Juniors,Oleg Tematkin,Олег Тематкин,1995-02-08,85,125,65,145,335,SBD,Single-ply
3,90,M,Sub-Juniors,Denis Blinnikov,Денис Блинников,1995-05-07,84.1,120,80,132.5,332.5,SBD,Single-ply
1,100,M,Sub-Juniors,Pavel Gorbenko,Павел Горбенко,1994-12-09,90.2,157.5,110,170,437.5,SBD,Single-ply
DQ,110,M,Sub-Juniors,Vladimir Danilov,Владимир Данилов,1994-06-18,104.8,172.5,-130,200,,SBD,Single-ply
1,48,F,Sub-Juniors,Mariya Didenko,Марія Діденко,1995-01-01,46.8,77.5,40,90,207.5,SBD,Single-ply
1,52,F,Sub-Juniors,Viktoriya Zraychenko,Вікторія Зрайченко,1994-08-09,51.9,125,75,137.5,337.5,SBD,Single-ply
2,52,F,Sub-Juniors,Ruslana Lisenko,Руслана Льісенко,1994-02-04,50.7,70,40,90,200,SBD,Single-ply
1,56,F,Sub-Juniors,Valeriya Zarudnyak,Валерия Зарудняк,1995-05-23,53.5,65,35,80,180,SBD,Single-ply
1,60,F,Sub-Juniors,Anna Ryabka,Анна Рябка,1994-12-27,58.8,80,40,95,215,SBD,Single-ply
1,67.5,F,Sub-Juniors,Inna Yakovenko,Инна Яковенко,1993-11-12,64.3,75,37.5,90,202.5,SBD,Single-ply
