Place,Name,WeightClassKg,Sex,Equipment,Tested,Event,BirthDate,Country,Division,BodyweightKg,Squat1Kg,Squat2Kg,Squat3Kg,Squat4Kg,Best3SquatKg,Bench1Kg,Bench2Kg,Bench3Kg,Bench4Kg,Best3BenchKg,Deadlift1Kg,Deadlift2Kg,Deadlift3Kg,Deadlift4Kg,Best3DeadliftKg,TotalKg
1,Viktoriya Sharovatova,44,F,Raw,Yes,SBD,2000-04-13,Russia,Amateur Teen 13-15,44,-40,45,50,,50,42.5,-45,45,,45,70,75,82.5,,82.5,177.5
1,Natalya Tskhay,44,F,Raw,Yes,SBD,1975-04-19,Kazakhstan,Amateur Open,44,70,75,80,,80,40,-45,-45,,40,90,-102.5,-102.5,,90,210
1,Tamara Rybachenko,48,F,Raw,Yes,SBD,1985-05-31,Russia,Amateur Open,48,90,92.5,95,,95,50,52.5,55,,55,100,110,115,,115,265
2,Anastasiya Volkova,48,F,Raw,Yes,SBD,1990-04-20,Russia,Amateur Open,47.9,70,80,85,,85,45,-50,50,,50,80,100,110,,110,245
DQ,Tatyana Chechkina,48,F,Raw,Yes,SBD,1986-07-26,Russia,Amateur Open,48,-110,-110,-110,,,,,,,,,,,,,
1,Viktoriya Kurpatova,52,F,Raw,Yes,SBD,1992-11-15,Russia,Amateur Juniors 20-23,51.1,105,110,115,,115,62.5,65,70,,70,102.5,110,-120,,110,295
2,Anna Fedorova,52,F,Raw,Yes,SBD,1991-04-22,Russia,Amateur Juniors 20-23,51.6,-67.5,67.5,72.5,,72.5,42.5,45,-47.5,,45,70,75,-82.5,,75,192.5
1,Natalya Konchakova,52,F,Raw,Yes,SBD,1977-08-14,Russia,Amateur Open,51,107.5,-115.5,-115.5,,107.5,60,-65,-65,,60,125,-135,140,,140,307.5
2,Anna Vishnyak,52,F,Raw,Yes,SBD,1984-12-12,Russia,Amateur Open,51.6,95,-105,105,,105,60,65,67.5,,67.5,120,132.5,-142.5,,132.5,305
3,Viktoriya Kurpatova,52,F,Raw,Yes,SBD,1992-11-15,Russia,Amateur Open,51.1,105,110,115,,115,62.5,65,70,,70,102.5,110,-120,,110,295
4,Oksana Moiseenko,52,F,Raw,Yes,SBD,1981-05-23,Russia,Amateur Open,50.9,75,-85,-85,,75,47.5,-50,-50,,47.5,-85,85,90,,90,212.5
5,Natalya Klimenko,52,F,Raw,Yes,SBD,1985-05-25,Russia,Amateur Open,50.4,60,70,75,,75,35,37.5,-40,,37.5,70,80,90,,90,202.5
1,Natalya Yarotskaya,52,F,Raw,Yes,SBD,1963-09-18,Russia,Amateur Masters 50-54,51,60,70,75,,75,37.5,-40,-40,,37.5,60,70,-80,,70,182.5
1,Anastasiya Saydentsal,56,F,Raw,Yes,SBD,1998-07-24,Russia,Amateur Teen 13-15,55.7,80,85,90,,90,52.5,-57.5,-57.5,,52.5,85,-92.5,92.5,,92.5,235
1,Lidiia Zaiats,56,F,Raw,Yes,SBD,1996-03-19,Russia,Amateur Teen 18-19,55.6,45,50,60,,60,45,50,-55,,50,80,90,100,,100,210
1,Anna Ivannikova,56,F,Raw,Yes,SBD,1991-05-12,Russia,Amateur Juniors 20-23,55,70,-80,-80,,70,45,50,-52.5,,50,75,80,90,,90,210
1,Ekaterina Galochka,56,F,Raw,Yes,SBD,1987-01-05,Russia,Amateur Open,55.4,117.5,-120,-120,,117.5,70,75,-77.5,,75,142.5,147.5,152.5,,152.5,345
2,Mariya Ryzhova,56,F,Raw,Yes,SBD,1988-09-01,Russia,Amateur Open,54.3,90,97.5,-102.5,,97.5,45,-50,50,,50,110,120,-125,,120,267.5
3,Oksana Maslennikova,56,F,Raw,Yes,SBD,1981-05-07,Russia,Amateur Open,55.8,90,-92.5,92.5,,92.5,-60,62.5,-65,,62.5,95,-100,-105,,95,250
4,Olga Dubok,56,F,Raw,Yes,SBD,1988-01-02,Russia,Amateur Open,55.8,72.5,77.5,-82.5,,77.5,-50,-50,50,,50,85,92.5,97.5,,97.5,225
5,Marina Budaeva,56,F,Raw,Yes,SBD,1978-01-14,Russia,Amateur Open,54.8,-70,70,-77.5,,70,35,37.5,40,,40,80,90,97.5,,97.5,207.5
DQ,Marina Nikitina,56,F,Raw,Yes,SBD,1976-07-02,Russia,Amateur Open,56,110,117.5,-120,,117.5,55,60,62.5,,62.5,-130,-130,-130,,,
1,Elizaveta Shinkareva,60,F,Raw,Yes,SBD,1998-06-24,Russia,Amateur Teen 16-17,59,90,100,,,100,62.5,65,-67.5,,65,100,110,115,,115,280
1,Valeriya Duseeva,60,F,Raw,Yes,SBD,1991-02-03,Russia,Amateur Juniors 20-23,60,-87.5,87.5,-97.5,,87.5,55,60,-62.5,,60,100,107.5,112.5,,112.5,260
1,Anastasiya Noskova,60,F,Raw,Yes,SBD,1984-02-14,Russia,Amateur Open,58.7,90,100,105,,105,55,60,-62.5,,60,142.5,147.5,152.5,,152.5,317.5
2,Elizaveta Shinkareva,60,F,Raw,Yes,SBD,1998-06-24,Russia,Amateur Open,59,90,100,,,100,62.5,65,-67.5,,65,100,110,115,,115,280
3,Alena Serdtseva,60,F,Raw,Yes,SBD,1990-01-10,Russia,Amateur Open,60,90,-100,-100,,90,40,-42.5,45,,45,100,105,110,,110,245
4,Evgeniya Fedchenko,60,F,Raw,Yes,SBD,1988-01-17,Russia,Amateur Open,59.7,85,90,-100,,90,50,55,-57.5,,55,80,-90,90,,90,235
5,Tatyana Slepokurova,60,F,Raw,Yes,SBD,1969-01-07,Russia,Amateur Open,59.1,65,72.5,-77.5,,72.5,42.5,45,-47.5,,45,110,-120,,,110,227.5
DQ,Altansuvd Badam,60,F,Raw,Yes,SBD,1975-07-18,Mongolia,Amateur Open,60,-90,-90,-90,,,,,,,,,,,,,
1,Svetlana Kufeld,60,F,Raw,Yes,SBD,1968-05-06,Russia,Amateur Masters 45-49,59.9,65,75,85,,85,47.5,50,-52.5,,50,85,95,100,,100,235
2,Tatyana Slepokurova,60,F,Raw,Yes,SBD,1969-01-07,Russia,Amateur Masters 45-49,59.1,65,72.5,-77.5,,72.5,42.5,45,-47.5,,45,110,-120,,,110,227.5
1,Anastasiya Ilyinykh,67.5,F,Raw,Yes,SBD,1996-10-03,Russia,Amateur Teen 16-17,67.5,85,90,95,,95,55,57.5,60,,60,90,95,100,,100,255
1,Anastasia Lorents,67.5,F,Raw,Yes,SBD,1992-11-02,Russia,Amateur Juniors 20-23,64.5,115,122.5,,,122.5,55,60,-62.5,,60,107.5,117.5,122.5,,122.5,305
1,Galina Abramova,67.5,F,Raw,Yes,SBD,1989-06-19,Russia,Amateur Open,63.1,130,140,-145,,140,65,70,72.5,,72.5,160,180,190,-200,190,402.5
2,Anastasia Lorents,67.5,F,Raw,Yes,SBD,1992-11-02,Russia,Amateur Open,64.5,115,122.5,,,122.5,55,60,-62.5,,60,107.5,117.5,122.5,,122.5,305
3,Olga Frolova,67.5,F,Raw,Yes,SBD,1976-06-22,Russia,Amateur Open,66.2,95,-102.5,102.5,,102.5,45,50,55,,55,100,107.5,112.5,,112.5,270
1,Olga Pyzhyanova,75,F,Raw,Yes,SBD,1989-03-09,Russia,Amateur Open,75,90,100,110,,110,67.5,-72.5,72.5,,72.5,100,110,-120,,110,292.5
1,Dolgor Altangerel,82.5,F,Raw,Yes,SBD,1996-11-18,Mongolia,Amateur Teen 16-17,81.9,90,100,110,,110,50,-60,,,50,130,,,,130,290
1,Oksana Andreeva,82.5,F,Raw,Yes,SBD,1976-11-08,Russia,Amateur Open,82,105,115,-125,,115,70,72.5,75,,75,110,130,-147.5,,130,320
2,Dolgor Altangerel,82.5,F,Raw,Yes,SBD,1996-11-18,Mongolia,Amateur Open,81.9,90,100,110,,110,50,-60,,,50,130,,,,130,290
1,Olesya Lunegova,90,F,Raw,Yes,SBD,1989-08-22,Russia,Amateur Open,87.1,80,-90,90,,90,55,60,62.5,,62.5,-95,-95,95,,95,247.5
1,Artem Lakomov,52,M,Raw,Yes,SBD,1998-06-05,Russia,Amateur Teen 16-17,50.7,-100,100,110,,110,-70,70,-80,,70,115,122.5,-130,,122.5,302.5
1,Dmitriy Boldin,60,M,Raw,Yes,SBD,1998-03-29,Russia,Amateur Teen 16-17,59.1,-90,90,100,,100,75,80,82.5,,82.5,100,115,125,,125,307.5
1,Aleksey Samotonin,60,M,Raw,Yes,SBD,1995-02-26,Russia,Amateur Teen 18-19,58.1,117.5,-122.5,-122.5,,117.5,90,95,-100,,95,155,160,-170,,160,372.5
1,Roman Rogozhkin,67.5,M,Raw,Yes,SBD,1997-01-09,Russia,Amateur Teen 16-17,67.5,140,150,160,,160,90,100,105,,105,170,180,200,,200,465
2,Aleksandr Galevich,67.5,M,Raw,Yes,SBD,1996-10-25,Russia,Amateur Teen 16-17,67.2,-100,100,120,,120,80,90,,,90,110,135,-160,,135,345
1,Marat Kurdanov,67.5,M,Raw,Yes,SBD,1993-08-31,Russia,Amateur Juniors 20-23,66.5,125,135,142.5,,142.5,90,100,-105,,100,185,200,-210,,200,442.5
2,Vladimir Gorn,67.5,M,Raw,Yes,SBD,1993-10-28,Russia,Amateur Juniors 20-23,67.1,150,160,-165,,160,95,102.5,-105,,102.5,160,180,-190,,180,442.5
3,Aleksey Kislukhin,67.5,M,Raw,Yes,SBD,1992-08-17,Russia,Amateur Juniors 20-23,63.8,140,150,155,,155,85,-95,-95,,85,160,170,180,,180,420
1,Sergey Poboykin,67.5,M,Raw,Yes,SBD,1989-03-10,Russia,Amateur Open,65.7,140,150,155,,155,130,-135,-135,,130,155,165,175,,175,460
2,Ganbat Sandagsuren,67.5,M,Raw,Yes,SBD,1977-06-13,Mongolia,Amateur Open,67.5,140,150,160,,160,120,-130,130,,130,160,170,-180,,170,460
1,Vladimir Sviderskiy,67.5,M,Raw,Yes,SBD,1951-05-07,Russia,Amateur Masters 60-64,65.2,125,130,-135,,130,85,-90,-90,,85,137.5,145,150,,150,365
1,Anton Ilyinykh,75,M,Raw,Yes,SBD,1998-04-03,Russia,Amateur Teen 16-17,73,120,-125,-125,,120,85,90,92.5,,92.5,155,160,165,,165,377.5
1,Aleksandr Anufriev,75,M,Raw,Yes,SBD,1995-06-07,Russia,Amateur Teen 18-19,71.8,145,-152.5,-152.5,,145,105,107.5,-110,,107.5,140,-145,-145,,140,392.5
2,Aleksandr Abziev,75,M,Raw,Yes,SBD,1995-07-04,Russia,Amateur Teen 18-19,69.1,80,-90,90,,90,50,-60,62.5,,62.5,100,105,110,,110,262.5
1,Dmitriy Kolikov,75,M,Raw,Yes,SBD,1993-10-26,Russia,Amateur Juniors 20-23,75,165,175,180,,180,115,-120,-120,,115,190,205,-210,,205,500
2,Kirill Teplyuk,75,M,Raw,Yes,SBD,1993-10-12,Russia,Amateur Juniors 20-23,68.7,110,120,130,,130,80,90,-92.5,,90,130,140,150,,150,370
1,Battytokh Dorzhpalam,75,M,Raw,Yes,SBD,1987-02-04,Mongolia,Amateur Open,73.5,165,175,185,,185,110,120,,,120,210,,,,210,515
2,Artem Golubin,75,M,Raw,Yes,SBD,1990-06-25,Russia,Amateur Open,74.3,140,155,165,,165,110,120,-130,,120,180,200,212.5,,212.5,497.5
3,Aleksandr Krasnov,75,M,Raw,Yes,SBD,1986-10-28,Russia,Amateur Open,73.1,-160,-170,170,,170,105,112.5,-117.5,,112.5,190,200,210,,210,492.5
4,Aleksey Krasnov,75,M,Raw,Yes,SBD,1986-10-28,Russia,Amateur Open,72.9,-160,170,-175,,170,115,-120,-120,,115,180,190,195,,195,480
5,Mikhail Lebedev,75,M,Raw,Yes,SBD,1989-12-19,Russia,Amateur Open,74.7,150,157.5,162.5,,162.5,115,-122.5,122.5,,122.5,180,195,-212.5,,195,480
6,Yaroslav Tindetnikov,75,M,Raw,Yes,SBD,1986-09-20,Russia,Amateur Open,72.6,130,140,145,,145,95,105,-110,,105,160,-180,180,,180,430
1,Nikolay Zakharov,75,M,Raw,Yes,SBD,1951-12-21,Russia,Amateur Masters 60-64,72.2,120,130,,,130,70,-75,75,,75,150,160,-170,,160,365
1,Gennadiy Chuldenko,75,M,Raw,Yes,SBD,1948-07-04,Russia,Amateur Masters 65-69,75,155,165,170,,170,40,45,50,,50,190,210,-220,,210,430
1,Aleksey Nikitenko,82.5,M,Raw,Yes,SBD,1996-08-13,Russia,Amateur Teen 16-17,80.4,205,210,-215,,210,120,125,127.5,,127.5,210,220,230,,230,567.5
2,Vladislav Romanov,82.5,M,Raw,Yes,SBD,1996-09-23,Russia,Amateur Teen 16-17,82.1,145,155,165,,165,115,120,127.5,,127.5,175,185,190,,190,482.5
1,Igor Kovalyev,82.5,M,Raw,Yes,SBD,1994-12-31,Russia,Amateur Teen 18-19,81.4,170,182.5,-187.5,,182.5,125,130,132.5,,132.5,200,215,222.5,,222.5,537.5
1,Aleksandr Usov,82.5,M,Raw,Yes,SBD,1991-12-09,Russia,Amateur Juniors 20-23,78.7,175,187.5,-200,,187.5,122.5,130,135,,135,200,217.5,-225,,217.5,540
2,Dmitriy Prokopenko,82.5,M,Raw,Yes,SBD,1993-04-16,Russia,Amateur Juniors 20-23,80,185,195,-200,,195,115,122.5,-125,,122.5,210,-220,-227.5,,210,527.5
1,Georgiy Vershinin,82.5,M,Raw,Yes,SBD,1988-12-23,Russia,Amateur Open,80.7,210,220,230,,230,140,150,155,,155,-220,230,240,,240,625
2,Dmitriy Zharkov,82.5,M,Raw,Yes,SBD,1979-12-13,Russia,Amateur Open,81.3,-175,180,192.5,,192.5,150,-157.5,157.5,,157.5,210,217.5,-227.5,,217.5,567.5
3,Aleksey Vinyukov,82.5,M,Raw,Yes,SBD,1973-10-19,Russia,Amateur Open,82.1,190,195,200,,200,135,140,-145,,140,-207.5,220,-227.5,,220,560
4,Daniil Besedin,82.5,M,Raw,Yes,SBD,1983-02-05,Russia,Amateur Open,80.4,165,170,175,,175,130,135,137.5,,137.5,-185,197.5,202.5,,202.5,515
5,Yuriy Balyshov,82.5,M,Raw,Yes,SBD,1985-01-22,Russia,Amateur Open,80.2,180,-190,190,,190,105,115,-125,,115,180,190,200,,200,505
6,Sergey Karas,82.5,M,Raw,Yes,SBD,1973-07-19,Russia,Amateur Open,80.7,-165,165,180,,180,90,100,-107.5,,100,-185,185,-190,,185,465
1,Aleksey Vinyukov,82.5,M,Raw,Yes,SBD,1973-10-19,Russia,Amateur Masters 40-44,82.1,190,195,200,,200,135,140,-145,,140,-207.5,220,-227.5,,220,560
2,Sergey Karas,82.5,M,Raw,Yes,SBD,1973-07-19,Russia,Amateur Masters 40-44,80.7,-165,165,180,,180,90,100,-107.5,,100,-185,185,-190,,185,465
1,Bat-Erdene Shagdarsuren,82.5,M,Raw,Yes,SBD,1959-02-10,Mongolia,Amateur Masters 55-59,77.5,120,130,-140,,130,105,107.5,112.5,,112.5,120,130,140,,140,382.5
1,Vladislav Zybarev,90,M,Raw,Yes,SBD,1997-05-12,Russia,Amateur Teen 16-17,90,120,140,-155,,140,60,-70,-70,,60,120,135,157.5,,157.5,357.5
1,Mikhail Isakov,90,M,Raw,Yes,SBD,1996-05-30,Russia,Amateur Teen 18-19,87.7,130,140,150,,150,80,87.5,-92.5,,87.5,160,-170,170,,170,407.5
1,Vladislav Tsyganok,90,M,Raw,Yes,SBD,1993-01-05,Russia,Amateur Juniors 20-23,88.5,197.5,202.5,-207.5,,202.5,122.5,127.5,-132.5,,127.5,202.5,210,215,,215,545
2,Dmitriy Bashkirov,90,M,Raw,Yes,SBD,1991-11-24,Russia,Amateur Juniors 20-23,89.1,180,190,-195,,190,115,122.5,-127.5,,122.5,-205,215,225,,225,537.5
DQ,Aleksandr Mironov,90,M,Raw,Yes,SBD,1990-10-15,Russia,Amateur Juniors 20-23,88.8,-170,,,,,,,,,,,,,,,
1,Ariunbaatar Sharavdorzh,90,M,Raw,Yes,SBD,1982-04-09,Mongolia,Amateur Open,88.4,205,220,230,,230,160,-167.5,,,160,235,245,255,,255,645
2,Gennadiy Pokshevatov,90,M,Raw,Yes,SBD,1959-04-17,Russia,Amateur Open,88.7,200,220,230,,230,115,125,130,,130,200,220,-230,,220,580
3,Roman Chernoshvets,90,M,Raw,Yes,SBD,1981-12-23,Russia,Amateur Open,87.3,190,200,-210,,200,140,145,-150,,145,210,220,-222.5,,220,565
4,Roman Sharabarin,90,M,Raw,Yes,SBD,1986-12-06,Russia,Amateur Open,89.1,190,205,-215,,205,100,115,125,,125,180,210,217.5,,217.5,547.5
5,Nikita Korablev,90,M,Raw,Yes,SBD,1983-07-24,Russia,Amateur Open,90,175,190,-195,,190,130,140,-150,,140,180,210,215,,215,545
6,Zhargalsaykhan Sosorbaram,90,M,Raw,Yes,SBD,1970-09-08,Mongolia,Amateur Open,89.4,170,185,-200,,185,145,152.5,,,152.5,200,-215,-215,,200,537.5
7,Aleksey Slepokurov,90,M,Raw,Yes,SBD,1980-12-03,Russia,Amateur Open,89.5,-160,160,180,,180,95,102.5,-107.5,,102.5,200,220,-225,,220,502.5
8,Dmitriy Maksimov,90,M,Raw,Yes,SBD,1980-08-26,Russia,Amateur Open,89.7,155,-165,165,,165,120,125,-130,,125,185,190,,,190,480
9,Semen Bakarev,90,M,Raw,Yes,SBD,1982-12-01,Russia,Amateur Open,88.7,140,155,165,,165,-90,90,105,,105,140,160,180,,180,450
1,Evgeniy Svoboda,90,M,Raw,Yes,SBD,1972-03-23,Russia,Amateur Masters 40-44,89.4,165,175,185,,185,130,137.5,142.5,,142.5,170,210,222.5,,222.5,550
2,Zhargalsaykhan Sosorbaram,90,M,Raw,Yes,SBD,1970-09-08,Mongolia,Amateur Masters 40-44,89.4,170,185,-200,,185,145,152.5,,,152.5,200,-215,-215,,200,537.5
1,Uruzmag Merdenov,90,M,Raw,Yes,SBD,1968-01-17,Russia,Amateur Masters 45-49,89.8,160,180,-190,,180,135,145,155,,155,170,180,-185,,180,515
1,Gennadiy Pokshevatov,90,M,Raw,Yes,SBD,1959-04-17,Russia,Amateur Masters 55-59,88.7,200,220,230,,230,115,125,130,,130,200,220,-230,,220,580
1,Roman Nekrasov,100,M,Raw,Yes,SBD,1995-02-11,Russia,Amateur Teen 18-19,98,170,-182.5,182.5,,182.5,120,-130,-130,,120,170,185,195,,195,497.5
2,Denis Dementyev,100,M,Raw,Yes,SBD,1996-03-04,Russia,Amateur Teen 18-19,94.4,160,170,-180,,170,100,110,-115,,110,185,195,202.5,,202.5,482.5
1,Kirill Ivanov,100,M,Raw,Yes,SBD,1992-12-23,Russia,Amateur Juniors 20-23,99.7,150,160,-180,,160,110,120,-130,,120,180,200,-215,,200,480
2,Andrey Terentyev,100,M,Raw,Yes,SBD,1990-10-05,Russia,Amateur Juniors 20-23,91.3,130,140,-150,,140,100,105,110,,110,180,-200,200,,200,450
1,Artem Zhiglov,100,M,Raw,Yes,SBD,1985-09-15,Russia,Amateur Open,95,200,215,230,,230,155,165,172.5,,172.5,220,240,-260,,240,642.5
2,Konstantin Panchenko,100,M,Raw,Yes,SBD,1980-05-30,Russia,Amateur Open,99.8,200,210,-220,,210,145,150,155,,155,220,240,-250,,240,605
3,Vladimir Kovalenko,100,M,Raw,Yes,SBD,1987-07-16,Russia,Amateur Open,100,170,185,-195,,185,140,-150,150,,150,180,200,215,,215,550
1,Aleksandr Nikitin,100,M,Raw,Yes,SBD,1973-09-15,Russia,Amateur Masters 40-44,92.8,170,180,187.5,,187.5,130,140,147.5,,147.5,190,200,207.5,,207.5,542.5
1,Nikita Arshanin,110,M,Raw,Yes,SBD,1995-03-30,Russia,Amateur Teen 18-19,104.2,180,190,-200,,190,140,145,-152.5,,145,-190,190,210,,210,545
2,Dorzh Myagmarzhav,110,M,Raw,Yes,SBD,1995-05-06,Mongolia,Amateur Teen 18-19,104.6,185,195,207.5,,207.5,125,135,-142.5,,135,195,202.5,-205,,202.5,545
3,Ivan Shekhovtsev,110,M,Raw,Yes,SBD,1995-03-21,Russia,Amateur Teen 18-19,107.8,135,-145,150,,150,95,100,105,,105,150,160,165,,165,420
1,Andrey Germanovich,110,M,Raw,Yes,SBD,1979-03-09,Russia,Amateur Open,109.8,200,210,215,,215,155,160,-162.5,,160,220,240,255,,255,630
2,Dorzh Myagmarzhav,110,M,Raw,Yes,SBD,1995-05-06,Mongolia,Amateur Open,104.6,185,195,207.5,,207.5,125,135,-142.5,,135,195,202.5,-205,,202.5,545
1,Oleg Zherdev,110,M,Raw,Yes,SBD,1970-05-12,Russia,Amateur Masters 40-44,108,200,220,240,,240,170,180,192.5,,192.5,222.5,240,,,240,672.5
1,Sergey Karelin,110,M,Raw,Yes,SBD,1959-08-09,Russia,Amateur Masters 50-54,108.9,160,170,180,,180,110,120,-130,,120,200,220,-240,,220,520
1,Vladimir Polivanov,125,M,Raw,Yes,SBD,1963-01-20,Russia,Amateur Open,117.3,-160,160,180,,180,150,157.5,160,,160,220,240,250,,250,590
1,Oleg Shevchuk,125,M,Raw,Yes,SBD,1970-07-23,Russia,Amateur Masters 40-44,120,170,185,190,,190,-140,-140,140,,140,180,195,205,,205,535
1,Vladimir Polivanov,125,M,Raw,Yes,SBD,1963-01-20,Russia,Amateur Masters 50-54,117.3,-160,160,180,,180,150,157.5,160,,160,220,240,250,,250,590
1,Ilya Gurulev,140,M,Raw,Yes,SBD,1994-04-25,Russia,Amateur Juniors 20-23,128.2,160,170,175,,175,95,102.5,107.5,,107.5,195,205,210,,210,492.5
1,Mikhail Kagala,140,M,Raw,Yes,SBD,1973-11-25,Russia,Amateur Masters 40-44,134,200,220,-230,,220,150,-155,-155,,150,220,240,250,,250,620
1,Natalya Tskhay,44,F,Single-ply,Yes,SBD,1975-04-19,Kazakhstan,Amateur Open,44,85,95,105,,105,-52.5,-52.5,52.5,,52.5,100,110,-117.5,,110,267.5
1,Marina Budaeva,56,F,Single-ply,Yes,SBD,1978-01-14,Russia,Amateur Open,54.8,90,-100,105,,105,40,-45,-45,,40,90,100,110,,110,255
1,Dolgor Altangerel,82.5,F,Single-ply,Yes,SBD,1996-11-18,Mongolia,Amateur Teen 16-17,81.9,120,-135,-135,,120,-65,-65,65,,65,120,130,-145,,130,315
1,Dolgor Altangerel,82.5,F,Single-ply,Yes,SBD,1996-11-18,Mongolia,Amateur Open,81.9,120,-135,-135,,120,-65,-65,65,,65,120,130,-145,,130,315
1,Sergey Danilin,56,M,Single-ply,Yes,SBD,1988-01-13,Russia,Amateur Open,56,-180,180,-190,,180,100,-110,110,,110,160,180,-190,,180,470
DQ,Ivan Semenov,67.5,M,Single-ply,Yes,SBD,1992-06-21,Russia,Amateur Juniors 20-23,66.3,-160,-160,-160,,,,,,,,,,,,,
1,Aleksandr Kim,67.5,M,Single-ply,Yes,SBD,1981-10-15,Russia,Amateur Open,66.1,150,180,190,,190,115,125,130,,130,170,190,200,,200,520
2,Dmitriy Danilin,67.5,M,Single-ply,Yes,SBD,1989-12-04,Russia,Amateur Open,67.3,180,-200,-200,,180,115,-122.5,-122.5,,115,160,177.5,180,,180,475
DQ,Ganbat Sandagsuren,67.5,M,Single-ply,Yes,SBD,1977-06-13,Mongolia,Amateur Open,67.5,-220,-220,-220,,,,,,,,,,,,,
1,Sergey Breus,75,M,Single-ply,Yes,SBD,1996-08-04,Russia,Amateur Teen 16-17,74.9,195,205,-215,,205,105,-115,115,,115,190,195,-200,,195,515
1,Maksim Kandakov,75,M,Single-ply,Yes,SBD,1994-04-22,Russia,Amateur Juniors 20-23,75,-230,230,245,,245,120,-130,130,,130,180,197.5,-212.5,,197.5,572.5
1,Gansukh Batsukh,75,M,Single-ply,Yes,SBD,1988-04-24,Mongolia,Amateur Open,75,262.5,275,,,275,155,-167.5,167.5,,167.5,215,225,-232.5,,225,667.5
2,Evgeniy Bykov,75,M,Single-ply,Yes,SBD,1984-08-02,Russia,Amateur Open,75,240,-255,-260,,240,145,-152.5,152.5,,152.5,225,240,-252.5,,240,632.5
3,Artem Golubin,75,M,Single-ply,Yes,SBD,1990-06-25,Russia,Amateur Open,74.3,-200,200,-210,,200,-140,140,-145,,140,200,232.5,,,232.5,572.5
1,Maksim Sergeev,82.5,M,Single-ply,Yes,SBD,1992-07-08,Russia,Amateur Juniors 20-23,78.7,-260,260,270,,270,160,-170,170,,170,240,262.5,-280,,262.5,702.5
2,Aleksey Ermachenkov,82.5,M,Single-ply,Yes,SBD,1993-09-24,Russia,Amateur Juniors 20-23,81.7,200,210,-220,,210,-130,130,,,130,185,200,210,,210,550
3,Valeriy Sadreev,82.5,M,Single-ply,Yes,SBD,1990-12-20,Russia,Amateur Juniors 20-23,82.5,200,220,230,,230,-120,-120,120,,120,170,185,-202.5,,185,535
1,Artem Bykhovets,82.5,M,Single-ply,Yes,SBD,1983-07-19,Russia,Amateur Open,82.4,280,-300,300,,300,195,205,-212.5,,205,257.5,-287.5,-287.5,,257.5,762.5
2,Konstantin Kramarenko,82.5,M,Single-ply,Yes,SBD,1983-11-21,Russia,Amateur Open,82.4,-220,220,-240,,220,145,-155,-155,,145,200,220,-230,,220,585
1,Bat-Erdene Shagdarsuren,82.5,M,Single-ply,Yes,SBD,1959-02-10,Mongolia,Amateur Masters 55-59,77.5,170,-180,-180,,170,-125,125,-140,,125,150,160,-170,,160,455
1,Roman Raspopin,90,M,Single-ply,Yes,SBD,1996-03-15,Russia,Amateur Teen 18-19,89.6,270,290,,,290,160,170,-180,,170,250,270,285,,285,745
1,Aleksandr Sizikov,90,M,Single-ply,Yes,SBD,1993-01-05,Russia,Amateur Juniors 20-23,89.7,260,275,285,,285,-120,130,140,,140,200,220,247.5,,247.5,672.5
2,Andrey Tuzov,90,M,Single-ply,Yes,SBD,1991-02-24,Russia,Amateur Juniors 20-23,89.9,235,250,-260,,250,160,170,175,,175,195,-207.5,-217.5,,195,620
1,Amarzayaa Tayvan Timur,90,M,Single-ply,Yes,SBD,1987-08-02,Mongolia,Amateur Open,89.8,300,-320,-335,,300,-205,205,230,,230,220,240,-255,,240,770
2,Zhargalsaykhan Sosorbaram,90,M,Single-ply,Yes,SBD,1970-09-08,Mongolia,Amateur Open,89.4,-290,-290,290,,290,-170,-170,170,,170,220,235,,,235,695
3,Evgeniy Svoboda,90,M,Single-ply,Yes,SBD,1972-03-23,Russia,Amateur Open,89.4,-230,250,-275,,250,170,-180,-180,,170,200,230,,,230,650
4,Rinat Mamyshev,90,M,Single-ply,Yes,SBD,1988-12-12,Russia,Amateur Open,89.7,220,235,245,,245,140,150,155,,155,175,187.5,-195,,187.5,587.5
1,Jargalsaykhan Sosorbaram,90,M,Single-ply,Yes,SBD,1970-09-08,Mongolia,Amateur Masters 40-44,89.4,-290,-290,290,,290,-170,-170,170,,170,220,235,,,235,695
2,Evgeniy Svoboda,90,M,Single-ply,Yes,SBD,1972-03-23,Russia,Amateur Masters 40-44,89.4,-230,250,-275,,250,170,-180,-180,,170,200,230,,,230,650
1,Daniil Fomenko,100,M,Single-ply,Yes,SBD,1992-01-30,Russia,Amateur Juniors 20-23,100,300,315,325,,325,200,-210,-210,,200,-290,290,-300,,290,815
2,Roman Skvortsov,100,M,Single-ply,Yes,SBD,1992-07-08,Russia,Amateur Juniors 20-23,97.9,-270,270,290,,290,175,-190,-190,,175,230,-250,250,,250,715
1,Daniil Fomenko,100,M,Single-ply,Yes,SBD,1992-01-30,Russia,Amateur Open,100,300,315,325,,325,200,-210,-210,,200,-290,290,-300,,290,815
2,Batbayar Mishka,100,M,Single-ply,Yes,SBD,1985-06-17,Mongolia,Amateur Open,95.6,290,-310,-310,,290,180,187.5,195,,195,265,-272.5,,,265,750
1,Ankhbayar Damdin,140,M,Single-ply,Yes,SBD,1979-07-16,Mongolia,Amateur Open,130.7,-325,325,340,,340,210,-225,-240,,210,70,-150,170,,170,720
1,Dinara Shpeyter,44,F,Raw,No,SBD,2002-10-08,Russia,Pro Youth,29.8,40,45,-47.5,,45,27.5,-32.5,-32.5,,27.5,60,65,,,65,137.5
1,Natalya Paramonova,52,F,Raw,No,SBD,1972-06-02,Russia,Pro Masters 40-44,52,95,-105,105,,105,55,60,62.5,,62.5,120,135,-137.5,,135,302.5
1,Lkhamnorzhmaa Badmaadorzh,56,F,Raw,No,SBD,1991-11-12,Mongolia,Pro Juniors 20-23,56,100,110,-115,,110,-50,50,-60,,50,120,125,135,150,135,295
1,Lkhamnorzhmaa Badmaadorzh,56,F,Raw,No,SBD,1991-11-12,Mongolia,Pro Open,56,100,110,-115,,110,-50,50,-60,,50,120,125,135,150,135,295
2,Yana Vorontsova,56,F,Raw,No,SBD,1989-05-08,Russia,Pro Open,56,-70,70,80,,80,40,-45,45,,45,70,80,-90,,80,205
1,Natalya Morozova,60,F,Raw,No,SBD,1997-09-05,Russia,Pro Teen 16-17,59.4,70,75,-77.5,,75,50,-52.5,-52.5,,50,80,82.5,,,82.5,207.5
1,Svetlana Stelmashenko,60,F,Raw,No,SBD,1985-06-16,Russia,Pro Open,59.6,95,105,-110,,105,-82.5,82.5,-85,,82.5,145,155,160,,160,347.5
1,Ramil Samigullin,75,M,Raw,No,SBD,1961-02-24,Russia,Pro Masters 50-54,73.4,135,140,147.5,,147.5,95,-102.5,-105,,95,-130,130,140,,140,382.5
1,Aleksandr Kuchin,82.5,M,Raw,No,SBD,1987-10-06,Russia,Pro Open,82.5,200,210,215,,215,135,140,145,,145,200,-210,-210,,200,560
2,Gankhuyag Erdenee,82.5,M,Raw,No,SBD,1969-12-09,Mongolia,Pro Open,81.1,180,-200,-200,,180,150,165,-170,,165,-180,190,200,,200,545
3,Aleksey Polubatonov,82.5,M,Raw,No,SBD,1987-07-16,Russia,Pro Open,81.5,170,180,-185,,180,120,125,130,,130,190,205,215,,215,525
4,Artur Kalinin,82.5,M,Raw,No,SBD,1987-07-01,Russia,Pro Open,82.4,120,130,140,,140,75,85,-95,,85,120,130,140,,140,365
1,Gankhuyag Erdenee,82.5,M,Raw,No,SBD,1969-12-09,Mongolia,Pro Masters 40-44,81.1,180,-200,-200,,180,150,165,-170,,165,-180,190,200,,200,545
1,Vyacheslav Yurov,90,M,Raw,No,SBD,1991-02-17,Russia,Pro Juniors 20-23,86.6,230,235,-240,,235,170,177.5,180,,180,260,-275,-275,,260,675
2,Dmitriy Gintov,90,M,Raw,No,SBD,1993-10-08,Russia,Pro Juniors 20-23,88,210,230,245,,245,155,162.5,167.5,,167.5,210,225,235,,235,647.5
1,Oleg Valiev,90,M,Raw,No,SBD,1985-03-09,Russia,Pro Open,90,210,220,230,,230,175,185,-187.5,,185,250,265,-275,,265,680
2,Vyacheslav Yurov,90,M,Raw,No,SBD,1991-02-17,Russia,Pro Open,86.6,230,235,-240,,235,170,177.5,180,,180,260,-275,-275,,260,675
3,Dmitriy Gintov,90,M,Raw,No,SBD,1993-10-08,Russia,Pro Open,88,210,230,245,,245,155,162.5,167.5,,167.5,210,225,235,,235,647.5
4,Vladimir Smolyaninov,90,M,Raw,No,SBD,1979-11-02,Russia,Pro Open,87.4,190,-197.5,197.5,,197.5,145,-150,150,,150,-195,195,205,,205,552.5
DQ,Altanbagana Sharavdorzh,90,M,Raw,No,SBD,1990-05-15,Mongolia,Pro Open,88.9,-200,-200,220,,220,150,-160,-160,,150,-250,,,,,
1,Anatoliy Eskin,100,M,Raw,No,SBD,1981-07-16,Russia,Pro Open,99.7,220,230,240,,240,170,180,185,,185,230,245,260,,260,685
2,Delgerkhshig Banzragch,100,M,Raw,No,SBD,1980-01-20,Mongolia,Pro Open,98,225,250,260,,260,140,155,-170,,155,240,255,265,,265,680
3,Grigoriy Kostenko,100,M,Raw,No,SBD,1988-07-04,Russia,Pro Open,96.1,210,215,-220,,215,145,155,-160,,155,210,220,230,,230,600
1,Vladimir Pantsev,100,M,Raw,No,SBD,1962-10-22,Russia,Pro Masters 50-54,99.6,-180,,180,,180,130,135,137.5,,137.5,205,210,-215,,210,527.5
DQ,Danila Zheleznyak,110,M,Raw,No,SBD,1994-10-21,Russia,Pro Teen 18-19,108.8,-230,-230,-230,,,,,,,,,,,,,
1,Viktor Buyko,110,M,Raw,No,SBD,1985-06-30,Kazakhstan,Pro Open,108.3,270,-285,290,,290,210,220,230,,230,280,300,-320,,300,820
2,Aleksandr Merkuryev,110,M,Raw,No,SBD,1985-12-01,Russia,Pro Open,105.6,220,230,232.5,,232.5,165,172.5,177.5,,177.5,260,270,275,,275,685
1,Pavel Yudin,110,M,Raw,No,SBD,1958-09-27,Kazakhstan,Pro Masters 55-59,107.9,180,190,-200,,190,130,137.5,142.5,,142.5,210,220,230,,230,562.5
1,Stanislav Mordvinov,125,M,Raw,No,SBD,1983-11-04,Russia,Pro Open,121.4,280,300,320,,320,200,210,-220,,210,280,300,-320,,300,830
2,Aleksandr Shelepov,125,M,Raw,No,SBD,1990-07-01,Russia,Pro Open,119.3,175,185,192.5,,192.5,145,155,162.5,,162.5,-205,205,215,,215,570
1,Aleksandr Miroshnichenko #2,140+,M,Raw,No,SBD,1985-11-29,Russia,Pro Open,146.2,300,320,330,,330,200,220,-235,,220,320,340,350,,350,900
1,Sergey Yakovlev,140+,M,Raw,No,SBD,1972-11-16,Kazakhstan,Pro Masters 40-44,157.9,250,260,270,,270,170,180,190,,190,270,285,300,,300,760
1,Lkhamnorzhmaa Badmaadorzh,56,F,Single-ply,No,SBD,1991-11-12,Mongolia,Pro Juniors 20-23,56,155,165,-180,,165,60,70,75,,75,150,165,-180,,165,405
1,Lkhamnorzhmaa Badmaadorzh,56,F,Single-ply,No,SBD,1991-11-12,Mongolia,Pro Open,56,155,165,-180,,165,60,70,75,,75,150,165,-180,,165,405
1,Anastasiya Polunina,60,F,Single-ply,No,SBD,1986-07-06,Russia,Pro Open,58,105,-110,,,105,-57.5,57.5,60,,60,87.5,95,-100,,95,260
1,Ivan Varsegov,75,M,Single-ply,No,SBD,1994-10-07,Russia,Pro Teen 18-19,75,220,235,245,,245,140,152.5,-160,,152.5,222.5,230,242.5,,242.5,640
1,Aleksey Lazarev,75,M,Single-ply,No,SBD,1985-04-06,Russia,Pro Open,74.1,300,315,325,,325,-180,180,190,,190,-270,270,295,,295,810
2,Oleg Solonenko,75,M,Single-ply,No,SBD,1970-09-26,Russia,Pro Open,74.2,205,-220,,,205,140,150,160,,160,205,215,225,,225,590
3,Dmitriy Sklyarov,75,M,Single-ply,No,SBD,1981-10-07,Russia,Pro Open,69.5,200,-210,210,,210,-130,130,-140,,130,205,215,-225,,215,555
1,Oleg Solonenko,75,M,Single-ply,No,SBD,1970-09-26,Russia,Pro Masters 40-44,74.2,205,-220,,,205,140,150,160,,160,205,215,225,,225,590
1,Tsegmed Byambaa,75,M,Single-ply,No,SBD,1940-05-09,Mongolia,Pro Masters 70-74,73.9,-200,200,220,-240,220,90,-100,-102.5,,90,170,187.5,-190,,187.5,497.5
1,Sergey Gostishchev,82.5,M,Single-ply,No,SBD,1982-04-07,Russia,Pro Open,82.5,-230,-230,230,,230,-145,145,152.5,,152.5,180,200,-212.5,,200,582.5
1,Dmitriy Yakovlev,90,M,Single-ply,No,SBD,1992-02-10,Russia,Pro Juniors 20-23,88.5,370,-390,-390,,370,180,200,,,200,270,290,305,,305,875
2,Vladimir Galkin,90,M,Single-ply,No,SBD,1990-07-13,Russia,Pro Juniors 20-23,87.9,310,-330,330,,330,200,210,-220,,210,270,290,305,,305,845
1,Dmitriy Yakovlev,90,M,Single-ply,No,SBD,1992-02-10,Russia,Pro Open,88.5,370,-390,-390,,370,180,200,,,200,270,290,305,,305,875
2,Vladimir Galkin,90,M,Single-ply,No,SBD,1990-07-13,Russia,Pro Open,87.9,310,-330,330,,330,200,210,-220,,210,270,290,305,,305,845
3,Dmitriy Yuskov,90,M,Single-ply,No,SBD,1989-03-16,Russia,Pro Open,90,300,320,-330,,320,185,-195,-195,,185,260,280,-300,,280,785
4,Altanbagana Sharavdorzh,90,M,Single-ply,No,SBD,1990-05-17,Mongolia,Pro Open,89.4,290,-320,-340,,290,-200,200,210,,210,245,255,-265,,255,755
5,Sergey Kuznetsov,90,M,Single-ply,No,SBD,1971-08-29,Russia,Pro Open,89.7,250,-265,,,250,-180,180,-192.5,,180,230,,,,230,660
6,Sergey Naglovskiy,90,M,Single-ply,No,SBD,1986-12-08,Russia,Pro Open,89.7,-200,-200,200,,200,-140,140,-155,,140,170,180,-190,,180,520
1,Sergey Kuznetsov,90,M,Single-ply,No,SBD,1971-08-29,Russia,Pro Masters 40-44,89.7,250,-265,,,250,-180,180,-192.5,,180,230,,,,230,660
1,Vladimir Kusov,100,M,Single-ply,No,SBD,1994-03-21,Kazakhstan,Pro Juniors 20-23,100,-280,-280,280,,280,-170,170,180,,180,250,-275,-275,,250,710
1,Ivan Vasyunin,100,M,Single-ply,No,SBD,1983-08-01,Russia,Pro Open,96,350,-365,-365,,350,-270,270,-285,,270,300,315,332.5,,332.5,952.5
2,Vladimir Matsievskiy,100,M,Single-ply,No,SBD,1989-09-25,Russia,Pro Open,99.8,-320,320,,,320,-215,-215,215,,215,280,310,-320,,310,845
3,Evgeniy Utkin,100,M,Single-ply,No,SBD,1988-10-05,Russia,Pro Open,100,270,300,310,,310,145,160,-170,,160,240,265,-275,,265,735
4,Maksim Zayka,100,M,Single-ply,No,SBD,1988-08-29,Russia,Pro Open,100,270,-290,300,,300,160,170,180,,180,220,-255,-255,,220,700
DQ,Delger-Khishig Banzragch,100,M,Single-ply,No,SBD,1980-01-20,Mongolia,Pro Open,98,-400,-400,-400,,,,,,,,,,,,,
1,Aleksandr Bozhko,110,M,Single-ply,No,SBD,1979-03-19,Russia,Pro Open,105.5,280,290,295,,295,170,182.5,187.5,,187.5,260,282.5,,,282.5,765
1,Aleksandr Miroshnichenko #2,140+,M,Single-ply,No,SBD,1985-11-29,Russia,Pro Open,146.2,-325,-335,335,,335,210,235,255,,255,320,340,,,340,930
1,Viktoriya Sharovatova,44,F,Raw,Yes,B,2000-04-13,Russia,Amateur Teen 13-15,44,,,,,,-45,45,-47.5,,45,,,,,,45
1,Olesya Barashkina,44,F,Raw,Yes,B,1987-01-31,Kazakhstan,Amateur Open,42.7,,,,,,45,-50,-55,,45,,,,,,45
1,Anastasiya Volkova,48,F,Raw,Yes,B,1990-04-20,Russia,Amateur Open,47.9,,,,,,45,-52.5,52.5,,52.5,,,,,,52.5
DQ,Oksana Bilenko,48,F,Raw,Yes,B,1987-06-11,Russia,Amateur Open,48,,,,,,-50,-50,-52.5,,,,,,,,
1,Alina Vishnyakova,52,F,Raw,Yes,B,1998-02-10,Russia,Amateur Teen 16-17,51.2,,,,,,45,-47.5,-50,,45,,,,,,45
1,Veronika Yarotskaya,52,F,Raw,Yes,B,1994-09-09,Russia,Amateur Teen 18-19,51.7,,,,,,45,47.5,50,,50,,,,,,50
1,Mariya Kulyakhtina,52,F,Raw,Yes,B,1991-09-16,Russia,Amateur Juniors 20-23,50.9,,,,,,55,-57.5,57.5,,57.5,,,,,,57.5
1,Ekaterina Konovalova,52,F,Raw,Yes,B,1986-05-04,Russia,Amateur Open,52,,,,,,80,-85,85,,85,,,,,,85
2,Anastasiya Kovanovskaya,52,F,Raw,Yes,B,1989-08-26,Russia,Amateur Open,50.5,,,,,,50,-55,-55,,50,,,,,,50
1,Elena Kushkova,52,F,Raw,Yes,B,1967-03-12,Russia,Amateur Masters 45-49,51.3,,,,,,57.5,60,-62.5,,60,,,,,,60
1,Irina Gerasimova,52,F,Raw,Yes,B,1964-06-29,Russia,Amateur Masters 50-54,49.7,,,,,,40,42.5,-45,,42.5,,,,,,42.5
1,Anastasiya Saydentsal,56,F,Raw,Yes,B,1998-08-24,Russia,Amateur Teen 13-15,55.7,,,,,,52.5,57.5,-62.5,,57.5,,,,,,57.5
1,Elena Krakhmaleva,56,F,Raw,Yes,B,1982-11-06,Russia,Amateur Open,56,,,,,,65,70,-72.5,,70,,,,,,70
2,Olga Dubok,56,F,Raw,Yes,B,1988-01-02,Russia,Amateur Open,55.8,,,,,,50,-55,-55,,50,,,,,,50
3,Elena Belova,56,F,Raw,Yes,B,1966-03-12,Russia,Amateur Open,54.6,,,,,,45,47.5,-50,,47.5,,,,,,47.5
1,Elena Belova,56,F,Raw,Yes,B,1966-03-12,Russia,Amateur Masters 45-49,54.6,,,,,,45,47.5,-50,,47.5,,,,,,47.5
1,Elizaveta Shinkareva,60,F,Raw,Yes,B,1998-06-24,Russia,Amateur Teen 16-17,59,,,,,,62.5,67.5,,,67.5,,,,,,67.5
1,Anastasiya Borodina,60,F,Raw,Yes,B,1990-10-02,Russia,Amateur Juniors 20-23,60,,,,,,47.5,52.5,-55,,52.5,,,,,,52.5
1,Altansuvd Badam,60,F,Raw,Yes,B,1975-07-18,Mongolia,Amateur Open,60,,,,,,55,-62.5,-62.5,,55,,,,,,55
1,Oksana Chudnaya,67.5,F,Raw,Yes,B,1977-05-30,Russia,Amateur Open,67.2,,,,,,60,-67.5,-67.5,,60,,,,,,60
2,Anna Rogaleva,67.5,F,Raw,Yes,B,1982-03-25,Russia,Amateur Open,64.8,,,,,,50,55,-57.5,,55,,,,,,55
3,Olga Frolova,67.5,F,Raw,Yes,B,1976-06-02,Russia,Amateur Open,66.2,,,,,,-40,-45,45,,45,,,,,,45
1,Anastasiya Osipova,90,F,Raw,Yes,B,1981-06-15,Russia,Amateur Open,90,,,,,,67.5,-72.5,72.5,,72.5,,,,,,72.5
1,Ekaterina Antukh,90+,F,Raw,Yes,B,2000-09-23,Russia,Amateur Teen 13-15,94.3,,,,,,40,42.5,-45,,42.5,,,,,,42.5
1,Elena Skobyelkina,90+,F,Raw,Yes,B,1973-05-24,Russia,Amateur Masters 40-44,103.3,,,,,,80,85,-90,,85,,,,,,85
1,Fayzullo Merzoev,56,M,Raw,Yes,B,2000-07-01,Russia,Amateur Teen 13-15,53.8,,,,,,60,65,-70,,65,,,,,,65
1,Vitaliy Naydenkov,60,M,Raw,Yes,B,1998-11-11,Russia,Amateur Teen 13-15,58.3,,,,,,82.5,87.5,90,,90,,,,,,90
1,Roman Gubenko,60,M,Raw,Yes,B,1990-09-12,Russia,Amateur Juniors 20-23,58.2,,,,,,100,-112.5,-112.5,,100,,,,,,100
1,Egor Kovyrshin,67.5,M,Raw,Yes,B,1997-09-18,Russia,Amateur Teen 16-17,66.2,,,,,,-90,100,110,,110,,,,,,110
2,Saveliy Semenov,67.5,M,Raw,Yes,B,1997-03-27,Russia,Amateur Teen 16-17,66.9,,,,,,100,110,-115,,110,,,,,,110
3,Artem Bulygin,67.5,M,Raw,Yes,B,1997-03-28,Russia,Amateur Teen 16-17,66.8,,,,,,100,105,-107.5,,105,,,,,,105
4,Erik Emiryan,67.5,M,Raw,Yes,B,1997-11-11,Russia,Amateur Teen 16-17,65.8,,,,,,90,100,-107.5,,100,,,,,,100
1,Anatoliy Kozlov,67.5,M,Raw,Yes,B,1994-10-13,Russia,Amateur Teen 18-19,66.5,,,,,,-115,115,-125,,115,,,,,,115
DQ,Konstantin Timoshin,67.5,M,Raw,Yes,B,1993-12-24,Russia,Amateur Juniors 20-23,66.8,,,,,,-100,-102.5,-102.5,,,,,,,,
1,Dmitriy Kaygorodov,67.5,M,Raw,Yes,B,1983-09-24,Russia,Amateur Open,65.7,,,,,,140,-142.5,,,140,,,,,,140
2,Sergey Poboykin,67.5,M,Raw,Yes,B,1989-03-10,Russia,Amateur Open,65.7,,,,,,130,-135,135,,135,,,,,,135
1,Igor Mulenko,67.5,M,Raw,Yes,B,1966-11-16,Russia,Amateur Masters 45-49,67.5,,,,,,115,120,-125,,120,,,,,,120
2,Vyacheslav Kravtsov,67.5,M,Raw,Yes,B,1967-04-21,Russia,Amateur Masters 45-49,65.5,,,,,,100,110,112.5,,112.5,,,,,,112.5
1,Vladimir Sviderskiy,67.5,M,Raw,Yes,B,1951-05-07,Russia,Amateur Masters 60-64,65.2,,,,,,85,90,,,90,,,,,,90
1,Daniil Semenov,75,M,Raw,Yes,B,1996-10-21,Russia,Amateur Teen 16-17,73.6,,,,,,135,140,145,,145,,,,,,145
2,Mark Litvinov,75,M,Raw,Yes,B,1997-06-08,Russia,Amateur Teen 16-17,73.1,,,,,,110,117.5,-122.5,,117.5,,,,,,117.5
3,Andrey Bukhantsev,75,M,Raw,Yes,B,1998-06-02,Russia,Amateur Teen 16-17,73.3,,,,,,70,77.5,,,77.5,,,,,,77.5
DQ,Vadim Kirsanov,75,M,Raw,Yes,B,1997-04-22,Russia,Amateur Teen 16-17,73.1,,,,,,-95,-95,-105,,,,,,,,
1,Nikita Smirnov,75,M,Raw,Yes,B,1996-06-03,Russia,Amateur Teen 18-19,73.4,,,,,,115,117.5,122.5,,122.5,,,,,,122.5
2,Aleksandr Shpilev,75,M,Raw,Yes,B,1995-03-09,Russia,Amateur Teen 18-19,72.2,,,,,,-115,115,-122.5,,115,,,,,,115
1,Aleksandr Safronov,75,M,Raw,Yes,B,1990-09-01,Russia,Amateur Juniors 20-23,75,,,,,,150,155,,,155,,,,,,155
2,Roman Borisov,75,M,Raw,Yes,B,1990-11-23,Russia,Amateur Juniors 20-23,73.4,,,,,,110,-120,-120,,110,,,,,,110
DQ,Viktor Kurbatov #2,75,M,Raw,Yes,B,1992-10-23,Russia,Amateur Juniors 20-23,74.4,,,,,,-145,-155,-155,,,,,,,,
1,Alekcandr Aleksandrov,75,M,Raw,Yes,B,1979-07-19,Russia,Amateur Open,72.2,,,,,,165,175,180,,180,,,,,,180
2,Andrey Chalyy,75,M,Raw,Yes,B,1988-07-16,Russia,Amateur Open,74.2,,,,,,155,162.5,165,,165,,,,,,165
3,Dmitriy Dashkov,75,M,Raw,Yes,B,1989-04-10,Russia,Amateur Open,74.4,,,,,,147.5,155,-160,,155,,,,,,155
4,Sergey Stakheev,75,M,Raw,Yes,B,1984-11-22,Russia,Amateur Open,74.7,,,,,,-150,150,-155,,150,,,,,,150
5,Vladimir Malyavkin,75,M,Raw,Yes,B,1986-03-26,Russia,Amateur Open,75,,,,,,145,150,-155,,150,,,,,,150
6,Aleksey Totmyanin,75,M,Raw,Yes,B,1983-04-01,Russia,Amateur Open,75,,,,,,-140,140,-145,,140,,,,,,140
7,Gansukh Batsukh,75,M,Raw,Yes,B,1988-04-24,Mongolia,Amateur Open,75,,,,,,130,-145,,,130,,,,,,130
8,Aleksey Veber,75,M,Raw,Yes,B,1987-02-11,Russia,Amateur Open,74.7,,,,,,-127.5,127.5,-135,,127.5,,,,,,127.5
9,Aleksey Nikiforov,75,M,Raw,Yes,B,1984-01-15,Russia,Amateur Open,74.2,,,,,,125,-135,-135,,125,,,,,,125
10,Sergey German,75,M,Raw,Yes,B,1986-05-21,Russia,Amateur Open,73.1,,,,,,110,117.5,120,,120,,,,,,120
11,Sergey Astashov,75,M,Raw,Yes,B,1976-05-19,Russia,Amateur Open,74.6,,,,,,-117.5,117.5,-120,,117.5,,,,,,117.5
DQ,Pavel Gusev,75,M,Raw,Yes,B,1986-08-24,Russia,Amateur Open,74.1,,,,,,-117.5,-117.5,,,,,,,,,
1,Vladimir Ovcharov,75,M,Raw,Yes,B,1972-05-30,Russia,Amateur Masters 40-44,74.4,,,,,,125,135,-142.5,,135,,,,,,135
1,Aleksandr Bezborodov,75,M,Raw,Yes,B,1954-12-19,Russia,Amateur Masters 55-59,74.7,,,,,,90,100,110,,110,,,,,,110
1,Gennadiy Bardin,75,M,Raw,Yes,B,1938-10-25,Russia,Amateur Masters 75-79,71.7,,,,,,-90,90,-95,,90,,,,,,90
1,Kirill Garynin,82.5,M,Raw,Yes,B,1999-03-04,Russia,Amateur Teen 13-15,80.7,,,,,,100,105,-112.5,,105,,,,,,105
1,Aleksandr Korotkevich,82.5,M,Raw,Yes,B,1990-09-26,Russia,Amateur Juniors 20-23,82.5,,,,,,115,120,127.5,,127.5,,,,,,127.5
1,Aleksandr Taranenko,82.5,M,Raw,Yes,B,1987-05-05,Russia,Amateur Open,82.5,,,,,,160,170,-180,,170,,,,,,170
2,Mikhail Nikiforov,82.5,M,Raw,Yes,B,1979-06-23,Russia,Amateur Open,80.5,,,,,,145,150,-152.5,,150,,,,,,150
3,Aleksandr Snadchenko,82.5,M,Raw,Yes,B,1989-08-11,Russia,Amateur Open,80.8,,,,,,-145,145,-150,,145,,,,,,145
4,Sergey Ilin,82.5,M,Raw,Yes,B,1990-04-21,Russia,Amateur Open,82.4,,,,,,135,140,145,,145,,,,,,145
5,Sergey Makarov,82.5,M,Raw,Yes,B,1979-11-13,Kazakhstan,Amateur Open,80.5,,,,,,-135,135,-145,,135,,,,,,135
6,Timofey Platonov,82.5,M,Raw,Yes,B,1987-01-12,Russia,Amateur Open,79.6,,,,,,125,130,-140,,130,,,,,,130
7,Aleksandr Savchenko,82.5,M,Raw,Yes,B,1978-04-13,Russia,Amateur Open,82.5,,,,,,130,-135,-135,,130,,,,,,130
8,Anton Tanakov,82.5,M,Raw,Yes,B,1986-03-18,Russia,Amateur Open,78.4,,,,,,127.5,-135,-135,,127.5,,,,,,127.5
9,Dmitriy Yudin,82.5,M,Raw,Yes,B,1989-05-17,Russia,Amateur Open,81.7,,,,,,120,127.5,-132.5,,127.5,,,,,,127.5
10,Anton Alekseev,82.5,M,Raw,Yes,B,1988-11-25,Russia,Amateur Open,82.1,,,,,,110,112.5,-115,,112.5,,,,,,112.5
11,Kirill Zhdanov,82.5,M,Raw,Yes,B,1990-12-30,Russia,Amateur Open,80.4,,,,,,100,110,-120,,110,,,,,,110
DQ,Aleksandr Marshalyuk,82.5,M,Raw,Yes,B,1981-02-19,Russia,Amateur Open,77.9,,,,,,-130,-130,-130,,,,,,,,
1,Bat-Erdene Shagdarsuren,82.5,M,Raw,Yes,B,1959-02-10,Mongolia,Amateur Masters 55-59,77.5,,,,,,-110,110,-117.5,,110,,,,,,110
1,Aleksandr Tkachuk,82.5,M,Raw,Yes,B,1940-03-19,Russia,Amateur Masters 70-74,78.9,,,,,,-95,95,100,-108,100,,,,,,100
1,Danil Novikov,90,M,Raw,Yes,B,1996-03-27,Russia,Amateur Teen 18-19,89.4,,,,,,117.5,125,-132.5,,125,,,,,,125
2,Renat Loginov,90,M,Raw,Yes,B,1992-08-14,Russia,Amateur Juniors 20-23,90,,,,,,110,115,-120,,115,,,,,,115
1,Aleksandr Boykov,90,M,Raw,Yes,B,1992-06-30,Russia,Amateur Juniors 20-23,88.9,,,,,,150,-152.5,152.5,,152.5,,,,,,152.5
2,Maksim Andreev,90,M,Raw,Yes,B,1993-07-28,Russia,Amateur Juniors 20-23,90,,,,,,122.5,132.5,140,,140,,,,,,140
1,Vladimir Konchakov,90,M,Raw,Yes,B,1973-05-25,Russia,Amateur Open,88.8,,,,,,190,200,205,,205,,,,,,205
2,Nikolay Berezovskiy,90,M,Raw,Yes,B,1987-04-06,Russia,Amateur Open,84.9,,,,,,185,190,192.5,,192.5,,,,,,192.5
3,Pavel Boretskiy,90,M,Raw,Yes,B,1986-09-17,Russia,Amateur Open,89.4,,,,,,175,177.5,-180,,177.5,,,,,,177.5
4,Amarzayaa Tayvan Timur,90,M,Raw,Yes,B,1987-08-02,Mongolia,Amateur Open,89.8,,,,,,160,167.5,-180,,167.5,,,,,,167.5
5,Yuriy Dorokhov,90,M,Raw,Yes,B,1977-11-06,Russia,Amateur Open,90,,,,,,155,165,-175,,165,,,,,,165
6,Konstantin Shashenko,90,M,Raw,Yes,B,1983-02-17,Russia,Amateur Open,88.4,,,,,,152.5,160,-165,,160,,,,,,160
7,Pavel Kovalev,90,M,Raw,Yes,B,1982-01-11,Russia,Amateur Open,90,,,,,,160,-170,-170,,160,,,,,,160
8,Aleksey Sudenkov,90,M,Raw,Yes,B,1981-10-26,Kazakhstan,Amateur Open,86,,,,,,145,152.5,155,,155,,,,,,155
9,Evgeniy Arkhipov,90,M,Raw,Yes,B,1981-03-31,Russia,Amateur Open,88.4,,,,,,135,140,152.5,,152.5,,,,,,152.5
10,Aleksandr Maltsev,90,M,Raw,Yes,B,1981-05-07,Russia,Amateur Open,89,,,,,,150,152.5,-155,,152.5,,,,,,152.5
11,Anton Ampleev,90,M,Raw,Yes,B,1982-04-24,Russia,Amateur Open,89.6,,,,,,142.5,152.5,-157.5,,152.5,,,,,,152.5
12,Evgeniy Kotukhov,90,M,Raw,Yes,B,1989-09-24,Russia,Amateur Open,89.8,,,,,,145,152.5,-160,,152.5,,,,,,152.5
13,Viktor Evteev,90,M,Raw,Yes,B,1986-09-11,Russia,Amateur Open,90,,,,,,145,152.5,-155,,152.5,,,,,,152.5
14,Aleksandr Yudin,90,M,Raw,Yes,B,1980-04-26,Russia,Amateur Open,87.7,,,,,,140,-145,-147.5,,140,,,,,,140
15,Konstantin Boev,90,M,Raw,Yes,B,1983-10-02,Russia,Amateur Open,88.7,,,,,,140,-145,-145,,140,,,,,,140
16,Ivan Frolov,90,M,Raw,Yes,B,1988-12-15,Russia,Amateur Open,89.2,,,,,,132.5,140,-152.5,,140,,,,,,140
17,Aleksey Afanasyev,90,M,Raw,Yes,B,1982-10-28,Russia,Amateur Open,89.9,,,,,,135,140,-142.5,,140,,,,,,140
18,Aleksandr Golubtsov,90,M,Raw,Yes,B,1983-10-03,Russia,Amateur Open,85.8,,,,,,130,-140,-140,,130,,,,,,130
19,Artem Snopkov,90,M,Raw,Yes,B,1984-10-14,Russia,Amateur Open,87.3,,,,,,120,125,-132.5,,125,,,,,,125
DQ,Roman Kirienko,90,M,Raw,Yes,B,1987-03-15,Russia,Amateur Open,87.8,,,,,,-145,-152.5,,,,,,,,,
1,Vladimir Konchakov,90,M,Raw,Yes,B,1973-05-25,Russia,Amateur Masters 40-44,88.8,,,,,,190,200,205,,205,,,,,,205
2,Evgeniy Svoboda,90,M,Raw,Yes,B,1972-03-23,Russia,Amateur Masters 40-44,89.4,,,,,,130,137.5,,,137.5,,,,,,137.5
1,Aleksandr Kyubbar,90,M,Raw,Yes,B,1960-05-23,Russia,Amateur Masters 50-54,89.3,,,,,,115,,,,115,,,,,,115
1,Aleksandr Andrianov,90,M,Raw,Yes,B,1944-09-30,Russia,Amateur Masters 65-69,88.9,,,,,,125,135,140,,140,,,,,,140
1,Yuriy Isangulov,90,M,Raw,Yes,B,1944-01-02,Russia,Amateur Masters 70-74,86.1,,,,,,-90,90,-92.5,,90,,,,,,90
1,Aleksey Kovalenko,100,M,Raw,Yes,B,1996-02-27,Russia,Amateur Teen 18-19,97.4,,,,,,137.5,142.5,-147.5,,142.5,,,,,,142.5
1,Pavel Tumanov,100,M,Raw,Yes,B,1992-09-02,Russia,Amateur Juniors 20-23,97.3,,,,,,140,150,-160,,150,,,,,,150
2,Artem Chernikov,100,M,Raw,Yes,B,1993-01-25,Russia,Amateur Juniors 20-23,93.5,,,,,,90,100,-112.5,,100,,,,,,100
1,Konstantin Kovazhenko,100,M,Raw,Yes,B,1978-04-17,Russia,Amateur Open,98.3,,,,,,200,210,-215,,210,,,,,,210
2,Yuriy Gorbunov,100,M,Raw,Yes,B,1986-08-16,Russia,Amateur Open,98.4,,,,,,175,182.5,187.5,,187.5,,,,,,187.5
3,Fedor Alekseev,100,M,Raw,Yes,B,1977-07-07,Russia,Amateur Open,97.7,,,,,,175,-185,-185,,175,,,,,,175
1,Battytokh Sharavdorzh,100,M,Raw,Yes,B,1974-09-19,Mongolia,Amateur Open,95.6,,,,,,60,,,,60,,,,,,60
1,Talgat Ershin,100,M,Raw,Yes,B,1968-05-06,Russia,Amateur Masters 45-49,97.7,,,,,,170,-180,-180,,170,,,,,,170
1,Igor Karapuzov,100,M,Raw,Yes,B,1962-07-29,Russia,Amateur Masters 50-54,99.6,,,,,,130,-140,145,,145,,,,,,145
1,Sergey Annenkov,100,M,Raw,Yes,B,1958-04-11,Russia,Amateur Masters 55-59,96.4,,,,,,-135,135,140,,140,,,,,,140
DQ,Valeriy Verkholantsev,100,M,Raw,Yes,B,1953-11-24,Russia,Amateur Masters 60-64,99.8,,,,,,-132.5,-140,-140,,,,,,,,
1,Dorzh Myagmarzhav,110,M,Raw,Yes,B,1995-06-05,Mongolia,Amateur Teen 18-19,107.9,,,,,,125,135,-150,,135,,,,,,135
1,Anton Ponomarev,110,M,Raw,Yes,B,1992-02-12,Russia,Amateur Juniors 20-23,108.5,,,,,,150,-160,-160,,150,,,,,,150
1,Vitaliy Bibikov,110,M,Raw,Yes,B,1985-02-05,Kazakhstan,Amateur Open,107.2,,,,,,200,210,-220,,210,,,,,,210
2,Maksim Olkhovskiy,110,M,Raw,Yes,B,1989-06-28,Kazakhstan,Amateur Open,105.3,,,,,,-170,185,-195,,185,,,,,,185
3,Nikita Mirsaev,110,M,Raw,Yes,B,1989-05-25,Russia,Amateur Open,103.3,,,,,,152.5,157.5,160,,160,,,,,,160
1,Evgeniy Antukh,110,M,Raw,Yes,B,1972-10-13,Russia,Amateur Masters 40-44,107.2,,,,,,162.5,-167.5,167.5,,167.5,,,,,,167.5
1,Vadim Klyachenkov,110,M,Raw,Yes,B,1966-08-18,Russia,Amateur Masters 45-49,106.5,,,,,,140,145,147.5,,147.5,,,,,,147.5
2,Konstantin Kinizerov,110,M,Raw,Yes,B,1966-08-07,Russia,Amateur Masters 45-49,103.3,,,,,,110,115,-117.5,,115,,,,,,115
1,Andrey Zhuravlev,110,M,Raw,Yes,B,1959-11-30,Kazakhstan,Amateur Masters 50-54,109.7,,,,,,160,167.5,175,,175,,,,,,175
1,Erdenekhuu Timurbaatar,125,M,Raw,Yes,B,1985-07-13,Mongolia,Amateur Open,118.2,,,,,,190,200,210,,210,,,,,,210
1,Suleyman Musaev,125,M,Raw,Yes,B,1973-03-10,Russia,Amateur Masters 40-44,124.7,,,,,,170,177.5,180,,180,,,,,,180
2,Evgeniy Chigirov,125,M,Raw,Yes,B,1974-02-13,Russia,Amateur Masters 40-44,110.6,,,,,,160,-165,-165,,160,,,,,,160
3,Ilya Gulyukin,125,M,Raw,Yes,B,1973-03-13,Russia,Amateur Masters 40-44,110.4,,,,,,127.5,132.5,135,,135,,,,,,135
1,Eduard Sapozhnikov,125,M,Raw,Yes,B,1967-11-22,Russia,Amateur Masters 45-49,112.5,,,,,,-160,-170,175,,175,,,,,,175
1,Ankhbayar Damdin,140,M,Raw,Yes,B,1979-07-16,Mongolia,Amateur Open,130.7,,,,,,185,-200,-205,,185,,,,,,185
1,Natalya Tskhay,44,F,Single-ply,Yes,B,1975-04-19,Kazakhstan,Amateur Open,44,,,,,,47.5,-52.5,-52.5,,47.5,,,,,,47.5
1,Kristina Baranova,60,F,Single-ply,Yes,B,1988-05-17,Russia,Amateur Open,59.6,,,,,,97.5,102.5,105,,105,,,,,,105
2,Altansuvd Badam,60,F,Single-ply,Yes,B,1975-07-18,Mongolia,Amateur Open,60,,,,,,80,-95,-98,,80,,,,,,80
1,Mariya Zaigraeva,67.5,F,Single-ply,Yes,B,1976-06-27,Russia,Amateur Open,67,,,,,,-90,90,-95,,90,,,,,,90
1,Vadim Sokushev,52,M,Single-ply,Yes,B,1990-03-28,Russia,Amateur Open,51.2,,,,,,125,130,-135,,130,,,,,,130
1,Ivan Semenov,67.5,M,Single-ply,Yes,B,1992-06-21,Russia,Amateur Juniors 20-23,66.5,,,,,,115,132.5,137.5,,137.5,,,,,,137.5
1,Aleksandr Kim,67.5,M,Single-ply,Yes,B,1981-10-15,Russia,Amateur Open,66.1,,,,,,115,130,137.5,,137.5,,,,,,137.5
1,Evgeniy Zuev,75,M,Single-ply,Yes,B,1985-07-11,Russia,Amateur Open,71.8,,,,,,190,-197.5,-197.5,,190,,,,,,190
2,Gansukh Batsukh,75,M,Single-ply,Yes,B,1988-04-24,Mongolia,Amateur Open,75,,,,,,-162.5,162.5,170,,170,,,,,,170
3,Ganbat Shagdarsuren,75,M,Single-ply,Yes,B,1977-06-13,Mongolia,Amateur Open,70,,,,,,-160,160,165,,165,,,,,,165
4,Sergey Zhuganenko,75,M,Single-ply,Yes,B,1987-02-11,Russia,Amateur Open,74.7,,,,,,150,-162.5,162.5,,162.5,,,,,,162.5
5,Aleksandr Moiseev,75,M,Single-ply,Yes,B,1980-05-06,Russia,Amateur Open,74.9,,,,,,-147.5,147.5,152.5,,152.5,,,,,,152.5
6,Artem Golubin,75,M,Single-ply,Yes,B,1990-06-25,Russia,Amateur Open,74.3,,,,,,140,145,-150,,145,,,,,,145
1,Igor Bashtanov,75,M,Single-ply,Yes,B,1967-01-30,Russia,Amateur Masters 45-49,73.2,,,,,,140,-147.5,147.5,,147.5,,,,,,147.5
1,Aleksandr Taranenko,82.5,M,Single-ply,Yes,B,1987-05-05,Russia,Amateur Open,82.5,,,,,,-200,-200,200,,200,,,,,,200
DQ,Andrey Tomasik,82.5,M,Single-ply,Yes,B,1987-12-14,Russia,Amateur Open,80.7,,,,,,-180,-180,-180,,-180,,,,,,
1,Vladimir Konchakov,90,M,Single-ply,Yes,B,1973-05-25,Russia,Amateur Open,88.8,,,,,,210,225,240,,240,,,,,,240
2,Amarzayaa Tayvan Timur,90,M,Single-ply,Yes,B,1987-08-02,Mongolia,Amateur Open,89.8,,,,,,220,230,-242.5,,230,,,,,,230
3,Ariunbaatar Sharavdorzh,90,M,Single-ply,Yes,B,1982-04-09,Mongolia,Amateur Open,88.4,,,,,,190,200,-210,,200,,,,,,200
1,Vladimir Konchakov,90,M,Single-ply,Yes,B,1973-05-25,Russia,Amateur Masters 40-44,88.8,,,,,,210,225,240,,240,,,,,,240
2,Evgeniy Svoboda,90,M,Single-ply,Yes,B,1972-03-23,Russia,Amateur Masters 40-44,89.4,,,,,,165,-175,-175,,165,,,,,,165
1,Uruzmag Merdenov,90,M,Single-ply,Yes,B,1968-01-17,Russia,Amateur Masters 45-49,89.8,,,,,,165,170,175,,175,,,,,,175
DQ,Mikhail Turkin,90,M,Single-ply,Yes,B,1969-04-17,Russia,Amateur Masters 45-49,86.4,,,,,,-170,-170,-170,,,,,,,,
DQ,Denis Grigoryev,100,M,Single-ply,Yes,B,1982-08-07,Russia,Amateur Open,97.6,,,,,,-210,-210,-210,,,,,,,,
DQ,Sergey Boldin,100,M,Single-ply,Yes,B,1971-05-31,Russia,Amateur Masters 40-44,91.3,,,,,,-175,-175,-175,,,,,,,,
1,Valeriy Verkholantsev,100,M,Single-ply,Yes,B,1953-11-24,Russia,Amateur Masters 60-64,99.8,,,,,,125,135,145,,145,,,,,,145
2,Vladimir Kobzev,100,M,Single-ply,Yes,B,1950-09-30,Russia,Amateur Masters 60-64,95.9,,,,,,90,100,-110,,100,,,,,,100
1,Dorzh Myagmarzhav,110,M,Single-ply,Yes,B,1995-05-06,Mongolia,Amateur Teen 18-19,104.6,,,,,,155,170,180,,180,,,,,,180
1,Erdenekhuu Timurbaatar,125,M,Single-ply,Yes,B,1985-07-13,Mongolia,Amateur Open,118.2,,,,,,-240,250,-281,,250,,,,,,250
1,Evgeniy Chigirov,125,M,Single-ply,Yes,B,1974-02-13,Russia,Amateur Masters 40-44,110.6,,,,,,-185,190,-200,,190,,,,,,190
1,Ankhbayar Damdin,140,M,Single-ply,Yes,B,1979-07-16,Mongolia,Amateur Open,130.7,,,,,,200,220,-240,,220,,,,,,220
1,Sofya Nechaeva,44,F,Raw,No,B,2001-08-14,Russia,Pro Youth,39,,,,,,35,-40,-40,,35,,,,,,35
1,Svetlana Stelmashenko,60,F,Raw,No,B,1985-06-16,Russia,Pro Open,59.6,,,,,,82.5,85,-90,,85,,,,,,85
1,Olga Nasonova,67.5,F,Raw,No,B,1996-01-31,Russia,Pro Teen 18-19,63.3,,,,,,85,87.5,-90,,87.5,,,,,,87.5
1,Yuliya Medvedeva #1,82.5,F,Raw,No,B,1979-07-08,Russia,Pro Open,78.6,,,,,,147.5,155,,,155,,,,,,155
1,Aleksandr Shpilman,52,M,Raw,No,B,1999-11-30,Russia,Pro Teen 13-15,50.3,,,,,,65,70,-75,,70,,,,,,70
1,Evgeniy Sinko,67.5,M,Raw,No,B,1981-10-07,Russia,Pro Open,67.3,,,,,,147.5,155,-165,,155,,,,,,155
2,Konstantin Karpov,67.5,M,Raw,No,B,1988-04-26,Russia,Pro Open,66.5,,,,,,30,35,40,,40,,,,,,40
1,Roman Myshkov,75,M,Raw,No,B,1993-12-12,Kazakhstan,Pro Juniors 20-23,74.8,,,,,,170,182.5,190,,190,,,,,,190
1,Roman Myshkov,75,M,Raw,No,B,1993-12-12,Kazakhstan,Pro Open,74.8,,,,,,170,182.5,190,,190,,,,,,190
2,Pavel Guzenko,75,M,Raw,No,B,1988-03-03,Russia,Pro Open,72.3,,,,,,160,172.5,-175,,172.5,,,,,,172.5
3,Evgeniy Kun,75,M,Raw,No,B,1986-06-16,Russia,Pro Open,74.3,,,,,,155,160,167.5,,167.5,,,,,,167.5
DQ,Evgeniy Kiselev,75,M,Raw,No,B,1982-05-16,Russia,Pro Open,73.2,,,,,,-165,-175,-175,,,,,,,,
1,Konstantin Semenov,75,M,Raw,No,B,1964-08-24,Russia,Pro Masters 45-49,73.1,,,,,,125,130,-132.5,,130,,,,,,130
1,Ramil Samigullin,75,M,Raw,No,B,1961-02-24,Russia,Pro Masters 50-54,73.4,,,,,,95,102.5,-107.5,,102.5,,,,,,102.5
DQ,Tsegmed Byambaa,75,M,Raw,No,B,1940-05-09,Mongolia,Pro Masters 70-74,73.9,,,,,,-70,,,,,,,,,,
1,Igor Ryzhov,82.5,M,Raw,No,B,1985-10-24,Russia,Pro Open,82.5,,,,,,175,185,187.5,,187.5,,,,,,187.5
2,Danil Shagin,82.5,M,Raw,No,B,1988-08-05,Russia,Pro Open,81,,,,,,170,-175,-175,,170,,,,,,170
3,Rodion Melnikov,82.5,M,Raw,No,B,1989-08-10,Russia,Pro Open,81.4,,,,,,170,-175,-175,,170,,,,,,170
4,Pavel Anisimov,82.5,M,Raw,No,B,1988-02-02,Russia,Pro Open,82.4,,,,,,165,-170,170,,170,,,,,,170
1,Aleksey Korobov,82.5,M,Raw,No,B,1959-03-21,Russia,Pro Masters 55-59,82.5,,,,,,110,115,120,,120,,,,,,120
1,Boris Ryazanov,82.5,M,Raw,No,B,1954-06-13,Russia,Pro Masters 60-64,82.5,,,,,,140,145,152.5,155,152.5,,,,,,152.5
1,Aleksandr Smirnov,90,M,Raw,No,B,1991-03-04,Russia,Pro Juniors 20-23,89.9,,,,,,175,-182.5,-182.5,,175,,,,,,175
DQ,Anatoliy Kuimov,90,M,Raw,No,B,1990-12-20,Russia,Pro Juniors 20-23,89.1,,,,,,-170,-170,-170,,,,,,,,
1,Roman Gilev,90,M,Raw,No,B,1987-10-24,Russia,Pro Open,87.8,,,,,,-192.5,192.5,200,,200,,,,,,200
2,David Dzugkoev,90,M,Raw,No,B,1985-02-28,Russia,Pro Open,90,,,,,,200,-207.5,-207.5,,200,,,,,,200
3,Stepan Borovskiy,90,M,Raw,No,B,1986-01-22,Russia,Pro Open,90,,,,,,190,195,-202.5,,195,,,,,,195
4,Evgeniy Shakirov,90,M,Raw,No,B,1982-04-25,Russia,Pro Open,87.8,,,,,,170,175,-180,,175,,,,,,175
5,Maksim Domanskikh,90,M,Raw,No,B,1983-01-22,Russia,Pro Open,89.6,,,,,,165,-180,-180,,165,,,,,,165
6,Andrey Maslakov,90,M,Raw,No,B,1988-06-20,Russia,Pro Open,90,,,,,,135,145,157.5,,157.5,,,,,,157.5
1,Oleg Chekhlov,90,M,Raw,No,B,1973-05-19,Russia,Pro Masters 40-44,89,,,,,,145,150,-155,,150,,,,,,150
1,Anatoliy Samarin,90,M,Raw,No,B,1966-06-04,Kazakhstan,Pro Masters 45-49,87.7,,,,,,95,100,105,,105,,,,,,105
1,Evgeniy Basov,90,M,Raw,No,B,1955-02-24,Russia,Pro Masters 55-59,89.2,,,,,,120,,,,120,,,,,,120
1,Zakhar Buslaev,100,M,Raw,No,B,1991-11-20,Russia,Pro Juniors 20-23,93.8,,,,,,150,165,,,165,,,,,,165
1,Vasiliy Fedyaev,100,M,Raw,No,B,1982-10-26,Russia,Pro Open,98,,,,,,250,-257.5,-257.5,,250,,,,,,250
2,Battimur Khumugul,100,M,Raw,No,B,1974-10-05,Mongolia,Pro Open,95.5,,,,,,200,210,225,,225,,,,,,225
3,Vasiliy Synkov,100,M,Raw,No,B,1972-09-07,Russia,Pro Open,99.7,,,,,,205,215,222.5,,222.5,,,,,,222.5
4,Andrey Komarov,100,M,Raw,No,B,1973-08-18,Russia,Pro Open,99.8,,,,,,200,212.5,220,,220,,,,,,220
5,Tleuzhan Kunikin,100,M,Raw,No,B,1975-06-10,Kazakhstan,Pro Open,96.9,,,,,,180,190,-192.5,,190,,,,,,190
6,Artem Kochnev,100,M,Raw,No,B,1983-05-28,Russia,Pro Open,99,,,,,,160,170,-175,,170,,,,,,170
7,Aleksandr Dukhinskiy,100,M,Raw,No,B,1982-11-29,Russia,Pro Open,99.1,,,,,,155,165,170,,170,,,,,,170
8,Kirill Poznyakov,100,M,Raw,No,B,1989-06-14,Russia,Pro Open,96.7,,,,,,165,-180,-180,,165,,,,,,165
9,Aleksandr Goloyukhov,100,M,Raw,No,B,1988-05-13,Russia,Pro Open,96.8,,,,,,-165,165,-180,,165,,,,,,165
1,Vasiliy Synkov,100,M,Raw,No,B,1972-09-07,Russia,Pro Masters 40-44,99.7,,,,,,205,215,222.5,,222.5,,,,,,222.5
2,Andrey Komarov,100,M,Raw,No,B,1973-08-18,Russia,Pro Masters 40-44,99.8,,,,,,200,212.5,220,,220,,,,,,220
3,Viktor Eremenko,100,M,Raw,No,B,1970-05-14,Russia,Pro Masters 40-44,97.5,,,,,,170,180,-190,,180,,,,,,180
1,Vladimir Pantsev,100,M,Raw,No,B,1962-10-22,Russia,Pro Masters 50-54,99.5,,,,,,135,140,-142.5,,140,,,,,,140
2,Nikolay Tsyplenkov,100,M,Raw,No,B,1962-01-13,Russia,Pro Masters 50-54,98.8,,,,,,130,135,-140,,135,,,,,,135
DQ,Vyacheslav Trunaev,100,M,Raw,No,B,1963-03-23,Russia,Pro Masters 50-54,98.6,,,,,,-175,-185,-190,,,,,,,,
1,Igor Lyzhin,100,M,Raw,No,B,1959-06-19,Russia,Pro Masters 55-59,97.5,,,,,,185,-195,-195,,185,,,,,,185
2,Aleksandr Pozyabkin,100,M,Raw,No,B,1958-03-06,Russia,Pro Masters 55-59,97.3,,,,,,120,125,-130,,125,,,,,,125
1,Nikolay Klepikov,110,M,Raw,No,B,1995-01-29,Russia,Pro Teen 18-19,106.5,,,,,,-170,175,-180,,175,,,,,,175
1,Denis Zenin,110,M,Raw,No,B,1993-08-18,Russia,Pro Juniors 20-23,102,,,,,,215,227.5,-232.5,,227.5,,,,,,227.5
1,Oleg Saydentsal,110,M,Raw,No,B,1975-03-14,Russia,Pro Open,108,,,,,,230,-235,235,,235,,,,,,235
2,Vitaliy Vasilkov,110,M,Raw,No,B,1980-08-22,Russia,Pro Open,105.4,,,,,,220,230,-240,,230,,,,,,230
3,Denis Zenin,110,M,Raw,No,B,1993-08-18,Russia,Pro Open,102,,,,,,215,227.5,-232.5,,227.5,,,,,,227.5
4,Aleksandr Mantserov,110,M,Raw,No,B,1983-06-13,Russia,Pro Open,109.1,,,,,,210,220,227.5,,227.5,,,,,,227.5
5,Sergey Blokh,110,M,Raw,No,B,1973-04-19,Russia,Pro Open,109.5,,,,,,220,-227.5,-227.5,,220,,,,,,220
6,Anton Epikhin,110,M,Raw,No,B,1988-10-11,Russia,Pro Open,108.9,,,,,,185,197.5,-202.5,,197.5,,,,,,197.5
7,Vitaliy Shevelev,110,M,Raw,No,B,1979-12-28,Russia,Pro Open,108.4,,,,,,180,185,190,,190,,,,,,190
1,Sergey Blokh,110,M,Raw,No,B,1973-04-19,Russia,Pro Masters 40-44,109.5,,,,,,220,-227.5,-227.5,,220,,,,,,220
1,Mikhail Ishchechkin,110,M,Raw,No,B,1962-01-22,Russia,Pro Masters 50-54,107.2,,,,,,135,145,155,,155,,,,,,155
1,Pavel Yudin,110,M,Raw,No,B,1958-09-27,Kazakhstan,Pro Masters 55-59,107.9,,,,,,130,137.5,-145,,137.5,,,,,,137.5
1,Aleksey Nelyubov,125,M,Raw,No,B,1990-10-26,Russia,Pro Juniors 20-23,124.4,,,,,,205,215,-220,,215,,,,,,215
1,Stanislav Kolachev,125,M,Raw,No,B,1987-03-20,Russia,Pro Open,120.2,,,,,,252.5,257.5,262.5,,262.5,,,,,,262.5
2,Nikolay Boykov,125,M,Raw,No,B,1969-12-17,Russia,Pro Open,118.3,,,,,,225,230,-235,,230,,,,,,230
3,Denis Ivannikov,125,M,Raw,No,B,1982-09-27,Russia,Pro Open,118,,,,,,220,-235,-235,,220,,,,,,220
4,Aleksandr Emelyanov,125,M,Raw,No,B,1983-02-18,Russia,Pro Open,124.1,,,,,,190,-200,200,,200,,,,,,200
DQ,Vladimir Plakhotnyy,125,M,Raw,No,B,1972-04-22,Russia,Pro Open,119.5,,,,,,-220,-220,-220,,,,,,,,
1,Nikolay Boykov,125,M,Raw,No,B,1969-12-17,Russia,Pro Masters 40-44,118.3,,,,,,225,230,-235,,230,,,,,,230
2,Dmitriy Bubnov,125,M,Raw,No,B,1973-10-14,Russia,Pro Masters 40-44,116.2,,,,,,210,-222.5,-235,,210,,,,,,210
DQ,Vladimir Plakhotnyy,125,M,Raw,No,B,1972-04-22,Russia,Pro Masters 40-44,119.5,,,,,,-220,-220,-220,,,,,,,,
1,Vadim Teterev,140,M,Raw,No,B,1972-11-10,Russia,Pro Open,129.5,,,,,,190,205,-210,,205,,,,,,205
2,Roman Nikishin,140,M,Raw,No,B,1982-01-19,Russia,Pro Open,131.6,,,,,,205,-210,-212.5,,205,,,,,,205
1,Vadim Teterev,140,M,Raw,No,B,1972-11-10,Russia,Pro Masters 40-44,129.5,,,,,,190,205,-210,,205,,,,,,205
1,Natalya Korenkova,67.5,F,Single-ply,No,B,1980-01-07,Russia,Pro Open,67.3,,,,,,122.5,130,-140,,130,,,,,,130
1,Mariya Kalanina,75,F,Single-ply,No,B,1982-03-29,Russia,Pro Open,71.8,,,,,,110,-115,115,,115,,,,,,115
1,Aleksandr Ignatov,56,M,Single-ply,No,B,1997-09-15,Russia,Pro Teen 16-17,56,,,,,,135,140,-150,,140,,,,,,140
1,Evgeniy Sinko,67.5,M,Single-ply,No,B,1981-10-07,Russia,Pro Open,67.2,,,,,,-160,160,170,,170,,,,,,170
1,Ilya Teplov,75,M,Single-ply,No,B,1992-06-04,Russia,Pro Juniors 20-23,73.8,,,,,,187.5,200,-205,,200,,,,,,200
1,Mark Spitsyn,75,M,Single-ply,No,B,1989-06-06,Russia,Pro Open,75,,,,,,165,175,-180,,175,,,,,,175
DQ,Konstantin Semenov,75,M,Single-ply,No,B,1964-08-24,Russia,Pro Masters 45-49,73.1,,,,,,-175,-175,-175,,,,,,,,
1,Stepan Pakhomov,82.5,M,Single-ply,No,B,1991-08-04,Russia,Pro Juniors 20-23,79.2,,,,,,140,150,-152.5,,150,,,,,,150
1,Dmitriy Savchenko,82.5,M,Single-ply,No,B,1981-08-03,Russia,Pro Open,81.1,,,,,,-180,180,185,,185,,,,,,185
1,Artem Azaryan,90,M,Single-ply,No,B,1990-10-13,Russia,Pro Juniors 20-23,88,,,,,,130,140,145,,145,,,,,,145
1,Stepan Borovskiy,90,M,Single-ply,No,B,1986-01-22,Russia,Pro Open,90,,,,,,220,230,240,,240,,,,,,240
2,Nutsu Shiman,90,M,Single-ply,No,B,1982-12-16,Russia,Pro Open,89.7,,,,,,205,212.5,225,,225,,,,,,225
3,Enver Niyaziev,90,M,Single-ply,No,B,1989-07-22,Russia,Pro Open,88,,,,,,-205,212.5,222.5,,222.5,,,,,,222.5
4,Altanbagona Sharavdorzh,90,M,Single-ply,No,B,1990-05-17,Mongolia,Pro Open,89.4,,,,,,205,-212.5,,,205,,,,,,205
DQ,Valentin Pospelov,90,M,Single-ply,No,B,1972-10-13,Kazakhstan,Pro Masters 40-44,82.8,,,,,,-185,-185,,,,,,,,,
1,Evgeniy Basov,90,M,Single-ply,No,B,1955-02-24,Russia,Pro Masters 55-59,89.4,,,,,,170,183,-190,,183,,,,,,183
1,Vasiliy Synkov,100,M,Single-ply,No,B,1972-09-07,Russia,Pro Open,99.7,,,,,,270,-292.5,-292.5,,270,,,,,,270
2,Mikhail Ryzhkin,100,M,Single-ply,No,B,1984-08-12,Russia,Pro Open,100,,,,,,250,-260,270,,270,,,,,,270
3,Vladimir Srabionov,100,M,Single-ply,No,B,1964-09-04,Russia,Pro Open,99.2,,,,,,-230,230,252.5,,252.5,,,,,,252.5
4,Aleksandr Savin,100,M,Single-ply,No,B,1986-06-01,Russia,Pro Open,95.6,,,,,,245,-255,-255,,245,,,,,,245
5,Artem Feofilov,100,M,Single-ply,No,B,1989-05-05,Russia,Pro Open,99.6,,,,,,180,190,200,,200,,,,,,200
DQ,Battimur Khumugul,100,M,Single-ply,No,B,1974-10-05,Mongolia,Pro Open,95.5,,,,,,-240,,,,,,,,,,
1,Vasiliy Synkov,100,M,Single-ply,No,B,1972-09-07,Russia,Pro Masters 40-44,99.7,,,,,,270,-292.5,-292.5,,270,,,,,,270
2,Viktor Eremenko,100,M,Single-ply,No,B,1970-05-14,Russia,Pro Masters 40-44,97.5,,,,,,210,220,-230,,220,,,,,,220
1,Vladimir Srabionov,100,M,Single-ply,No,B,1964-09-04,Russia,Pro Masters 45-49,99.2,,,,,,-230,230,252.5,,252.5,,,,,,252.5
1,Stepan Polaev,110,M,Single-ply,No,B,1984-09-13,Kazakhstan,Pro Open,105.3,,,,,,235,240,245,,245,,,,,,245
2,Dmitriy Pastukhov,110,M,Single-ply,No,B,1988-06-13,Russia,Pro Open,110,,,,,,-230,-230,230,,230,,,,,,230
DQ,Ilya Epikhin,125,M,Single-ply,No,B,1996-05-08,Russia,Pro Teen 18-19,122.9,,,,,,-200,-200,-200,,-200,,,,,,
DQ,Anton Bardin,125,M,Single-ply,No,B,1990-11-17,Russia,Pro Juniors 20-23,124,,,,,,-250,-250,-250,,-250,,,,,,
1,Denis Murin,125,M,Single-ply,No,B,1979-09-17,Russia,Pro Open,115.8,,,,,,260,275,285,,285,,,,,,285
1,Evgeniy Ermyshev,140,M,Single-ply,No,B,1978-02-04,Russia,Pro Open,126.8,,,,,,-285,-285,285,,285,,,,,,285
1,Viktoriya Sharovatova,44,F,Raw,Yes,D,2000-04-13,Russia,Amateur Teen 13-15,44,,,,,,,,,,,75,80,85,,85,85
1,Kseniya Fedorova,48,F,Raw,Yes,D,1987-11-09,Russia,Amateur Open,46.8,,,,,,,,,,,80,90,92.5,,92.5,92.5
1,Alina Vishnyakova,52,F,Raw,Yes,D,1998-02-10,Russia,Amateur Teen 16-17,51.6,,,,,,,,,,,70,-87.5,87.5,,87.5,87.5
DQ,Lkhamnorzhmaa Badmaadorzh,56,F,Raw,Yes,D,1991-11-12,Mongolia,Amateur Juniors 20-23,56,,,,,,,,,,,-120,,,,,
1,Elena Krakhmaleva,56,F,Raw,Yes,D,1982-11-06,Russia,Amateur Open,56,,,,,,,,,,,120,-125,-125,,120,120
2,Marina Budaeva,56,F,Raw,Yes,D,1978-01-14,Russia,Amateur Open,54.8,,,,,,,,,,,85,-105,-105,,85,85
DQ,Lkhamnorzhmaa Badmaadorzh,56,F,Raw,Yes,D,1991-11-12,Russia,Amateur Open,56,,,,,,,,,,,-120,,,,,
1,Anastasiya Noskova,60,F,Raw,Yes,D,1984-02-14,Russia,Amateur Open,58.7,,,,,,,,,,,-147.5,147.5,152.5,-155,152.5,152.5
2,Altansud Badam,60,F,Raw,Yes,D,1975-07-18,Kazakhstan,Amateur Open,60,,,,,,,,,,,95,100,-105,,100,100
1,Olga Frolova,67.5,F,Raw,Yes,D,1976-06-22,Russia,Amateur Open,66.2,,,,,,,,,,,90,97.5,102.5,,102.5,102.5
1,Mariya Abramova,75,F,Raw,Yes,D,1989-01-19,Russia,Amateur Open,74.1,,,,,,,,,,,90,100,110,,110,110
1,Dolgor Altangerel,82.5,F,Raw,Yes,D,1996-11-18,Mongolia,Amateur Teen 16-17,81.9,,,,,,,,,,,-120,130,-140,,130,130
1,Dolgor Altangerel,82.5,F,Raw,Yes,D,1996-11-18,Mongolia,Amateur Open,81.9,,,,,,,,,,,-120,130,-140,,130,130
1,Sergey Nekrasov,52,M,Raw,Yes,D,1998-11-06,Russia,Amateur Teen 13-15,48.8,,,,,,,,,,,-125,132.5,-135,,132.5,132.5
1,Maksim Kutyavin,60,M,Raw,Yes,D,1988-12-19,Russia,Amateur Open,57.8,,,,,,,,,,,165,180,-200,,180,180
1,Saveliy Semenov,67.5,M,Raw,Yes,D,1997-03-27,Russia,Amateur Teen 16-17,66.9,,,,,,,,,,,170,180,190,,190,190
2,Artem Bulygin,67.5,M,Raw,Yes,D,1997-03-28,Russia,Amateur Teen 16-17,66.8,,,,,,,,,,,135,-145,155,,155,155
1,Aleksey Stepanov,67.5,M,Raw,Yes,D,1996-05-22,Russia,Amateur Teen 18-19,65.6,,,,,,,,,,,-140,150,-165,,150,150
1,Marat Kurdanov,67.5,M,Raw,Yes,D,1993-08-31,Russia,Amateur Juniors 20-23,66.5,,,,,,,,,,,185,195,207.5,,207.5,207.5
1,Aleksandr Kim,67.5,M,Raw,Yes,D,1981-10-15,Russia,Amateur Open,66.1,,,,,,,,,,,170,195,-205,,195,195
1,Vladimir Sviderskiy,67.5,M,Raw,Yes,D,1951-05-07,Russia,Amateur Masters 60-64,65.2,,,,,,,,,,,135,140,145,,145,145
1,Anton Voronin,75,M,Raw,Yes,D,1997-08-06,Russia,Amateur Teen 16-17,73.2,,,,,,,,,,,185,195,202.5,,202.5,202.5
1,Ilya Kurbatov,75,M,Raw,Yes,D,1994-09-22,Russia,Amateur Teen 18-19,73.7,,,,,,,,,,,255,265,-272.5,,265,265
2,Maksim Adamenko,75,M,Raw,Yes,D,1996-05-01,Russia,Amateur Teen 18-19,72.6,,,,,,,,,,,-155,160,170,,170,170
DQ,Viktor Kurbatov #2,75,M,Raw,Yes,D,1992-10-23,Russia,Amateur Juniors 20-23,74.4,,,,,,,,,,,-202.5,-202.5,-202.5,,,
1,Battytokh Dorzhpalam,75,M,Raw,Yes,D,1987-02-04,Mongolia,Amateur Open,73.5,,,,,,,,,,,210,215,220,,220,220
2,Andrey Poplavskiy,75,M,Raw,Yes,D,1989-06-25,Russia,Amateur Open,75,,,,,,,,,,,180,202.5,-210,,202.5,202.5
3,Sergey Fedoseev,75,M,Raw,Yes,D,1982-01-18,Russia,Amateur Open,74.9,,,,,,,,,,,157.5,-177.5,-177.5,,157.5,157.5
1,Nikita Sapan,82.5,M,Raw,Yes,D,1996-02-25,Russia,Amateur Teen 18-19,79.9,,,,,,,,,,,185,200,-215,,200,200
2,Ivan Tanskikh,82.5,M,Raw,Yes,D,1996-04-16,Russia,Amateur Teen 18-19,80.2,,,,,,,,,,,170,185,-200,,185,185
3,Artur Zaykov,82.5,M,Raw,Yes,D,1996-02-28,Russia,Amateur Teen 18-19,79.4,,,,,,,,,,,180,-190,-190,,180,180
1,Evgeniy Kholzakov,82.5,M,Raw,Yes,D,1992-11-27,Russia,Amateur Juniors 20-23,80.5,,,,,,,,,,,195,205,215,,215,215
1,Andrey Tanakov,82.5,M,Raw,Yes,D,1976-02-06,Russia,Amateur Open,81.6,,,,,,,,,,,230,245,,,245,245
1,Andrey Arsenov,82.5,M,Raw,Yes,D,1956-08-14,Russia,Amateur Masters 55-59,81.9,,,,,,,,,,,-185,,185,,185,185
1,Grigoriy Romanov,90,M,Raw,Yes,D,1997-10-06,Russia,Amateur Teen 16-17,88,,,,,,,,,,,165,175,-182.5,,175,175
1,Aleksey Morozov,90,M,Raw,Yes,D,1995-08-02,Russia,Amateur Teen 18-19,86.5,,,,,,,,,,,222.5,230,-240,,230,230
2,Mikhail Isakov,90,M,Raw,Yes,D,1996-05-24,Russia,Amateur Teen 18-19,87.7,,,,,,,,,,,160,-175,-175,,160,160
1,Aleksandr Pyzhov,90,M,Raw,Yes,D,1976-03-22,Russia,Amateur Open,84.9,,,,,,,,,,,200,222.5,,,222.5,222.5
2,Evgenniy Svoboda,90,M,Raw,Yes,D,1972-03-23,Russia,Amateur Open,89.4,,,,,,,,,,,180,200,,,200,200
1,Evgenniy Svoboda,90,M,Raw,Yes,D,1972-03-23,Russia,Amateur Masters 40-44,89.4,,,,,,,,,,,180,200,,,200,200
1,Andrey Sobolev,90,M,Raw,Yes,D,1968-01-11,Russia,Amateur Masters 45-49,86.3,,,,,,,,,,,170,-195,-195,,170,170
1,Aleksandr Kyubbar,90,M,Raw,Yes,D,1960-05-23,Russia,Amateur Masters 50-54,89.3,,,,,,,,,,,-170,170,,,170,170
1,Aleksey Kovalenko,100,M,Raw,Yes,D,1996-02-27,Russia,Amateur Teen 18-19,97.4,,,,,,,,,,,220,-227.5,,,220,220
1,Artem Chernikov,100,M,Raw,Yes,D,1993-01-25,Russia,Amateur Juniors 20-23,93.5,,,,,,,,,,,90,-115,120,,120,120
1,Sergey Litvinenko,100,M,Raw,Yes,D,1979-12-21,Russia,Amateur Open,98.6,,,,,,,,,,,210,-232.5,232.5,,232.5,232.5
2,Battytokh Sharavdorzh,100,M,Raw,Yes,D,1974-09-19,Mongolia,Amateur Open,95.6,,,,,,,,,,,-100,100,,,100,100
1,Dorzh Myagmarzhav,110,M,Raw,Yes,D,1995-05-06,Mongolia,Amateur Teen 18-19,104.6,,,,,,,,,,,200,210,-225,,210,210
1,Sergey Sharovatov,110,M,Raw,Yes,D,1978-02-22,Russia,Amateur Open,107.7,,,,,,,,,,,220,-240,,,220,220
1,Sergey Karelin,110,M,Raw,Yes,D,1959-08-09,Russia,Amateur Masters 50-54,108.9,,,,,,,,,,,210,230,-240,,230,230
1,Aleksandr Kim,67.5,M,Single-ply,Yes,D,1981-10-15,Russia,Amateur Open,66.1,,,,,,,,,,,170,-200,207.5,,207.5,207.5
1,Artem Golubin,75,M,Single-ply,Yes,D,1990-06-25,Russia,Amateur Open,74.3,,,,,,,,,,,190,210,-220,,210,210
1,Ariunbaatar Sharavdorzh,90,M,Single-ply,Yes,D,1982-04-09,Mongolia,Amateur Open,88.4,,,,,,,,,,,260,267.5,272.5,,272.5,272.5
1,Zhargalsaykhan Sosorbaram,90,M,Single-ply,Yes,D,1970-09-08,Mongolia,Amateur Masters 40-44,89.4,,,,,,,,,,,225,240,245,,245,245
2,Evgeniy Svoboda,90,M,Single-ply,Yes,D,1972-03-23,Russia,Amateur Masters 40-44,89.4,,,,,,,,,,,200,230,242.5,,242.5,242.5
1,Batbayar Mishka,100,M,Single-ply,Yes,D,1985-06-17,Mongolia,Amateur Open,95.6,,,,,,,,,,,230,250,270,,270,270
1,Vladimir Polivanov,125,M,Single-ply,Yes,D,1963-01-20,Russia,Amateur Masters 50-54,117.3,,,,,,,,,,,-270,270,280,-290.5,280,280
1,Mariya Kalanina,75,F,Raw,No,D,1982-03-29,Russia,Pro Open,71.8,,,,,,,,,,,160,170,175,,175,175
1,Evgeniy Kisilev,75,M,Raw,No,D,1982-05-16,Russia,Pro Open,73.2,,,,,,,,,,,200,210,-220,,210,210
1,Ramil Samigullin,75,M,Raw,No,D,1961-02-24,Russia,Pro Masters 50-54,73.4,,,,,,,,,,,-135,135,140,,140,140
1,Semen Pshenichnikov,82.5,M,Raw,No,D,1991-07-09,Russia,Pro Juniors 20-23,79,,,,,,,,,,,250,265,-275,,265,265
1,Kirill Ostanin,82.5,M,Raw,No,D,1988-06-21,Kazakhstan,Pro Open,82,,,,,,,,,,,220,240,260,,260,260
1,Anatoliy Kuimov,90,M,Raw,No,D,1990-12-20,Russia,Pro Juniors 20-23,90,,,,,,,,,,,230,245,-265,,245,245
2,Evgeniy Beloval,90,M,Raw,No,D,1991-12-06,Kazakhstan,Pro Juniors 20-23,84.6,,,,,,,,,,,240,-250,,,240,240
1,Altanbagona Sharavdorzh,90,M,Raw,No,D,1990-05-17,Mongolia,Pro Open,89.4,,,,,,,,,,,220,235,245,,245,245
2,Evgeniy Beloval,90,M,Raw,No,D,1991-12-06,Kazakhstan,Pro Open,84.6,,,,,,,,,,,240,-250,,,240,240
1,Andrey Belykh,100,M,Raw,No,D,1993-09-06,Russia,Pro Juniors 20-23,97.4,,,,,,,,,,,305,320,330,340,330,330
1,Ivan Zevyakin,100,M,Raw,No,D,1988-06-28,Russia,Pro Open,98.2,,,,,,,,,,,310,325,332.5,,332.5,332.5
2,Tleuzhan Kunikin,100,M,Raw,No,D,1975-06-10,Kazakhstan,Pro Open,96.9,,,,,,,,,,,240,-250,,,240,240
1,Viktor Eremenko,100,M,Raw,No,D,1970-05-14,Russia,Pro Masters 40-44,97.5,,,,,,,,,,,200,220,230,,230,230
1,Oleg Lagunov,100,M,Raw,No,D,1967-03-03,Russia,Pro Masters 45-49,100,,,,,,,,,,,240,255,-270,,255,255
1,Vladimir Pantsev,100,M,Raw,No,D,1962-10-22,Russia,Pro Masters 50-54,99.6,,,,,,,,,,,200,212.5,217.5,,217.5,217.5
1,Daniil Zheleznyak,110,M,Raw,No,D,1994-10-21,Russia,Pro Teen 18-19,108.8,,,,,,,,,,,250,270,-280,,270,270
1,Sergey Blokh,110,M,Raw,No,D,1973-04-19,Russia,Pro Open,109.5,,,,,,,,,,,327.5,-340,-340,,327.5,327.5
2,Aleksandr Merkuryev,110,M,Raw,No,D,1985-12-01,Russia,Pro Open,105.6,,,,,,,,,,,260,270,,,270,270
1,Sergey Blokh,110,M,Raw,No,D,1973-04-19,Russia,Pro Masters 40-44,109.5,,,,,,,,,,,327.5,-340,-340,,327.5,327.5
1,Pavel Yudin,110,M,Raw,No,D,1958-09-27,Russia,Pro Masters 55-59,107.9,,,,,,,,,,,-210,210,,,210,210
1,Pavel Gensitskiy,140,M,Raw,No,D,1991-06-18,Russia,Pro Juniors 20-23,138.8,,,,,,,,,,,260,280,302.5,,302.5,302.5
1,Aleksandr Miroshnichenko #2,140+,M,Raw,No,D,1985-11-29,Russia,Pro Open,146.2,,,,,,,,,,,250,280,300,,300,300
1,Timofey Polshcha,82.5,M,Single-ply,No,D,1975-02-07,Russia,Pro Open,80.9,,,,,,,,,,,200,230,250,,250,250
2,Gankhuyag Erdenee,82.5,M,Single-ply,No,D,1969-12-09,Mongolia,Pro Open,81.1,,,,,,,,,,,-220,,220,,220,220
1,Gankhuyag Erdenee,82.5,M,Single-ply,No,D,1969-12-09,Mongolia,Pro Masters 40-44,81.1,,,,,,,,,,,-220,,220,,220,220
1,Enver Niyaziev,90,M,Single-ply,No,D,1989-07-22,Russia,Pro Open,88,,,,,,,,,,,220,-240,-240,,220,220
1,Pavel Isakov,100,M,Single-ply,No,D,1980-11-04,Russia,Pro Open,99.9,,,,,,,,,,,240,270,-282.5,,270,270
