Place,Sex,Name,CyrillicName,BodyweightKg,Bench1Kg,Bench2Kg,Bench3Kg,Best3BenchKg,Bench4Kg,Deadlift1Kg,Deadlift2Kg,Deadlift3Kg,Best3DeadliftKg,Deadlift4Kg,TotalKg,WeightClassKg,Event,Equipment,Tested,Squat1Kg,Squat2Kg,Squat3Kg,Best3SquatKg,Squat4Kg,Division,Age,BirthDate
1,M,Egor Komarov,Егор Комаров,72.1,50,-60,-62.5,50,,100,110,117.5,117.5,,167.5,75,BD,Raw,Yes,,,,,,Amateur Teen 16-17,16,2003-02-16
1,M,Andrey Sulimov,Андрей Сулимов,78.7,110,-120,-125,110,,167.5,175,182.5,182.5,,292.5,82.5,BD,Raw,Yes,,,,,,Amateur Open,26,1992-12-04
1,M,Evgeniy Samoylov,Евгений Самойлов,85,120,-125,-125,120,,190,210,-240,210,,330,90,BD,Raw,Yes,,,,,,Amateur Open,29,1989-07-13
1,M,Sergey Rudnev,Сергей Руднев,99.1,160,-165,165,165,,235,-250,250,250,,415,100,BD,Raw,Yes,,,,,,Amateur Open,26,1992-08-24
2,M,Viktor Savelev,Виктор Савельев,95.5,110,120,-130,120,,210,-220,-225,210,,330,100,BD,Raw,Yes,,,,,,Amateur Open,26,1993-03-09
1,M,Ivan Volkov,Иван Волков,114.5,150,160,165,165,,100,,,100,,265,125,BD,Raw,Yes,,,,,,Amateur Open,31,1988-03-12
DQ,M,Ivan Zevyakin,Иван Зевякин,115.7,,,,,,,,,,,,125,SBD,Multi-ply,No,-375,,,,,Pro Open,30,1988-06-28
1,M,Denis Byzov,Денис Бызов,104.3,,,,,,,,,,,250,110,S,Raw,No,240,250,-255,250,,Pro Open,31,1987-11-20
1,F,Mariya Dyachkova,Мария Дьячкова,59,,,,,,,,,,,85,60,S,Raw,Yes,85,-105,-105,85,,Amateur Open,25,1994-03-28
1,M,Evgeniy Samoylov,Евгений Самойлов,85,,,,,,,,,,,145,90,S,Raw,Yes,130,135,145,145,,Amateur Open,29,1989-07-13
DQ,M,Amin Shabaev,Амин Шабаев,109,,,,,,,,,,,,110,S,Raw,Yes,-215,-220,-220,,,Amateur Open,32,1986-10-09
1,M,Maksim Ivanov,Максим Иванов,87.8,,,,,,-260,260,272.5,272.5,,272.5,90,D,Raw,No,,,,,,Pro Open,29,1989-06-16
1,M,Sergey Elagin,Сергей Елагин,89.9,,,,,,220,230,-240,230,,230,90,D,Raw,No,,,,,,Pro Masters 40-44,44,1974-07-18
1,M,Nikita Shadrintsev,Никита Шадринцев,99.8,,,,,,240,260,270,270,,270,100,D,Raw,No,,,,,,Pro Open,24,1994-04-01
2,M,Evgeniy Sobolev,Евгений Соболев,95.3,,,,,,210,225,240,240,,240,100,D,Raw,No,,,,,,Pro Open,35,1983-06-24
3,M,Anton Cherdantsev,Антон Черданцев,93.6,,,,,,-210,220,225,225,,225,100,D,Raw,No,,,,,,Pro Open,36,1982-12-28
DQ,M,Denis Byzov,Денис Бызов,104.3,,,,,,-260,-275,,,,,110,D,Raw,No,,,,,,Pro Open,31,1987-11-20
1,M,Andrey Bocharnikov,Андрей Бочарников,106.5,,,,,,-280,290,300,300,,300,110,D,Raw,No,,,,,,Pro Open,35,1984-01-04
1,M,Vadim Raskin,Вадим Раскин,105,,,,,,235,245,-250,245,,245,110,D,Raw,No,,,,,,Pro Masters 50-54,51,1968-02-05
1,M,Ilya Shevelev,Илья Шевелев,122.5,,,,,,240,255,262.5,262.5,,262.5,125,D,Raw,No,,,,,,Pro Juniors 20-23,21,1997-08-02
1,F,Olga Bogdanova,Ольга Богданова,51,,,,,,107.5,112.5,,112.5,,112.5,52,D,Raw,Yes,,,,,,Amateur Masters 40-44,43,1976-01-02
1,F,Elena Diss,Елена Дисс,51.9,,,,,,100,110,-117.5,110,,110,52,D,Raw,Yes,,,,,,Amateur Masters 45-49,47,1972-01-10
1,F,Anastasiya Reshetnikova,Анастасия Решетникова,55.4,,,,,,85,95,107.5,107.5,,107.5,56,D,Raw,Yes,,,,,,Amateur Teen 16-17,17,2002-02-28
1,F,Irina Koblova,Ирина Коблова,54.8,,,,,,115,-125,125,125,,125,56,D,Raw,Yes,,,,,,Amateur Open,37,1982-03-14
1,F,Alina Khromova,Алина Хромова,57.9,,,,,,120,125,130,130,,130,60,D,Raw,Yes,,,,,,Amateur Teen 18-19,18,2000-11-06
1,F,Svetlana Karmanova,Светлана Карманова,60,,,,,,90,95,,95,,95,60,D,Raw,Yes,,,,,,Amateur Masters 50-54,51,1968-02-07
DQ,F,Elizaveta Zavgorodskaya,Елизавета Завгородская,59,,,,,,-110,,,,,,60,D,Raw,Yes,,,,,,Amateur Open,24,1994-05-14
1,F,Natalya Pugosey,Наталья Пугосей,64.6,,,,,,130,137.5,140,140,,140,67.5,D,Raw,Yes,,,,,,Amateur Open,32,1986-12-03
1,F,Viktoriya Povnaya,Виктория Повная,63.4,,,,,,115,125,130,130,,130,67.5,D,Raw,Yes,,,,,,Amateur Open,28,1990-08-21
DQ,F,Olga Luzanova,Ольга Лузанова,66.9,,,,,,-110,-110,,,,,67.5,D,Raw,Yes,,,,,,Amateur Masters 45-49,45,1973-07-23
1,M,Sergey Leyman,Сергей Лейман,59.3,,,,,,85,92.5,-97.5,92.5,,92.5,60,D,Raw,Yes,,,,,,Amateur Teen 13,12,2006-07-25
1,M,Sergey Reshetnikov,Сергей Решетников,60,,,,,,160,175,180,180,,180,60,D,Raw,Yes,,,,,,Amateur Teen 18-19,18,2000-05-24
1,M,Sergey Ustyugov,Сергей Устюгов,60,,,,,,160,170,175,175,,175,60,D,Raw,Yes,,,,,,Amateur Open,29,1989-08-21
1,M,Mikhail Nizhegorodov,Михаил Нижегородов,67.5,,,,,,150,167.5,,167.5,,167.5,67.5,D,Raw,Yes,,,,,,Amateur Juniors 20-23,22,1997-03-23
DQ,M,Nikita Dudchenko,Никита Дудченко,75,,,,,,-160,-160,,,,,75,D,Raw,Yes,,,,,,Amateur Teen 16-17,17,2001-06-30
1,M,Vyacheslav Khlybov,Вячеслав Хлыбов,74,,,,,,225,235,240,240,,240,75,D,Raw,Yes,,,,,,Amateur Open,33,1985-12-22
2,M,Aleksandr Matyazh,Александр Матяж,72.6,,,,,,180,-190,190,190,,190,75,D,Raw,Yes,,,,,,Amateur Open,30,1989-03-07
DQ,M,Aleksey Korolev,Алексей Королев,74.6,,,,,,-180,-180,-180,,,,75,D,Raw,Yes,,,,,,Amateur Open,34,1985-01-20
1,M,Sergey Puzyrev,Сергей Пузырев,73.4,,,,,,175,185,-190,185,,185,75,D,Raw,Yes,,,,,,Amateur Masters 45-49,47,1971-04-19
1,M,Gennadiy Chuldenko,Геннадий Чулденко,74.9,,,,,,180,190,200,200,,200,75,D,Raw,Yes,,,,,,Amateur Masters 70-74,70,1948-07-04
1,M,Sergey Polosin,Сергей Полосин,82.2,,,,,,240,250,-260,250,,250,82.5,D,Raw,Yes,,,,,,Amateur Open,35,1983-09-27
2,M,Yuriy Furman,Юрий Фурман,80.8,,,,,,180,200,220,220,,220,82.5,D,Raw,Yes,,,,,,Amateur Open,25,1993-08-20
3,M,Konstantin Mazanko,Константин Мазанко,82.2,,,,,,220,-235,-235,220,,220,82.5,D,Raw,Yes,,,,,,Amateur Open,30,1989-03-11
4,M,Dmitriy Mytyson,Дмитрий Мытысон,82.1,,,,,,-197.5,205,217.5,217.5,,217.5,82.5,D,Raw,Yes,,,,,,Amateur Open,35,1983-08-09
1,M,Viktor Shinkarev,Виктор Шинкарев,80.8,,,,,,190,200,205,205,,205,82.5,D,Raw,Yes,,,,,,Amateur Masters 45-49,47,1971-04-24
1,M,Vladimir Kamenev,Владимир Каменев,80.3,,,,,,140,145,150,150,,150,82.5,D,Raw,Yes,,,,,,Amateur Masters 65-69,66,1952-06-23
1,M,Yuriy Isagulov,Юрий Исагулов,81.6,,,,,,160,-167.5,,160,,160,82.5,D,Raw,Yes,,,,,,Amateur Masters 75-79,75,1944-01-02
1,M,Vitaliy Kashtanov,Виталий Каштанов,88.2,,,,,,240,257.5,-270,257.5,,257.5,90,D,Raw,Yes,,,,,,Amateur Juniors 20-23,22,1996-06-20
1,M,Vladislav Filipovich,Владислав Филипович,88.9,,,,,,270,-277.5,,270,,270,90,D,Raw,Yes,,,,,,Amateur Open,28,1991-01-28
2,M,Pavel Tolstushenko,Павел Толстушенко,87.6,,,,,,240,255,260,260,,260,90,D,Raw,Yes,,,,,,Amateur Open,37,1981-08-19
3,M,Dmitriy Cherepanov,Дмитрий Черепанов,85,,,,,,257.5,-265,-267.5,257.5,,257.5,90,D,Raw,Yes,,,,,,Amateur Open,35,1983-07-11
1,M,Vladimir Kurininov,Владимир Курининов,87.8,,,,,,170,187.5,-192.5,187.5,,187.5,90,D,Raw,Yes,,,,,,Amateur Masters 50-54,53,1965-12-25
1,M,Vyacheslav Bashkov,Вячеслав Башков,95,,,,,,225,-235,235,235,,235,100,D,Raw,Yes,,,,,,Amateur Juniors 20-23,23,1996-02-14
1,M,Anton Sokolov,Антон Соколов,99.4,,,,,,205,212.5,217.5,217.5,,217.5,100,D,Raw,Yes,,,,,,Amateur Open,34,1984-07-13
2,M,Viktor Savelev,Виктор Савельев,95.5,,,,,,210,-220,-225,210,,210,100,D,Raw,Yes,,,,,,Amateur Open,26,1993-03-09
1,M,Aleksandr Vagov,Александр Вагов,99.6,,,,,,-200,200,210,210,,210,100,D,Raw,Yes,,,,,,Amateur Masters 40-44,42,1976-06-07
1,M,Amin Shabaev,Амин Шабаев,109,,,,,,200,220,-242.5,220,,220,110,D,Raw,Yes,,,,,,Amateur Open,32,1986-10-09
1,M,Valeriy Baranov,Валерий Баранов,74.6,190,-200,200,200,,,,,,,200,75,B,Multi-ply,No,,,,,,Pro Juniors 20-23,22,1997-01-13
1,M,Pavel Nikolovskiy,Павел Николовский,74.9,220,240,-250,240,,,,,,,240,75,B,Multi-ply,No,,,,,,Pro Open,40,1978-05-08
DQ,M,Aleksey Verkhoturov,Алексей Верхотуров,82.5,-272.5,-272.5,-272.5,,,,,,,,,82.5,B,Multi-ply,No,,,,,,Pro Open,36,1983-03-30
1,M,Roman Fedorov,Роман Федоров,85,195,200,205,205,,,,,,,205,90,B,Multi-ply,No,,,,,,Pro Open,37,1982-02-22
1,M,Vladimir Samoylov,Владимир Самойлов,100,300,315,330,330,,,,,,,330,100,B,Multi-ply,No,,,,,,Pro Open,27,1991-05-09
2,M,Evgeniy Glushkov,Евгений Глушков,100,200,210,215,215,,,,,,,215,100,B,Multi-ply,No,,,,,,Pro Open,37,1981-12-09
1,M,Sergey Kolesnikov,Сергей Колесников,107,270,280,290,290,,,,,,,290,110,B,Multi-ply,No,,,,,,Pro Masters 40-44,41,1977-05-20
1,F,Oksana Levenets,Оксана Левенец,51.4,65,72.5,80,80,,,,,,,80,52,B,Multi-ply,Yes,,,,,,Amateur Open,43,1975-10-16
1,F,Oksana Levenets,Оксана Левенец,51.4,65,72.5,80,80,,,,,,,80,52,B,Multi-ply,Yes,,,,,,Amateur Masters 40-44,43,1975-10-16
DQ,F,Ekaterina Kudryavtseva,Екатерина Кудрявцева,54.1,-80,-90,-90,,,,,,,,,56,B,Multi-ply,Yes,,,,,,Amateur Open,31,1988-03-08
1,F,Kseniya Gavrilova,Ксения Гаврилова,66,115,120,-125,120,,,,,,,120,67.5,B,Multi-ply,Yes,,,,,,Amateur Teen 18-19,18,2000-09-09
1,M,Oleg Demidenko,Олег Демиденко,60,105,107.5,-112.5,107.5,,,,,,,107.5,60,B,Multi-ply,Yes,,,,,,Amateur Open,36,1982-07-11
1,M,Dmitriy Artemov,Дмитрий Артемов,74.9,165,177.5,-185,177.5,,,,,,,177.5,75,B,Multi-ply,Yes,,,,,,Amateur Masters 40-44,43,1975-11-14
1,M,Gleb Baranskiy,Глеб Баранский,80.9,202.5,-207.5,-207.5,202.5,,,,,,,202.5,82.5,B,Multi-ply,Yes,,,,,,Amateur Open,34,1984-09-06
2,M,Ivan Plotnikov,Иван Плотников,82.4,-202.5,202.5,-220,202.5,,,,,,,202.5,82.5,B,Multi-ply,Yes,,,,,,Amateur Open,34,1984-04-08
1,M,Anatoliy Pavlenko,Анатолий Павленко,79.6,150,-160,-160,150,,,,,,,150,82.5,B,Multi-ply,Yes,,,,,,Amateur Masters 65-69,67,1951-05-26
1,M,Edvard Khanagyan,Эдвард Ханагян,88.5,-200,200,217.5,217.5,,,,,,,217.5,90,B,Multi-ply,Yes,,,,,,Amateur Open,29,1989-05-22
1,M,Kirill Yakunin,Кирилл Якунин,98.8,-205,205,215,215,,,,,,,215,100,B,Multi-ply,Yes,,,,,,Amateur Open,37,1981-09-30
2,M,Vladimir Erin,Владимир Ерин,98.4,200,-212.5,-212.5,200,,,,,,,200,100,B,Multi-ply,Yes,,,,,,Amateur Open,33,1986-02-24
1,M,Aleksandr Simanov,Александр Симанов,97.7,170,177.5,182.5,182.5,,,,,,,182.5,100,B,Multi-ply,Yes,,,,,,Amateur Masters 50-54,50,1968-09-09
1,M,Dmitriy Kamoltsev,Дмитрий Камольцев,102.9,205,-215,-215,205,,,,,,,205,110,B,Multi-ply,Yes,,,,,,Amateur Open,33,1985-08-24
1,M,Nikolay Kolchan,Николай Колчан,117.7,210,227.7,,227.7,,,,,,,227.7,125,B,Multi-ply,Yes,,,,,,Amateur Open,35,1984-01-24
1,M,Oleg Sazhnev,Олег Сажнев,116.7,220,230,240,240,,,,,,,240,125,B,Multi-ply,Yes,,,,,,Amateur Masters 50-54,52,1967-01-11
1,M,Aleksey Ovchinnikov,Алексей Овчинников,164.1,-250,250,270,270,,,,,,,270,140+,B,Multi-ply,Yes,,,,,,Amateur Open,33,1985-07-11
1,F,Elizaveta Chekalova,Елизавета Чекалова,58,27.5,30,-32.5,30,,,,,,,30,60,B,Raw,No,,,,,,Pro Teen 13,11,2007-08-14
1,F,Tamara Emelyanova,Тамара Емельянова,64.7,70,80,-90,80,,,,,,,80,67.5,B,Raw,No,,,,,,Pro Masters 40-44,44,1974-07-13
1,M,Timofey Trubchenko,Тимофей Трубченко,48,32.5,35,-37.5,35,,,,,,,35,48,B,Raw,No,,,,,,Pro Teen 13,11,2008-03-30
1,M,Fedor Orlov,Федор Орлов,58,40,42.5,-45,42.5,,,,,,,42.5,60,B,Raw,No,,,,,,Pro Teen 13,11,2007-04-21
1,M,Andrey Belventsev,Андрей Бельвенцев,59,55,60,62.5,62.5,,,,,,,62.5,60,B,Raw,No,,,,,,Pro Teen 14-15,14,2004-04-15
1,M,Vadim Kashin,Вадим Кашин,65,60,65,70,70,,,,,,,70,67.5,B,Raw,No,,,,,,Pro Teen 14-15,14,2005-02-24
1,M,Stanislav Andreev,Станислав Андреев,82,155,160,-172.5,160,,,,,,,160,82.5,B,Raw,No,,,,,,Pro Open,27,1991-09-07
1,M,Evgeniy Ilyusha,Евгений Ильюша,89.7,-170,175,-180,175,,,,,,,175,90,B,Raw,No,,,,,,Pro Open,26,1993-03-10
1,M,Evgeniy Reshetnikov,Евгений Решетников,86.3,140,160,-165,160,,,,,,,160,90,B,Raw,No,,,,,,Pro Masters 40-44,41,1978-02-23
1,M,Vladimir Samoylov,Владимир Самойлов,100,200,205,210,210,,,,,,,210,100,B,Raw,No,,,,,,Pro Open,27,1991-05-09
2,M,Ivan Romanov,Иван Романов,94.5,190,197.5,205,205,,,,,,,205,100,B,Raw,No,,,,,,Pro Open,38,1980-05-30
3,M,Egor Zharov,Егор Жаров,95,170,180,185,185,,,,,,,185,100,B,Raw,No,,,,,,Pro Open,31,1987-06-07
4,M,Aleksandr Makarov,Александр Макаров,99.9,170,-180,-182.5,170,,,,,,,170,100,B,Raw,No,,,,,,Pro Open,39,1979-08-25
1,M,Vasiliy Synkov,Василий Сынков,106,200,215,225,225,,,,,,,225,110,B,Raw,No,,,,,,Pro Open,46,1972-09-07
2,M,Anatoliy Matyunin,Анатолий Матюнин,101,162.5,-170,-170,162.5,,,,,,,162.5,110,B,Raw,No,,,,,,Pro Open,32,1986-07-23
DQ,M,Mikhail Dyadyuk,Михаил Дядюк,108,-195,-200,,,,,,,,,,110,B,Raw,No,,,,,,Pro Open,27,1991-11-21
1,M,Pavel Bogatchuk,Павел Богатчук,113.5,175,190,200,200,,,,,,,200,125,B,Raw,No,,,,,,Pro Open,35,1983-05-09
2,M,Aleksandr Ushakov,Александр Ушаков,113,-170,170,-175,170,,,,,,,170,125,B,Raw,No,,,,,,Pro Open,30,1988-08-16
1,M,Dmitriy Korystin,Дмитрий Корыстин,127,190,200,205,205,,,,,,,205,140,B,Raw,No,,,,,,Pro Open,39,1979-06-27
2,M,Oleg Baranov,Олег Баранов,139.1,190,-195,-200,190,,,,,,,190,140,B,Raw,No,,,,,,Pro Open,24,1994-03-31
1,M,Aleksandr Samoylik,Александр Самойлик,142,170,-175,175,175,,,,,,,175,140+,B,Raw,No,,,,,,Pro Masters 40-44,43,1975-06-20
1,F,Elena Diss,Елена Дисс,51.9,55,-60,62.5,62.5,,,,,,,62.5,52,B,Raw,Yes,,,,,,Amateur Open,47,1972-01-10
1,F,Sofiya Ivanova,София Иванова,59.9,65,-70,70,70,,,,,,,70,60,B,Raw,Yes,,,,,,Amateur Teen 14-15,15,2003-10-21
1,F,Mariya Sulyanova,Мария Сульянова,59.2,40,45,-50,45,,,,,,,45,60,B,Raw,Yes,,,,,,Amateur Open,31,1988-01-14
2,F,Oksana Sokolova,Оксана Соколова,59.8,37.5,42.5,-47.5,42.5,,,,,,,42.5,60,B,Raw,Yes,,,,,,Amateur Open,33,1985-06-21
1,F,Irina Barabanova,Ирина Барабанова,63.75,60,65,-72.5,65,,,,,,,65,67.5,B,Raw,Yes,,,,,,Amateur Open,25,1993-05-17
1,F,Olga Luzanova,Ольга Лузанова,63,30,40,-47.5,40,,,,,,,40,67.5,B,Raw,Yes,,,,,,Amateur Masters 45-49,45,1973-07-23
1,F,Mariya Rybina,Мария Рыбина,51.9,47.5,52.5,-57.5,52.5,,,,,,,52.5,52,B,Raw,Yes,,,,,,Amateur Open,24,1994-10-11
1,M,Oleg Demidenko,Олег Демиденко,60,85,90,-97.5,90,,,,,,,90,60,B,Raw,Yes,,,,,,Amateur Open,36,1982-07-11
1,M,Andrey Ustinov,Андрей Устинов,64,90,100,-110,100,,,,,,,100,67.5,B,Raw,Yes,,,,,,Amateur Juniors 20-23,21,1997-12-03
DQ,M,Kirill Kovalev,Кирилл Ковалев,73,-132.5,-137.5,-137.5,,,,,,,,,75,B,Raw,Yes,,,,,,Amateur Teen 18-19,19,1999-05-18
1,M,Aleksandr Nushtaev,Александр Нуштаев,73.3,125,137.5,-145,137.5,,,,,,,137.5,75,B,Raw,Yes,,,,,,Amateur Open,35,1983-07-07
2,M,Oleg Vasilev,Олег Васильєв,75,130,135,-137.5,135,,,,,,,135,75,B,Raw,Yes,,,,,,Amateur Open,36,1982-11-11
3,M,Mikhail Deriga,Михаил Дерига,73.6,127.5,132.5,-137.5,132.5,,,,,,,132.5,75,B,Raw,Yes,,,,,,Amateur Open,29,1989-08-10
4,M,Aleksey Korolev,Алексей Королев,74.6,127.5,132.5,-137.5,132.5,,,,,,,132.5,75,B,Raw,Yes,,,,,,Amateur Open,34,1985-01-20
5,M,Matvey Fokin,Матвей Фокин,74.3,105,112.5,-115,112.5,,,,,,,112.5,75,B,Raw,Yes,,,,,,Amateur Open,30,1988-06-15
1,M,Igor Svorovskiy,Игорь Своровский,74.6,125,130,132.5,132.5,,,,,,,132.5,75,B,Raw,Yes,,,,,,Amateur Masters 40-44,42,1977-03-21
1,M,Timur Shamsutdinov,Тимур Шамсутдинов,82.2,140,150,,150,,,,,,,150,82.5,B,Raw,Yes,,,,,,Amateur Open,35,1983-05-20
2,M,Yuriy Furman,Юрий Фурман,80.8,127.5,137.5,147.5,147.5,,,,,,,147.5,82.5,B,Raw,Yes,,,,,,Amateur Open,25,1993-08-20
3,M,Konstantin Mazanko,Константин Мазанко,82.3,140,145,147.5,147.5,,,,,,,147.5,82.5,B,Raw,Yes,,,,,,Amateur Open,30,1989-03-11
4,M,Vadim Babushkin,Вадим Бабушкин,82.4,137.5,142.5,-147.5,142.5,,,,,,,142.5,82.5,B,Raw,Yes,,,,,,Amateur Open,30,1988-05-01
5,M,Vasiliy Samarkin,Василий Самаркин,81.8,117.5,127.5,-132.5,127.5,,,,,,,127.5,82.5,B,Raw,Yes,,,,,,Amateur Open,30,1988-06-19
6,M,Mikhail Kargin,Михаил Каргин,80,-100,105,-115,105,,,,,,,105,82.5,B,Raw,Yes,,,,,,Amateur Open,29,1989-05-13
1,M,Danila Slaykovskiy,Данила Слайковский,82.8,100,105,-107.5,105,,,,,,,105,90,B,Raw,Yes,,,,,,Amateur Teen 16-17,16,2002-12-14
1,M,Danil Tsykh,Данил Цых,88,115,120,-125,120,,,,,,,120,90,B,Raw,Yes,,,,,,Amateur Teen 18-19,19,1999-04-04
1,M,Igor Perevozchikov,Игорь Перевозчиков,88.8,150,155,-157.5,155,,,,,,,155,90,B,Raw,Yes,,,,,,Amateur Juniors 20-23,23,1995-08-21
2,M,Svyatoslav Osipenko,Святослав Осипенко,88.5,130,-135,-135,130,,,,,,,130,90,B,Raw,Yes,,,,,,Amateur Juniors 20-23,20,1998-05-05
1,M,Denis Romanovich,Денис Романович,90,190,-200,-200,190,,,,,,,190,90,B,Raw,Yes,,,,,,Amateur Open,30,1988-06-15
2,M,Aleksey Limarev,Алексей Лимарев,89,170,-177.5,-177.5,170,,,,,,,170,90,B,Raw,Yes,,,,,,Amateur Open,32,1986-09-05
3,M,Pavel Shabin,Павел Шабин,86,135,-155,155,155,,,,,,,155,90,B,Raw,Yes,,,,,,Amateur Open,34,1984-05-04
4,M,Edvard Khanagyan,Эдвард Ханагян,88.5,150,-160,-160,150,,,,,,,150,90,B,Raw,Yes,,,,,,Amateur Open,29,1989-05-22
5,M,Sergey Drobin,Сергей Дробин,85,130,-135,-135,130,,,,,,,130,90,B,Raw,Yes,,,,,,Amateur Open,28,1990-12-11
DQ,M,Nikita Tumanov,Никита Туманов,88.9,-145,-155,,,,,,,,,,90,B,Raw,Yes,,,,,,Amateur Open,34,1984-07-10
1,M,Evgeniy Shishkin,Евгений Шишкин,89.2,140,150,-160,150,,,,,,,150,90,B,Raw,Yes,,,,,,Amateur Masters 40-44,42,1976-04-17
2,M,Vadim Dudin,Вадим Дудин,88.6,130,140,-147.5,140,,,,,,,140,90,B,Raw,Yes,,,,,,Amateur Masters 40-44,42,1976-11-13
1,M,Aleksandr Shchavin,Александр Щавин,88.85,137.5,142.5,-147.5,142.5,,,,,,,142.5,90,B,Raw,Yes,,,,,,Amateur Masters 45-49,47,1971-09-16
1,M,Vladimir Kurininov,Владимир Курининов,87.8,115,-125,-125,115,,,,,,,115,90,B,Raw,Yes,,,,,,Amateur Masters 50-54,53,1965-12-25
1,M,Gennadiy Belyanko,Геннадий Белянко,89.2,-85,85,-95,85,,,,,,,85,90,B,Raw,Yes,,,,,,Amateur Masters 65-69,67,1951-05-24
1,M,Nikolay Sokolov,Николай Соколов,99.6,-180,185,190,190,,,,,,,190,100,B,Raw,Yes,,,,,,Amateur Open,28,1990-05-01
2,M,Yuriy Popa,Юрий Попа,95,155,162.5,170,170,,,,,,,170,100,B,Raw,Yes,,,,,,Amateur Open,26,1993-01-10
3,M,Vadim Lopasov,Вадим Лопасов,95.4,142.5,152.5,162.5,162.5,,,,,,,162.5,100,B,Raw,Yes,,,,,,Amateur Open,31,1987-09-06
4,M,Aleksandr Baklanov,Александр Бакланов,98.2,150,160,162.5,162.5,,,,,,,162.5,100,B,Raw,Yes,,,,,,Amateur Open,36,1983-01-25
5,M,Vladimir Stepanchenko,Владимир Степаньченко,97.95,157.5,-162.5,-162.5,157.5,,,,,,,157.5,100,B,Raw,Yes,,,,,,Amateur Open,28,1990-06-27
6,M,Kirill Yakunin,Кирилл Якунин,97,135,142.5,155,155,,,,,,,155,100,B,Raw,Yes,,,,,,Amateur Open,37,1981-09-30
DQ,M,Stanislav Blinov,Станислав Блинов,99.9,-150,-150,-162.5,,,,,,,,,100,B,Raw,Yes,,,,,,Amateur Open,36,1982-06-09
1,M,Maksim Vorobev,Максим Воробьев,98.5,130,135,-142.5,135,,,,,,,135,100,B,Raw,Yes,,,,,,Amateur Masters 40-44,43,1975-04-18
1,M,Vyacheslav Nikolaev,Вячеслав Николаев,91.4,125,132.5,-137.5,132.5,,,,,,,132.5,100,B,Raw,Yes,,,,,,Amateur Masters 60-64,62,1956-07-10
1,M,Vladimir Nikonov,Владимир Никонов,103,-180,180,-185,180,,,,,,,180,110,B,Raw,Yes,,,,,,Amateur Open,30,1988-10-03
2,M,Yuriy Grigorev,Юрий Григорьев,107,155,167.5,170,170,,,,,,,170,110,B,Raw,Yes,,,,,,Amateur Open,35,1983-03-31
3,M,Dmitriy Kamoltsev,Дмитрий Камольцев,102.9,152.5,-157.5,-157.5,152.5,,,,,,,152.5,110,B,Raw,Yes,,,,,,Amateur Open,33,1985-08-24
1,M,Oleg Shagvalev,Олег Шагвалев,121,145,150,-155,150,,,,,,,150,125,B,Raw,Yes,,,,,,Amateur Masters 40-44,41,1977-08-15
1,M,Kirill Titov,Кирилл Титов,107.7,-135,135,140,140,,,,,,,140,110,B,Raw,Yes,,,,,,Amateur Juniors 20-23,22,1996-11-10
1,M,Daniil Zhurzhiy,Даниил Журжий,98.7,117.5,125,132.5,132.5,,190,210,220,220,,547.5,100,SBD,Multi-ply,No,185,195,-202.5,195,,Pro Teen 18-19,19,1999-12-28
1,M,Andrey Leontev,Андрей Леонтьев,96.95,195,-205,205,205,,240,255,-262.5,255,,700,100,SBD,Multi-ply,No,220,230,240,240,,Pro Open,33,1985-09-23
1,M,Dmitriy Silantev,Дмитрий Силантьев,109.2,220,240,250,250,,250,270,280,280,,770,110,SBD,Multi-ply,No,-240,-240,240,240,,Pro Masters 40-44,40,1978-11-22
1,M,Vladimir Voronov,Владимир Воронов,106.7,190,205,210,210,,-225,230,250,250,,720,110,SBD,Multi-ply,No,235,250,260,260,,Pro Masters 45-49,46,1972-05-14
1,M,Evgeniy Golubev,Евгений Голубев,134.8,-160,165,175,175,,-225,225,-235,225,,620,140,SBD,Multi-ply,No,220,-230,-230,220,,Pro Masters 50-54,50,1969-03-29
DQ,F,Sofiya Ovchenkova,София Овченкова,74.6,-80,-80,-80,,,-115,,,,,,75,SBD,Multi-ply,Yes,120,125,130,130,,Amateur Open,25,1993-05-01
1,M,Gleb Baranskiy,Глеб Баранский,80.9,202.5,-207.5,-207.5,202.5,,215,-225,-225,215,,612.5,82.5,SBD,Multi-ply,Yes,185,-195,195,195,,Amateur Open,34,1984-09-06
1,M,Artem Bachin,Артем Бачин,108.85,225,245,,245,,230,-240,,230,,735,110,SBD,Multi-ply,Yes,240,250,260,260,,Amateur Open,35,1983-10-19
1,M,Pavel Goncharov,Павел Гончаров,81.9,160,165,170,170,,230,240,250,250,,635,82.5,SBD,Wraps,No,-200,200,215,215,,Pro Juniors 20-23,23,1995-07-18
1,M,Mikhail Arzhannikov,Михаил Аржанников,82.3,120,135,-140,135,,225,235,247.5,247.5,,562.5,82.5,SBD,Wraps,No,170,180,-190,180,,Pro Open,25,1993-04-15
1,M,Andrey Glebov,Андрей Глебов,86.9,90,-95,95,95,,200,210,-215,210,,460,90,SBD,Wraps,No,140,155,-160,155,,Pro Teen 16-17,16,2002-08-13
1,M,Viktor Mikhaylov,Виктор Михайлов,89.3,160,165,172.5,172.5,,307.5,-320,-320,307.5,,737.5,90,SBD,Wraps,No,247.5,252.5,257.5,257.5,,Pro Open,22,1997-01-31
2,M,Maksim Ivanov,Максим Иванов,87.8,150,160,-167.5,160,,-260,260,272.5,272.5,,675,90,SBD,Wraps,No,225,235,242.5,242.5,,Pro Open,29,1989-06-16
3,M,Petr Kokhas,Петр Кохась,89.9,160,170,180,180,,210,235,255,255,,660,90,SBD,Wraps,No,205,225,-240,225,,Pro Open,28,1990-09-21
4,M,Evgeniy Kurilov,Евгений Курилов,88.7,137.5,152.5,157.5,157.5,,210,-225,225,225,,560,90,SBD,Wraps,No,165,-172.5,177.5,177.5,,Pro Open,37,1981-05-07
5,M,Kirill Dolgov,Кирилл Долгов,89.2,115,125,-130,125,,160,170,177.5,177.5,,437.5,90,SBD,Wraps,No,-130,-135,135,135,,Pro Open,31,1987-07-08
1,M,Maksim Vodopyanov,Максим Водопьянов,100,190,-200,200,200,,240,-252.5,252.5,252.5,,667.5,100,SBD,Wraps,No,215,-225,-225,215,,Pro Open,24,1994-05-17
2,M,Nikita Shadrintsev,Никита Шадринцев,99.8,140,150,-160,150,,240,260,270,270,,655,100,SBD,Wraps,No,225,235,-245,235,,Pro Open,24,1994-04-01
3,M,Aleksandr Bagaev,Александр Багаев,98.5,190,202.5,-205,202.5,,215,230,-240,230,,647.5,100,SBD,Wraps,No,195,205,215,215,,Pro Open,32,1986-04-04
4,M,Oleg Kartashev,Олег Карташев,99.5,-95,100,115,115,,170,180,-190,180,,440,100,SBD,Wraps,No,-145,145,-155,145,,Pro Open,24,1994-04-15
1,M,Aleksandr Otrubennikov,Александр Отрубенников,106.3,160,170,175,175,,270,280,-290,280,,705,110,SBD,Wraps,No,-240,240,250,250,,Pro Open,22,1997-03-09
2,M,Andrey Bocharnikov,Андрей Бочарников,106.5,150,160,-165,160,,-280,290,300,300,,662.5,110,SBD,Wraps,No,180,190,202.5,202.5,,Pro Open,35,1984-01-04
1,M,German Chakhlov,Герман Чахлов,117,110,120,125,125,,180,190,200,200,,510,125,SBD,Wraps,No,170,185,-200,185,,Pro Teen 18-19,18,2001-03-10
1,F,Ekaterina Varkentin,Екатерина Варкентин,49.9,35,-40,-40,35,,60,65,70,70,,165,52,SBD,Wraps,Yes,55,60,-70,60,,Amateur Teen 16-17,16,2002-12-21
1,F,Darya Tomilova,Дарья Томилова,60,-50,50,-55,50,,130,-142.5,-142.5,130,,295,60,SBD,Wraps,Yes,105,115,-120,115,,Amateur Teen 18-19,19,1999-10-07
1,F,Liliya Zhaleeva,Лилия Жалеева,60,40,45,-47.5,45,,70,80,85,85,,210,60,SBD,Wraps,Yes,70,80,-85,80,,Amateur Juniors 20-23,23,1996-02-01
1,F,Darya Tomilova,Дарья Томилова,60,-50,50,-55,50,,130,-142.5,-142.5,130,,295,60,SBD,Wraps,Yes,105,115,-120,115,,Amateur Open,19,1999-10-07
2,F,Anastasiya Fedorova,Анастасия Федорова,59,50,55,-57.5,55,,110,122.5,,122.5,,277.5,60,SBD,Wraps,Yes,90,100,,100,,Amateur Open,34,1985-01-10
3,F,Elizaveta Zavgorodskaya,Елизавета Завгородская,59,-50,55,,55,,-110,115,120,120,,270,60,SBD,Wraps,Yes,90,95,-97,95,,Amateur Open,24,1994-05-14
4,F,Lyubov Leonova,Любовь Леонова,59.3,45,50,-55,50,,70,80,-85,80,,210,60,SBD,Wraps,Yes,67.5,75,80,80,,Amateur Open,28,1990-07-28
1,F,Tatyana Pishchalko,Татьяна Пищалко,59.8,45,-47.5,-47.5,45,,100,110,115,115,,250,60,SBD,Wraps,Yes,80,90,-95,90,,Amateur Masters 40-44,44,1974-04-23
1,F,Valentina Manakova,Валентина Манакова,67.5,55,60,62.5,62.5,,120,135,140,140,,325,67.5,SBD,Wraps,Yes,107.5,117.5,122.5,122.5,,Amateur Open,31,1987-11-01
2,F,Viktoriya Povnaya,Виктория Повная,63.4,52.5,57.5,,57.5,,115,125,130,130,,305,67.5,SBD,Wraps,Yes,110,117.5,-120,117.5,,Amateur Open,28,1990-08-21
1,M,Lev Tolstushenko,Лев Толстушенко,48.8,30,35,40,40,,-70,75,-90,75,,185,52,SBD,Wraps,Yes,50,60,70,70,,Amateur Teen 13,13,2005-09-10
1,F,Elena Ponomareva,Елена Пономарева,42,30,32.5,35,35,,72.5,75,80,80,,177.5,44,SBD,Wraps,Yes,62.5,-65,-67,62.5,,Amateur Juniors 20-23,20,1998-12-04
1,M,Andrey Tusalimov,Андрей Тусалимов,56,110,115,120,120,,160,170,182.5,182.5,,445,56,SBD,Wraps,Yes,130,135,142.5,142.5,,Amateur Open,26,1992-05-10
1,M,Sergey Shipilov,Сергей Шипилов,65,65,70,-75,70,,125,137.5,142.5,142.5,,335,67.5,SBD,Wraps,Yes,107.5,115,122.5,122.5,,Amateur Teen 16-17,17,2002-01-18
1,M,Vladimir Sviderskiy,Владимир Свидерский,67,85,90,-92.5,90,,-125,130,135,135,,350,67.5,SBD,Wraps,Yes,115,120,125,125,,Amateur Masters 65-69,67,1951-05-07
1,M,Vladimir Tikhonov,Владимир Тихонов,75,122.5,-127.5,127.5,127.5,,215,230,240,240,,547.5,75,SBD,Wraps,Yes,170,180,-185,180,,Amateur Open,27,1991-12-12
2,M,Mikhail Karpov,Михаил Карпов,72.1,125,130,135,135,,170,-175,-175,170,,435,75,SBD,Wraps,Yes,130,-135,-135,130,,Amateur Open,26,1992-04-06
3,M,Pavel Salamanov,Павел Саламанов,70.9,95,100,-105,100,,140,150,-160,150,,380,75,SBD,Wraps,Yes,115,125,130,130,,Amateur Open,24,1995-01-06
1,M,Ramil Samigullin,Рамиль Самигуллин,74.6,105,107.5,110,110,,150,162.5,172.5,172.5,,455,75,SBD,Wraps,Yes,155,172.5,-182.5,172.5,,Amateur Masters 55-59,58,1961-02-24
1,M,Sergey Polosin,Сергей Полосин,82.2,110,117.5,120,120,,240,250,-260,250,,580,82.5,SBD,Wraps,Yes,190,200,210,210,,Amateur Open,35,1983-09-27
1,M,Evgeniy Samoylov,Евгений Самойлов,85,120,-125,-125,120,,190,210,-240,210,,475,90,SBD,Wraps,Yes,130,135,145,145,,Amateur Open,29,1989-07-13
2,M,Petr Batin,Петр Батин,89.5,115,117.5,-120,117.5,,150,165,-180,165,,412.5,90,SBD,Wraps,Yes,-120,130,-140,130,,Amateur Open,31,1987-07-27
1,M,Vladimir Kurininov,Владимир Курининов,87.8,115,-125,-125,115,,170,187.5,-192.5,187.5,,462.5,90,SBD,Wraps,Yes,150,160,-165,160,,Amateur Masters 50-54,53,1965-12-25
1,M,Valeriy Nugumanov,Валерий Нугуманов,88.4,80,85,90,90,,140,150,160,160,,390,90,SBD,Wraps,Yes,-135,135,140,140,,Amateur Masters 75-79,79,1939-06-25
1,M,Mikhail Ivanov,Михаил Иванов,107.5,160,167.5,-172.5,167.5,,240,255,270,270,,677.5,110,SBD,Wraps,Yes,220,230,240,240,,Amateur Juniors 20-23,22,1997-01-16
1,M,Yuriy Portnov,Юрий Портнов,109.6,135,-140,,135,,220,230,,230,,570,110,SBD,Wraps,Yes,195,205,-210,205,,Amateur Open,35,1983-12-22
2,M,Evgeniy Polovnikov,Евгений Половников,104.9,130,140,-150,140,,160,180,-200,180,,480,110,SBD,Wraps,Yes,-140,145,160,160,,Amateur Open,24,1994-06-16
