Sex,WeightClassKg,Name,AgeRange,Team,BodyweightKg,Best3SquatKg,Best3BenchKg,Best3DeadliftKg,TotalKg,Place,Division,Event,Equipment
F,56,Jenny Hunter,49.5-58.5,EM,55.5,60,60,100,220,1,F-E-M2,SBD,Single-ply
F,75,Jackie Blasbery,39.5-48.5,EM,71.3,25,50,75,150,1,F-E-M1,SBD,Single-ply
M,56,Dave Brown #2,49.5-58.5,EM,55.2,87.5,75,125,287.5,1,M-E-M2,SBD,Single-ply
M,75,Allen Ottolangui,39.5-48.5,EM,74.85,250,147.5,230,627.5,1,M-E-M1,SBD,Single-ply
M,90,Doug D'Gama,39.5-48.5,EM,88.35,,,,,DQ,M-E-M1,SBD,Single-ply
M,90,Kevin Jane,49.5-58.5,EM,89.9,260,155,280,695,1,M-E-M2,SBD,Single-ply
M,90,Nicholas Oliver,49.5-58.5,EM,87.8,192.5,117.5,220,530,3,M-E-M2,SBD,Single-ply
M,110,Malcolm Bason,49.5-58.5,EM,106.75,202.5,137.5,225,565,1,M-E-M2,SBD,Single-ply
M,110,Ian Finch,49.5-58.5,EM,109.1,182.5,117.5,215,515,2,M-E-M2,SBD,Single-ply
M,125,Andrew Rodney,39.5-48.5,EM,111.15,150,100,250,500,1,M-E-M1,SBD,Single-ply
M,125,Terry O'Neill,49.5-58.5,EM,125,302.5,155,282.5,740,1,M-E-M2,SBD,Single-ply
M,90,Steve Gates,39.5-48.5,EM,83.75,260,145,260,665,G,M-E-G,SBD,Single-ply
