Place,Name,Division,Country,BodyweightKg,Squat1Kg,Squat2Kg,Squat3Kg,Best3SquatKg,Squat4Kg,Bench1Kg,Bench2Kg,Bench3Kg,Best3BenchKg,Bench4Kg,Deadlift1Kg,Deadlift2Kg,Deadlift3Kg,Best3DeadliftKg,TotalKg,WeightClassKg,Sex,CyrillicName,BirthYear,Equipment,Event
1,Mariša Golob,Juniors 20-23,Slovakia,55.3,110,120,125,125,,80,85,-87.5,85,,130,135,140,140,350,56,F,,1990,Wraps,SBD
1,Lyudmila Gaiduchenko,Open,Ukraine,90,170,180,190,190,,155,163,165,165,,200,220,225,225,580,90,F,Людмила Гайдученко,1966,Wraps,SBD
1,Ernest Ruzin,Masters 75-79,Israel,61.8,120,132.5,-142.5,132.5,,75,80,-82.5,80,,150,165,-172.5,165,377.5,67.5,M,,1937,Wraps,SBD
1,Viktor Petrenko,Juniors 20-23,Ukraine,74.4,-175,175,190,190,,115,120,127.5,127.5,,175,190,195,195,512.5,75,M,Віктор Петренко,1992,Wraps,SBD
1,Andriy Ivzhenko,Open,Ukraine,73.9,230,-250,-260,230,,140,-147.5,147.5,147.5,,250,260,,260,637.5,75,M,Андрій Івженко,1977,Wraps,SBD
2,Viktor Petrenko,Open,Ukraine,74.4,-175,175,190,190,,115,120,127.5,127.5,,175,190,195,195,512.5,75,M,Віктор Петренко,1992,Wraps,SBD
1,Erni Gregorčič,Submasters 35-39,Slovakia,73.6,180,200,-210,200,,130,140,147.5,147.5,,200,215,-220,215,562.5,75,M,,1976,Wraps,SBD
1,Yang-Lin Yun,Juniors 20-23,Taiwan,82.5,-180,180,-190,180,,-140,-140,140,140,,180,200,-210,200,520,82.5,M,,1990,Wraps,SBD
1,Andrej Mostovenko,Open,Germany,80.3,280,295,305,305,,160,170,175,175,,280,-300,-300,280,760,82.5,M,,1990,Wraps,SBD
1,Oleksiy Gerasymenko,Juniors 20-23,Ukraine,88,250,260,-270,260,,120,-130,130,130,,270,285,-292.5,285,675,90,M,Олексій Герасименко,1994,Wraps,SBD
2,Amiran Jajanidze,Juniors 20-23,Georgia,89.1,180,200,220,220,,130,145,155,155,,200,220,235,235,610,90,M,,1993,Wraps,SBD
1,Kyrylo Ostapishin,Open,Ukraine,87.2,250,265,280,280,,150,-160,-160,150,,230,242.5,-255,242.5,672.5,90,M,Кирило Остапішин,1985,Wraps,SBD
2,Vyacheslav Zdorovenko,Open,Ukraine,86.1,235,245,247.5,247.5,,147.5,152.5,-155,152.5,,245,250,255,255,655,90,M,Вячеслав Здоровенко,1983,Wraps,SBD
1,Yevgen Nastenko,Juniors 20-23,Ukraine,98.9,250,260,270,270,,170,180,182.5,182.5,,255,267.5,275,275,727.5,100,M,Євген Настенко,1991,Wraps,SBD
1,Oleksandr Chernish,Open,Ukraine,99.7,260,280,295,295,,175,185,190,190,,270,280,-290,280,765,100,M,Олександр Черниш,1988,Wraps,SBD
2,Yevgen Nastenko,Open,Ukraine,98.9,250,260,270,270,,170,180,182.5,182.5,,255,267.5,275,275,727.5,100,M,Євген Настенко,1991,Wraps,SBD
1,Vitaliy Kulikov,Masters 40-44,Ukraine,98,180,200,210,210,,140,150,155,155,,180,200,,200,565,100,M,Виталий Куликов,1971,Wraps,SBD
1,Sergiy Pysarenko,Teen 18-19,Ukraine,107.8,200,-210,,200,,140,150,160,160,,200,-220,,200,560,110,M,Сергій Писаренко,1996,Wraps,SBD
1,Tornike Mindikauri,Juniors 20-23,Georgia,101.1,110,120,130,130,,140,-150,150,150,,150,160,,160,440,110,M,,1992,Wraps,SBD
1,Yaroslav Trubichkin,Open,Ukraine,107,330,345,355,355,-365,180,192.5,-197.5,192.5,,270,290,300,300,847.5,110,M,Ярослав Трубічкін,1987,Wraps,SBD
2,Vitaliy Alekseev,Open,Ukraine,105.5,-280,280,300,300,,180,195,-200,195,,320,-335,-335,320,815,110,M,Віталій Алексеєв,1988,Wraps,SBD
3,King Skyler,Open,USA,102.6,200,-225,-250,200,,150,160,-175,160,,230,-255,255,255,615,110,M,,1989,Wraps,SBD
1,Didier Michelon,Open,France,117.2,200,225,245,245,,192.5,202.5,210,210,,180,200,-210,200,655,125,M,,1963,Wraps,SBD
1,Didier Michelon,Masters 50-54,France,117.2,200,225,245,245,,192.5,202.5,210,210,,180,200,-210,200,655,125,M,,1963,Wraps,SBD
1,Giorgi Davitashvili,Submasters 35-39,Georgia,128.3,220,245,260,260,281,180,-191,,180,,60,,,60,500,140,M,,1978,Wraps,SBD
1,Mariša Golob,Juniors 20-23,Slovakia,55.3,,,,,,80,85,-87.5,85,,,,,,85,56,F,,1990,Raw,B
1,Gorelchaniki Valita,Open,Georgia,55.6,,,,,,70,-75,75,75,,,,,,75,56,F,,1986,Raw,B
1,Maryna Soltanova,Open,Ukraine,68.8,,,,,,82.5,87.5,-90,87.5,,,,,,87.5,75,F,Марина Солтанова,1985,Raw,B
1,Kaxaber Tetradze,Open,Georgia,65.4,,,,,,120,130,-140,130,,,,,,130,67.5,M,,1989,Raw,B
1,Akmal Yergashev,Open,Ukraine,74.6,,,,,,175,180,185,185,-191,,,,,185,75,M,Акмал Єргашев,1989,Raw,B
2,Igor Povazhnyuk,Open,Ukraine,75,,,,,,145,152.5,-157.2,152.5,,,,,,152.5,75,M,Игорь Поважнюк,1974,Raw,B
1,Erni Gregorčič,Submasters 35-39,Slovakia,73.6,,,,,,130,140,147.5,147.5,,,,,,147.5,75,M,,1976,Raw,B
1,Oleksandr Korshak,Open,Ukraine,76.2,,,,,,130,-137.5,-137.5,130,,,,,,130,82.5,M,Олександр Коршак,1983,Raw,B
1,Amiran Jajanidze,Juniors 20-23,Georgia,89.1,,,,,,130,145,155,155,,,,,,155,90,M,,1993,Raw,B
1,Dmytro Volkov,Open,Ukraine,89.3,,,,,,140,150,-155,150,,,,,,150,90,M,Дмитро Волков,1984,Raw,B
2,Oleg Borzenko,Juniors 20-23,Ukraine,88.6,,,,,,150,-155,-157.5,150,,,,,,150,90,M,Олег Борзенко,1993,Raw,B
1,Sergiy Pilyaev,Masters 40-44,Ukraine,89.9,,,,,,185,190,-195,190,,,,,,190,90,M,Сергій Піляєв,1969,Raw,B
2,Andriy Mamontov,Masters 40-44,Ukraine,84.1,,,,,,-150,160,165,165,,,,,,165,90,M,Андрій Мамонтов,1973,Raw,B
1,Vyacheslav Gorbunov,Masters 45-49,Ukraine,84.6,,,,,,130,,,130,,,,,,130,90,M,Вячеслав Горбунов,1967,Raw,B
1,Illya Kiktev,Juniors 20-23,Ukraine,98.2,,,,,,-210,210,220,220,,,,,,220,100,M,Ілля Кіктєв,1993,Raw,B
2,Artem Tkachenko,Juniors 20-23,Ukraine,99.9,,,,,,200,-212.5,212.5,212.5,,,,,,212.5,100,M,Артем Ткаченко,1991,Raw,B
3,Davit Chitinashvili,Juniors 20-23,Georgia,93.7,,,,,,150,160,,160,,,,,,160,100,M,,1991,Raw,B
1,Aleksandr Scherbakov,Masters 45-49,Moldova,91.6,,,,,,215,225,-235,225,,,,,,225,100,M,,1966,Raw,B
1,Igor Mamchenko,Masters 50-54,Ukraine,93.3,,,,,,145,155,-160,155,,,,,,155,100,M,Ігор Мамченко,1963,Raw,B
1,Oleksandr Tarasov,Juniors 20-23,Ukraine,102.6,,,,,,180,190,195,195,,,,,,195,110,M,Олександр Тарасов,1991,Raw,B
2,Sergiy Tyulenev,Juniors 20-23,Ukraine,106.5,,,,,,180,-195,195,195,,,,,,195,110,M,Сергій Тюленєв,1991,Raw,B
1,Sergiy Dragan,Open,Ukraine,108.7,,,,,,215,222.5,227.5,227.5,,,,,,227.5,110,M,Сергій Драган,1981,Raw,B
1,Andrey Petruk,Juniors 20-23,Moldova,117.7,,,,,,185,200,205,205,,,,,,205,125,M,,1993,Raw,B
2,Didier Michelon,Open,France,117.2,,,,,,192.5,202.5,210,210,,,,,,210,125,M,,1963,Raw,B
DQ,Oleksandr Shopik,Open,Ukraine,124.3,,,,,,-222.5,-225.5,-232.5,,,,,,,,125,M,Олександр Шопік,1982,Raw,B
1,Didier Michelon,Masters 50-54,France,117.2,,,,,,192.5,202.5,210,210,,,,,,210,125,M,,1963,Raw,B
1,Artem Ushenko,Juniors 20-23,Ukraine,131.1,,,,,,160,172.5,-180,172.5,,,,,,172.5,140,M,Артем Ушенко,1992,Raw,B
1,Igor Pober,Open,Ukraine,125.2,,,,,,210,220,225,225,,,,,,225,140,M,Ігор Побер,1968,Raw,B
1,Igor Pober,Masters 45-49,Ukraine,125.2,,,,,,210,220,225,225,,,,,,225,140,M,Ігор Побер,1968,Raw,B
1,Zurab Chavchanidze,Masters 60-64,Georgia,129.8,,,,,,160,165,-170,165,,,,,,165,140,M,,1953,Raw,B
1,Giorgi Davitashvili,Submasters 35-39,Georgia,128.3,,,,,,180,-191,,180,,,,,,180,140,M,,1978,Raw,B
1,Aleqsandre Joxadze,Juniors 20-23,Georgia,150.4,,,,,,140,160,170,170,180,,,,,170,140+,M,,1991,Raw,B
1,Mykola Davydenko,Teen 13-15,Ukraine,65.6,,,,,,,,,,,120,150,175,175,175,67.5,M,Микола Давиденко,1998,Raw,D
1,Ihor Hamarnik,Open,Ukraine,74.5,,,,,,,,,,,190,210,215,215,215,75,M,Ігор Гамарник,1988,Raw,D
1,Amiran Jajanidze,Juniors 20-23,Georgia,89.1,,,,,,,,,,,200,220,235,235,235,90,M,,1993,Raw,D
2,Vladislav Scherbak,Juniors 20-23,Ukraine,86,,,,,,,,,,,225,-237.5,-237.5,225,225,90,M,Владислав Щербак,1993,Raw,D
1,Dmitro Deryabkin,Juniors 20-23,Ukraine,97.2,,,,,,,,,,,280,302.5,307.5,307.5,307.5,100,M,Дмитро Дерябкін,1991,Raw,D
1,Evgeniy Yakovlev,Open,Ukraine,99.3,,,,,,,,,,,320,-330,-335,320,320,100,M,Євгеній Яковлев,1975,Raw,D
2,Zurab Tavartkiladze,Open,Georgia,97.6,,,,,,,,,,,280,300,-305,300,300,100,M,,1987,Raw,D
3,Oleksandr Chernish,Open,Ukraine,99.7,,,,,,,,,,,270,280,-290,280,280,100,M,Олександр Черниш,1988,Raw,D
1,Oleksandr Tarasov,Juniors 20-23,Ukraine,102.6,,,,,,,,,,,260,275,285,285,285,110,M,Олександр Тарасов,1991,Raw,D
2,Mateusz Volk,Juniors 20-23,Germany,108.4,,,,,,,,,,,232.5,-240,-240,232.5,232.5,110,M,,1992,Raw,D
3,Tornike Mindikauri,Juniors 20-23,Georgia,101.1,,,,,,,,,,,150,160,,160,160,110,M,,1992,Raw,D
1,Vitaliy Alekseev,Open,Ukraine,105.5,,,,,,,,,,,320,-335,-335,320,320,110,M,Віталій Алексеєв,1988,Raw,D
2,Emzar Kiliptari,Open,Georgia,107.1,,,,,,,,,,,180,200,-215,200,200,110,M,,1982,Raw,D
1,Zurab Chavchanidze,Masters 60-64,Georgia,129.8,,,,,,,,,,,75,,,75,75,140,M,,1953,Raw,D
1,Giorgi Davitashvili,Submasters 35-39,Georgia,128.3,,,,,,,,,,,60,,,60,60,140,M,,1978,Raw,D
1,Aleqsandre Joxadze,Juniors 20-23,Georgia,150.4,,,,,,,,,,,240,255,260,260,260,140+,M,,1991,Raw,D
