Place,Sex,Name,CyrillicName,BodyweightKg,Squat1Kg,Squat2Kg,Squat3Kg,Best3SquatKg,Squat4Kg,Bench1Kg,Bench2Kg,Bench3Kg,Best3BenchKg,Bench4Kg,Deadlift1Kg,Deadlift2Kg,Deadlift3Kg,Best3DeadliftKg,Deadlift4Kg,TotalKg,WeightClassKg,Event,Equipment,Tested,Division,Age,BirthDate
1,F,Kseniya Angeltseva,Ксения Ангельцева,50.3,-45,-45,45,45,,-25,25,-30,25,,50,55,60,60,,130,52,SBD,Raw,Yes,Open,32,1985-10-28
1,F,Ekaterina Barinova,Екатерина Баринова,55.5,50,65,-72.5,65,,35,40,-47.5,40,,70,85,90,90,,195,56,SBD,Raw,Yes,Open,29,1988-08-14
1,F,Oksana Chukhlantseva,Оксана Чухланцева,59.5,100,-110,-110,100,,50,-52.5,-52.5,50,,125,132.5,-135,132.5,,282.5,60,SBD,Raw,Yes,Open,30,1987-03-23
1,F,Alina Nikityuk,Алина Никитюк,65.3,-100,102.5,105,105,,-47.5,-50,50,50,,110,112.5,-120,112.5,,267.5,67.5,SBD,Raw,Yes,Juniors 20-23,22,1995-03-23
1,F,Mariya Kozlova,Мария Козлова,61,100,107.5,-112.5,107.5,,60,-70,-75,60,,100,107.5,-115,107.5,,275,67.5,SBD,Raw,Yes,Open,33,1984-06-29
1,F,Antonina Sboynova,Антонина Сбойнова,65.3,60,65,67.5,67.5,,30,35,-40,35,,-80,80,90,90,,192.5,67.5,SBD,Raw,Yes,Masters 40-44,43,1974-08-01
1,M,Maksim Smolentsev,Максим Смоленцев,59.1,110,115,120,120,,80,-82.5,-82.5,80,,120,130,135,135,,335,60,SBD,Raw,Yes,Juniors 20-23,21,1996-05-02
1,M,Mikhail Kuzmin,Михаил Кузьмин,65.6,-155,155,160,160,,100,-102.5,-102.5,100,,180,182.5,185,185,,445,67.5,SBD,Raw,Yes,Open,26,1991-10-31
1,M,Viktor Ezerskiy,Виктор Езерский,73.9,120,125,130,130,,110,115,120,120,,-155,155,165,165,,415,75,SBD,Raw,Yes,Open,38,1979-06-08
1,M,Maksim Novikov,Максим Новиков,81,225,230,232.5,232.5,,137.5,150,155,155,,250,-260,260,260,,647.5,82.5,SBD,Raw,Yes,Teen 18-19,19,1998-12-20
1,M,Oleg Ershov,Олег Ершов,80.5,230,242.5,250,250,,150,155,-160,155,,230,250,-260,250,,655,82.5,SBD,Raw,Yes,Open,26,1991-04-09
2,M,Maksim Novikov,Максим Новиков,81,225,230,232.5,232.5,,137.5,150,155,155,,250,-260,260,260,,647.5,82.5,SBD,Raw,Yes,Open,19,1998-12-20
3,M,Patrik Lueke,Патрик Луеке,79.6,160,170,180,180,,120,127.5,132.5,132.5,,-205,215,227.5,227.5,,540,82.5,SBD,Raw,Yes,Open,22,1995-04-04
4,M,Ilya Martynov,Илья Мартынов,82.4,-120,120,-125,120,,100,,,100,,160,162.5,165,165,,385,82.5,SBD,Raw,Yes,Open,31,1986-04-29
1,M,Dmitriy Mukhin,Дмитрий Мухин,87.6,-180,185,-192.5,185,,135,140,145,145,,-200,210,217.5,217.5,,547.5,90,SBD,Raw,Yes,Open,34,1983-05-15
2,M,Daniil Chugunov,Даниил Чугунов,89.6,160,165,170,170,,125,130,-135,130,,195,200,205,205,,505,90,SBD,Raw,Yes,Open,35,1982-08-14
3,M,Valeriy Vorobev,Валерий Воробьев,86.7,155,162.5,-167.5,162.5,,-120,120,122.5,122.5,,170,-180,-180,170,,455,90,SBD,Raw,Yes,Open,32,1986-02-08
1,M,Aleksey Kholunin,Алексей Холунин,90.5,155,165,175,175,,145,155,160,160,,165,180,195,195,,530,100,SBD,Raw,Yes,Open,35,1982-04-15
2,M,Sergey Aleshchenko,Сергей Алещенко,97,140,150,155,155,,110,115,-120,115,,160,-170,-170,160,,430,100,SBD,Raw,Yes,Open,28,1989-08-13
1,F,Natalya Bogacheva,Наталья Богачева,47.4,-77.5,-77.5,77.5,77.5,,37.5,40,42.5,42.5,,105,117.5,122.5,122.5,,242.5,48,SBD,Raw,No,Open,33,1985-02-09
1,F,Yuliya Filant,Юлия Филант,55.9,87.5,-95,-95,87.5,,45,50,52.5,52.5,,110,120,-125,120,,260,56,SBD,Raw,No,Open,50,1967-10-11
1,F,Tatyana Grafova,Татьяна Графова,59,-125,125,-130,125,,67.5,-72.5,-72.5,67.5,,135,142.5,145,145,,337.5,60,SBD,Raw,No,Open,36,1981-11-09
2,F,Olga Fedorenko,Ольга Федоренко,58.9,85,-92.5,92.5,92.5,,-55,57.5,60,60,,90,100,107.5,107.5,,260,60,SBD,Raw,No,Open,31,1986-06-30
1,F,Yuliya Sayfullina,Юлия Сайфуллина,61,110,115,120,120,,55,60,62.5,62.5,,130,137.5,-142.5,137.5,,320,67.5,SBD,Raw,No,Open,32,1985-03-25
1,F,Viktoriya Doga,Виктория Дога,74.6,125,135,142.5,142.5,,97.5,102.5,107.5,107.5,,165,180,191,191,,441,75,SBD,Raw,No,Open,35,1982-09-04
1,M,Oleg Klimov,Олег Климов,74.1,180,200,-210,200,,115,120,125,125,,185,200,210,210,,535,75,SBD,Raw,No,Juniors 20-23,21,1996-11-09
1,M,Mikhail Khromchenko,Михаил Хромченко,87.6,170,-180,,170,,-145,-145,145,145,,160,175,-190,175,,490,90,SBD,Raw,No,Open,30,1988-01-05
1,M,Anton Rusalenko,Антон Русаленко,99.1,200,215,220,220,,155,162.5,167.5,167.5,,-265,285,290,290,,677.5,100,SBD,Raw,No,Open,30,1987-10-22
2,M,David Dzhandzhuliya,Давид Джанджулия,98.6,215,225,-235,225,,150,160,167.5,167.5,,250,270,-280,270,,662.5,100,SBD,Raw,No,Open,29,1988-06-11
1,M,Igor Malakhov,Игорь Малахов,103.8,245,-252.5,-252.5,245,,165,170,175,175,,250,260,267.5,267.5,,687.5,110,SBD,Raw,No,Open,35,1982-07-11
1,M,Dmitriy Solyannik,Дмитрий Солянник,122.4,190,200,220,220,,130,140,-152.5,140,,200,215,222.5,222.5,,582.5,125,SBD,Raw,No,Juniors 20-23,22,1995-06-25
1,M,Maksim Bezinskikh,Максим Безинских,142,225,242.5,252.5,252.5,,180,190,195,195,,225,240,252.5,252.5,,700,140+,SBD,Raw,No,Open,31,1986-05-18
1,F,Raisat Medzhidova,Раисат Меджидова,48,55,60,-65,60,,25,30,-32.5,30,,65,70,75,75,,165,48,SBD,Wraps,Yes,Open,29,1988-09-14
DQ,F,Anastasiya Zakharova,Анастасия Захарова,51.7,-90,-90,-90,,,-45,,,,,-100,,,,,,52,SBD,Wraps,Yes,Juniors 20-23,22,1995-07-07
1,F,Valeriya Rachkova,Валерия Рачкова,69.5,75,77.5,80,80,,-37.5,37.5,40,40,,87.5,90,95,95,,215,75,SBD,Wraps,Yes,Open,25,1992-11-02
1,M,Grant Atoyan,Грант Атоян,90,-150,150,-160,150,,105,110,-115,110,,180,-190,190,190,,450,90,SBD,Wraps,Yes,Masters 40-44,41,1976-04-02
1,M,Sergey Banukhin,Сергей Банухин,104.7,215,227.5,240,240,,130,-135,-135,130,,200,215,-225,215,,585,110,SBD,Wraps,Yes,Open,32,1985-05-24
2,M,Andrey Myskiv,Андрей Мыськив,106.6,175,185,190,190,,115,120,-125,120,,195,205,215,215,,525,110,SBD,Wraps,Yes,Open,31,1986-04-02
1,F,Elena Ageeva,Елена Агеева,71,-125,140,-150,140,,75,87.5,-97.5,87.5,,135,150,170,170,,397.5,75,SBD,Wraps,No,Open,35,1982-06-26
1,F,Anna Pardzhiani,Анна Парджиани,79.3,-190,190,-200,190,,105,-110,-112.5,105,,180,187.5,192.5,192.5,,487.5,82.5,SBD,Wraps,No,Open,21,1996-11-06
2,F,Tatyana Zolotova,Татьяна Золотова,77.5,110,120,130,130,,50,57.5,-62.5,57.5,,100,110,120,120,,307.5,82.5,SBD,Wraps,No,Open,30,1987-11-10
1,M,Pavel Zalov,Павел Залов,94.3,200,-210,210,210,,110,120,130,130,,200,210,220,220,,560,100,SBD,Wraps,No,Juniors 20-23,21,1996-09-13
1,M,Oleg Silyugin,Олег Силюгин,97.7,220,235,-250,235,,165,175,185,185,,-205,210,-230,210,,630,100,SBD,Wraps,No,Open,47,1970-04-23
1,M,Aleksey Tsyrenshchikov,Алексей Цыренщиков,112.8,240,260,270,270,,170,185,195,195,,-225,230,250,250,,715,125,SBD,Wraps,No,Juniors 20-23,21,1996-07-29
1,F,Aleksandra Selezneva,Александра Селезнева,68.3,85,-90,-90,85,,,,,,,,,,,,85,75,S,Raw,Yes,Teen 18-19,18,1999-05-26
1,M,Valeriy Kopichnikov,Валерий Копичников,73.4,120,135,145,145,,,,,,,,,,,,145,75,S,Raw,Yes,Open,29,1989-02-04
1,M,Aleksey Zarochintsev,Алексей Зарочинцев,80.4,-80,90,100,100,,,,,,,,,,,,100,82.5,S,Raw,Yes,Open,29,1988-04-18
1,M,Sergey Luchinskiy,Сергей Лучинский,99,240,-252.5,252.5,252.5,,,,,,,,,,,,252.5,100,S,Raw,No,Open,36,1981-11-12
1,M,Ilya Martynov,Илья Мартынов,82.4,,,,,,-100,100,-105,100,,160,165,,165,,265,82.5,BD,Raw,Yes,Open,31,1986-04-29
1,M,Valeriy Vorobev,Валерий Воробьев,86.7,,,,,,-120,122.5,,122.5,,170,-180,-180,170,,292.5,90,BD,Raw,Yes,Open,32,1986-02-08
1,M,Evgeniy Yaroshko,Евгений Ярошко,105.1,,,,,,140,150,-155,150,,-250,260,275,275,,425,110,BD,Raw,Yes,Open,33,1984-07-29
1,M,Vladimir Zykov,Владимир Зыков,89.3,,,,,,135,145,150,150,,210,225,-235,225,,375,90,BD,Raw,No,Open,35,1982-10-28
1,M,Andrey Mameshin,Андрей Мамешин,96.1,,,,,,145,152.5,157.5,157.5,,220,232.5,245,245,,402.5,100,BD,Raw,No,Open,30,1988-02-17
2,M,Sergey Zolotov,Сергей Золотов,93.4,,,,,,120,-130,132.5,132.5,,220,230,240,240,,372.5,100,BD,Raw,No,Open,26,1991-11-13
1,M,Evgeniy Bukhalko,Евгений Бухалко,100.4,,,,,,150,155,-160,155,,200,210,220,220,,375,110,BD,Raw,No,Open,33,1984-05-08
1,M,Aleksey Mikhaylov,Алексей Михайлов,117.4,,,,,,205,212.5,-220,212.5,,250,265,-275,265,,477.5,125,BD,Raw,No,Open,31,1986-07-23
1,F,Ekaterina Kuzhleva,Екатерина Кужлева,43.85,,,,,,40,42.5,-47.5,42.5,,,,,,,42.5,44,B,Raw,Yes,Open,32,1985-09-12
1,F,Viktoriya Shmonina,Виктория Шмонина,47.8,,,,,,55,-57.5,-60,55,,,,,,,55,48,B,Raw,Yes,Teen 18-19,18,1999-07-21
1,F,Ekaterina Busova,Екатерина Бусова,47.3,,,,,,37.5,-42.5,-42.5,37.5,,,,,,,37.5,48,B,Raw,Yes,Open,38,1980-02-13
1,F,Mariya Denisova,Мария Денисова,47.65,,,,,,47.5,52.5,55,55,,,,,,,55,48,B,Raw,Yes,Masters 45-49,46,1971-06-09
1,F,Kseniya Ukhanova,Ксения Уханова,50.3,,,,,,40,-47.5,-47.5,40,,,,,,,40,52,B,Raw,Yes,Teen 16-17,16,2001-10-01
1,F,Elena Svetlova,Елена Светлова,54.4,,,,,,62.5,-65,65,65,,,,,,,65,56,B,Raw,Yes,Open,29,1988-06-01
1,F,Tatyana Kharitonova,Татьяна Харитонова,58.2,,,,,,60,65,-67.5,65,,,,,,,65,60,B,Raw,Yes,Masters 40-44,41,1976-05-09
1,F,Tamara Dolgashova,Тамара Долгашова,56.6,,,,,,30,32.5,-35,32.5,,,,,,,32.5,60,B,Raw,Yes,Masters 50-54,50,1967-09-13
1,F,Mariya Kozlova,Мария Козлова,61,,,,,,60,,,60,,,,,,,60,67.5,B,Raw,Yes,Open,33,1984-06-29
2,F,Olga Gurevich,Ольга Гуревич,63.6,,,,,,52.5,-55,55,55,,,,,,,55,67.5,B,Raw,Yes,Open,33,1985-02-21
1,F,Elena Dmitrieva,Елена Дмитриева,68.1,,,,,,55,60,-62.5,60,,,,,,,60,75,B,Raw,Yes,Masters 40-44,43,1974-11-03
1,M,Ivan Nikitinskiy,Иван Никитинский,48.9,,,,,,45,47.5,50,50,52.5,,,,,,50,52,B,Raw,Yes,Youth,12,2005-07-07
1,M,Nikita Tomilov,Никита Томилов,65.9,,,,,,97.5,102.5,-107.5,102.5,,,,,,,102.5,67.5,B,Raw,Yes,Teen 18-19,18,1999-11-16
2,M,Aleksandr Yastrebov,Александр Ястребов,67.5,,,,,,65,70,-75,70,,,,,,,70,67.5,B,Raw,Yes,Teen 13-15,15,2002-12-21
1,M,Ivan Chernyy,Иван Черный,68.1,,,,,,60,65,70,70,,,,,,,70,75,B,Raw,Yes,Teen 13-15,14,2004-02-27
1,M,Igor Novozhilov,Игорь Новожилов,73.4,,,,,,100,112.5,117.5,117.5,,,,,,,117.5,75,B,Raw,Yes,Juniors 20-23,22,1995-11-03
DQ,M,Arkadiy Krivtsov,Аркадий Кривцов,73.1,,,,,,-135,-135,-135,,,,,,,,,75,B,Raw,Yes,Juniors 20-23,21,1996-09-11
1,M,Vyacheslav Buyanov,Вячеслав Буянов,74.5,,,,,,145,150,155,155,,,,,,,155,75,B,Raw,Yes,Open,29,1988-03-24
2,M,Arutyun Sargsyan,Арутюн Саргсян,74.9,,,,,,145,-150,-155,145,,,,,,,145,75,B,Raw,Yes,Open,34,1983-12-06
3,M,Sergey Sheshegov,Сергей Шешегов,74.9,,,,,,130,137.5,140,140,,,,,,,140,75,B,Raw,Yes,Open,34,1984-02-22
4,M,Denis Sokolov,Денис Соколов,74.3,,,,,,130,135,-137.5,135,,,,,,,135,75,B,Raw,Yes,Open,25,1992-07-11
5,M,Oleg Semibratov,Олег Семибратов,74.8,,,,,,127.5,132.5,-135,132.5,,,,,,,132.5,75,B,Raw,Yes,Open,26,1991-04-22
6,M,Ilya Sitnikov,Илья Ситников,73.5,,,,,,127.5,-135,-135,127.5,,,,,,,127.5,75,B,Raw,Yes,Open,26,1991-09-06
7,M,Aleksandr Meshcheryakov,Александр Мещеряков,74.2,,,,,,-117.5,117.5,127.5,127.5,,,,,,,127.5,75,B,Raw,Yes,Open,32,1985-08-13
8,M,Aleksandr Cherstvov,Александр Черствов,73.7,,,,,,105,112.5,117.5,117.5,,,,,,,117.5,75,B,Raw,Yes,Open,32,1985-03-06
9,M,Mikhail Pavlov,Михаил Павлов,74.8,,,,,,110,117.5,-120,117.5,,,,,,,117.5,75,B,Raw,Yes,Open,28,1989-11-16
1,M,Denis Ostapenko,Денис Остапенко,78.7,,,,,,115,117.5,120,120,,,,,,,120,82.5,B,Raw,Yes,Teen 18-19,18,1999-11-19
2,M,Maksim Osokin,Максим Осокин,81,,,,,,85,90,-92.5,90,,,,,,,90,82.5,B,Raw,Yes,Teen 16-17,16,2001-03-22
1,M,Aleksandr Vladimirov,Александр Владимиров,76,,,,,,150,160,165,165,,,,,,,165,82.5,B,Raw,Yes,Open,36,1982-02-06
2,M,Sergey Biryukov #2,Сергей Бирюков,82.2,,,,,,155,157.5,-165,157.5,,,,,,,157.5,82.5,B,Raw,Yes,Open,36,1982-01-10
3,M,Roman Erukhanov,Роман Еруханов,77.6,,,,,,127.5,-145,-145,127.5,,,,,,,127.5,82.5,B,Raw,Yes,Open,26,1991-07-02
4,M,Vitaliy Belyaev,Виталий Беляев,78.6,,,,,,105,115,-127.5,115,,,,,,,115,82.5,B,Raw,Yes,Open,22,1995-04-07
DQ,M,Evgeniy Osipov,Евгений Осипов,77.8,,,,,,-130,-130,,,,,,,,,,82.5,B,Raw,Yes,Open,37,1980-03-27
DQ,M,Igor Budyanenko,Игорь Будяненко,82.1,,,,,,-127.5,-127.5,-127.5,,,,,,,,,82.5,B,Raw,Yes,Open,30,1987-07-14
1,M,Aleksandr Sidorov,Александр Сидоров,80.8,,,,,,87.5,90,92.5,92.5,,,,,,,92.5,82.5,B,Raw,Yes,Masters 40-44,44,1973-07-30
1,M,Stepan Shchevelev,Степан Щевелев,88.4,,,,,,147.5,152.5,,152.5,,,,,,,152.5,90,B,Raw,Yes,Juniors 20-23,22,1995-11-30
1,M,Pavel Belykh,Павел Белых,89.4,,,,,,172.5,177.5,180,180,,,,,,,180,90,B,Raw,Yes,Open,37,1980-08-06
2,M,Konstantin Kostyuchenkov,Константин Костюченков,89.2,,,,,,167.5,175,-182.5,175,,,,,,,175,90,B,Raw,Yes,Open,31,1986-07-08
3,M,Aleksandr Petrov,Александр Петров,87.2,,,,,,150,155,160,160,,,,,,,160,90,B,Raw,Yes,Open,34,1984-03-03
4,M,Kirill Terentev,Кирилл Терентьев,89.8,,,,,,132.5,135,-137.5,135,,,,,,,135,90,B,Raw,Yes,Open,29,1989-01-31
5,M,Roman Okhotnikov,Роман Охотников,86.6,,,,,,-127.5,127.5,-132.5,127.5,,,,,,,127.5,90,B,Raw,Yes,Open,38,1979-08-01
6,M,Viktor Lavrushkin,Виктор Лаврушкин,89,,,,,,120,-132.5,-132.5,120,,,,,,,120,90,B,Raw,Yes,Open,29,1988-09-19
DQ,M,Aleksey Ivanov,Алексей Иванов,87.9,,,,,,-140,-152.5,-152.5,,,,,,,,,90,B,Raw,Yes,Open,27,1990-06-20
1,M,Shamil Petushkov,Шамиль Петушков,88.7,,,,,,147.5,152.5,155,155,,,,,,,155,90,B,Raw,Yes,Masters 40-44,42,1975-10-16
2,M,Denis Shumeyko,Денис Шумейко,88,,,,,,130,140,-152.5,140,,,,,,,140,90,B,Raw,Yes,Masters 40-44,42,1975-06-01
1,M,Aleksandr Brodskiy,Александр Бродский,89.6,,,,,,125,130,-132.5,130,,,,,,,130,90,B,Raw,Yes,Masters 50-54,53,1964-05-26
1,M,Aleksandr Matus,Александр Матус,89.1,,,,,,127.5,-132.5,-132.5,127.5,,,,,,,127.5,90,B,Raw,Yes,Masters 60-64,60,1958-03-03
1,M,Ruslan Zhelkobaev,Руслан Желкобаев,96.7,,,,,,105,110,-115,110,,,,,,,110,100,B,Raw,Yes,Teen 16-17,17,2000-08-30
1,M,Viktor Shlenchak,Виктор Шленчак,95.7,,,,,,162.5,170,-172.5,170,,,,,,,170,100,B,Raw,Yes,Open,33,1984-04-22
2,M,Ruslan Meshcherov,Руслан Мещеров,97.2,,,,,,150,162.5,-167.5,162.5,,,,,,,162.5,100,B,Raw,Yes,Open,32,1985-05-15
3,M,Aleksandr Azarenok,Александр Азаренок,94.7,,,,,,140,-145,145,145,,,,,,,145,100,B,Raw,Yes,Open,34,1983-07-16
1,M,Nika Chkhvirkiya,Ника Чхвиркия,109.6,,,,,,155,170,175,175,,,,,,,175,110,B,Raw,Yes,Open,30,1988-02-21
2,M,Ruslan Kostenkov,Руслан Костенков,109.8,,,,,,150,160,-167.5,160,,,,,,,160,110,B,Raw,Yes,Open,28,1989-12-30
1,M,Kirill Ostapenko,Кирилл Остапенко,104.8,,,,,,165,172.5,177.5,177.5,,,,,,,177.5,110,B,Raw,Yes,Masters 40-44,40,1977-10-19
1,M,Anatoliy Kroshko,Анатолий Крошко,118.2,,,,,,150,162.5,170,170,,,,,,,170,125,B,Raw,Yes,Open,30,1987-07-31
2,M,Aleksandr Sergeev,Александр Сергеев,120,,,,,,162.5,170,-177.5,170,,,,,,,170,125,B,Raw,Yes,Open,39,1979-02-08
1,M,Nikolay Demennik,Николай Деменник,136,,,,,,170,-182.5,,170,,,,,,,170,140,B,Raw,Yes,Open,34,1983-11-04
1,F,Anastasiya Kuznetsova,Анастасия Кузнецова,58.6,,,,,,40,-42.5,42.5,42.5,,,,,,,42.5,60,B,Raw,No,Open,40,1977-11-16
1,F,Anastasiya Kuznetsova,Анастасия Кузнецова,58.6,,,,,,40,-42.5,42.5,42.5,,,,,,,42.5,60,B,Raw,No,Masters 40-44,40,1977-11-16
1,F,Tatyana Efimova,Татьяна Ефимова,63.3,,,,,,102.5,110,-112.5,110,,,,,,,110,67.5,B,Raw,No,Open,40,1977-09-10
2,F,Olga Ignatovich,Ольга Игнатович,65.5,,,,,,60,67.5,-75,67.5,,,,,,,67.5,67.5,B,Raw,No,Open,28,1989-04-14
1,F,Elena Gamolina,Елена Гамолина,76,,,,,,67.5,75,80,80,,,,,,,80,82.5,B,Raw,No,Masters 55-59,57,1961-01-17
1,M,Sergey Drozdov,Сергей Дроздов,70,,,,,,100,110,-120,110,,,,,,,110,75,B,Raw,No,Open,34,1983-03-26
1,M,Sergey Toming,Сергей Томинг,71.5,,,,,,115,-122.5,-122.5,115,,,,,,,115,75,B,Raw,No,Masters 45-49,49,1968-12-09
1,M,Fedor Sumarokov,Федор Сумароков,80.6,,,,,,160,165,167.5,167.5,,,,,,,167.5,82.5,B,Raw,No,Juniors 20-23,23,1995-02-24
1,M,Oleg Tikhonovskiy,Олег Тихоновский,81.7,,,,,,155,160,-165,160,,,,,,,160,82.5,B,Raw,No,Open,39,1978-08-04
2,M,Aleksey Kudrin,Алексей Кудрин,82.4,,,,,,160,-165,-165,160,,,,,,,160,82.5,B,Raw,No,Open,32,1985-03-30
3,M,Aleksandr Chashchin,Александр Чащин,82.1,,,,,,140,-150,,140,,,,,,,140,82.5,B,Raw,No,Open,30,1987-06-15
1,M,Aleksandr Mikhaylov,Александр Михайлов,80.8,,,,,,80,85,-90,85,,,,,,,85,82.5,B,Raw,No,Masters 55-59,59,1958-12-09
1,M,Aleksey Shestov,Алексей Шестов,89.4,,,,,,180,187.5,-190,187.5,,,,,,,187.5,90,B,Raw,No,Open,31,1986-07-03
2,M,Aleksey Starikov,Алексей Стариков,89.4,,,,,,160,-170,-170,160,,,,,,,160,90,B,Raw,No,Open,29,1988-03-09
3,M,Mikhail Khromchenko,Михаил Хромченко,87.6,,,,,,145,,,145,,,,,,,145,90,B,Raw,No,Open,30,1988-01-05
1,M,Sergey Ermakov,Сергей Ермаков,87.9,,,,,,110,115,117.5,117.5,,,,,,,117.5,90,B,Raw,No,Masters 40-44,42,1975-09-16
1,M,Stanislav Kandaurov,Станислав Кандауров,95.1,,,,,,192.5,-200,200,200,,,,,,,200,100,B,Raw,No,Open,27,1990-05-26
2,M,Dmitriy Polunin,Дмитрий Полунин,98.2,,,,,,195,-200,200,200,,,,,,,200,100,B,Raw,No,Open,26,1991-12-10
1,M,Aleksandr Sinyavskiy,Александр Синявский,96.6,,,,,,120,125,130,130,,,,,,,130,100,B,Raw,No,Masters 40-44,43,1975-01-25
1,M,Sergey Rogozin,Сергей Рогозин,93.1,,,,,,202.5,207.5,-210,207.5,,,,,,,207.5,100,B,Raw,No,Masters 45-49,47,1971-02-02
2,M,Sergey Barkovskiy,Сергей Барковский,99.1,,,,,,205,-210,-210,205,,,,,,,205,100,B,Raw,No,Masters 45-49,46,1971-12-06
1,M,Aleksey Gorislov,Алексей Горислов,92,,,,,,-140,-140,140,140,,,,,,,140,100,B,Raw,No,Masters 50-54,51,1967-01-10
1,M,Denis Deryagin,Денис Дерягин,109.7,,,,,,197.5,207.5,212.5,212.5,,,,,,,212.5,110,B,Raw,No,Open,38,1980-02-28
DQ,M,Vladimir Ivanov,Владимир Иванов,105.8,,,,,,-185,-185,-192.5,,,,,,,,,110,B,Raw,No,Open,38,1979-05-25
1,M,Pavel Veresov,Павел Вересов,115.2,,,,,,205,212.5,215,215,,,,,,,215,125,B,Raw,No,Open,36,1981-12-05
2,M,Vladimir Kazantsev,Владимир Казанцев,123,,,,,,190,202.5,-235,202.5,,,,,,,202.5,125,B,Raw,No,Open,25,1992-04-18
1,M,Andrey Kapustin,Андрей Капустин,119.3,,,,,,200,210,-217.5,210,,,,,,,210,125,B,Raw,No,Masters 40-44,41,1977-02-18
1,M,Aleksandr Vetrov,Александр Ветров,81.5,,,,,,165,-175,-175,165,,,,,,,165,82.5,B,Raw,Yes,Open,40,1977-06-14
1,M,Aleksandr Vetrov,Александр Ветров,81.5,,,,,,165,-175,-175,165,,,,,,,165,82.5,B,Raw,Yes,Masters 40-44,40,1977-06-14
1,M,Dmitriy Patyupin,Дмитрий Патюпин,98.9,,,,,,230,240,-250,240,,,,,,,240,100,B,Raw,Yes,Open,26,1991-11-28
2,M,Aleksey Berezhkov,Алексей Бережков,98.2,,,,,,190,-200,200,200,,,,,,,200,100,B,Raw,Yes,Open,35,1982-08-08
1,M,Dmitriy Solyannik,Дмитрий Солянник,122.4,,,,,,-200,-205,205,205,,,,,,,205,125,B,Raw,No,Juniors 20-23,22,1995-06-25
1,F,Natalya Pilipyuk,Наталья Пилипюк,55.2,,,,,,,,,,,130,137.5,-142.5,137.5,,137.5,56,D,Raw,Yes,Open,34,1983-12-21
1,F,Irina Danielyan,Ирина Даниелян,72,,,,,,,,,,,100,110,115,115,,115,75,D,Raw,Yes,Masters 45-49,45,1972-11-22
1,M,Fikrot Seidov,Фикрот Сеидов,65.7,,,,,,,,,,,140,150,162.5,162.5,,162.5,67.5,D,Raw,Yes,Teen 13-15,15,2002-06-21
1,M,Igor Larin,Игорь Ларин,68.7,,,,,,,,,,,120,135,142.5,142.5,,142.5,75,D,Raw,Yes,Teen 16-17,16,2001-08-07
1,M,Konstantin Smirnov,Константин Смирнов,73.4,,,,,,,,,,,190,205,-215,205,,205,75,D,Raw,Yes,Open,30,1987-06-18
1,M,Aleksandr Gerasimov,Александр Герасимов,79.1,,,,,,,,,,,225,-240,250,250,,250,82.5,D,Raw,Yes,Open,21,1996-09-12
2,M,Ruslan Tavtilov,Руслан Тавтилов,81.4,,,,,,,,,,,210,220,227.5,227.5,,227.5,82.5,D,Raw,Yes,Open,38,1980-02-26
3,M,Andrey Budyanenko,Андрей Будяненко,82,,,,,,,,,,,167.5,190,-202.5,190,,190,82.5,D,Raw,Yes,Open,35,1983-02-06
1,M,Aleksandr Apaev,Александр Апаев,84.2,,,,,,,,,,,240,-250,-250,240,,240,90,D,Raw,Yes,Open,29,1988-11-26
1,M,Timofey Kulishov,Тимофей Кулишов,99.3,,,,,,,,,,,230,240,250,250,,250,100,D,Raw,Yes,Open,32,1985-07-29
1,M,Daniil Katin,Даниил Катин,103,,,,,,,,,,,280,-290,-290,280,,280,110,D,Raw,Yes,Teen 18-19,18,1999-08-24
1,M,Daniil Katin,Даниил Катин,103,,,,,,,,,,,280,-290,-290,280,,280,110,D,Raw,Yes,Open,18,1999-08-24
2,M,Evgeniy Yaroshko,Евгений Ярошко,105.1,,,,,,,,,,,-250,260,275,275,,275,110,D,Raw,Yes,Open,33,1984-07-29
3,M,Aleksandr Suvorov,Александр Суворов,100.7,,,,,,,,,,,250,-260,-260,250,,250,110,D,Raw,Yes,Open,22,1995-04-16
1,M,Sergey Smirnov,Сергей Смирнов,119.4,,,,,,,,,,,240,260,270,270,,270,125,D,Raw,Yes,Open,36,1981-09-23
2,M,Viktor Bondarenko,Виктор Бондаренко,122.9,,,,,,,,,,,230,240,252.5,252.5,,252.5,125,D,Raw,Yes,Open,41,1976-10-21
1,F,Natalya Bogacheva,Наталья Богачева,47.4,,,,,,,,,,,122.5,,,122.5,,122.5,48,D,Raw,No,Open,33,1985-02-09
1,F,Olga Andreeva,Ольга Андреева,63.4,,,,,,,,,,,105,110,-115,110,,110,67.5,D,Raw,No,Open,40,1977-07-16
1,M,Stanislav Belov,Станислав Белов,88.7,,,,,,,,,,,247.5,262.5,-267.5,262.5,,262.5,90,D,Raw,No,Open,27,1990-11-11
1,M,Anton Rusalenko,Антон Русаленко,99.1,,,,,,,,,,,290,,,290,,290,100,D,Raw,No,Open,30,1987-10-22
2,M,Anton Bakhmetev,Антон Бахметьев,96.4,,,,,,,,,,,250,-260,,250,,250,100,D,Raw,No,Open,25,1992-12-03
1,M,Vladimir Dergunov,Владимир Дергунов,109.3,,,,,,,,,,,320,350,-365,350,,350,110,D,Raw,No,Open,26,1991-03-09
1,M,Aleksandr Malikov,Александр Маликов,111.2,,,,,,,,,,,260,272.5,282.5,282.5,,282.5,125,D,Raw,No,Masters 45-49,45,1972-12-21
1,F,Natalya Vasetskaya,Наталья Васецкая,57.2,,,,,,-75,75,-80,75,,,,,,,75,60,B,Unlimited,Yes,Open,25,1992-10-13
1,F,Natalya Gorislova,Наталья Горислова,72.8,,,,,,-107.5,107.5,-112.5,107.5,,,,,,,107.5,75,B,Unlimited,Yes,Masters 45-49,46,1972-03-03
1,M,Aleksey Sokolov,Алексей Соколов,89.2,,,,,,240,250,260,260,,,,,,,260,90,B,Unlimited,Yes,Open,33,1984-10-10
DQ,M,Aleksey Ivanov,Алексей Иванов,87.9,,,,,,-220,-220,-220,,,,,,,,,90,B,Unlimited,Yes,Open,27,1990-06-20
1,M,Igor Popov,Игорь Попов,98.5,,,,,,210,230,240,240,,,,,,,240,100,B,Unlimited,Yes,Open,52,1965-09-11
2,M,Roman Maslikhin,Роман Маслихин,91.8,,,,,,185,195,200,200,,,,,,,200,100,B,Unlimited,Yes,Open,25,1992-03-17
1,M,Igor Popov,Игорь Попов,98.5,,,,,,210,230,240,240,,,,,,,240,100,B,Unlimited,Yes,Masters 50-54,52,1965-09-11
1,M,Aleksandr Ryzhov,Александр Рыжов,106.6,,,,,,200,212.5,220,220,,,,,,,220,110,B,Unlimited,Yes,Open,31,1986-09-08
1,M,Vladimir Gusev,Владимир Гусев,132.1,,,,,,-250,250,270,270,,,,,,,270,140,B,Unlimited,Yes,Open,49,1968-09-01
1,M,Vladimir Gusev,Владимир Гусев,132.1,,,,,,-250,250,270,270,,,,,,,270,140,B,Unlimited,Yes,Masters 45-49,49,1968-09-01
1,M,Evgeniy Vasilev,Евгений Васильев,81.8,,,,,,-240,240,-260,240,,,,,,,240,82.5,B,Unlimited,No,Open,34,1983-08-15
2,M,Pavel Karabanov,Павел Карабанов,82.2,,,,,,195,205,215,215,,,,,,,215,82.5,B,Unlimited,No,Open,31,1986-12-30
1,M,Dmitriy Abrosimov,Дмитрий Абросимов,86.1,,,,,,220,230,240,240,,,,,,,240,90,B,Unlimited,No,Open,29,1988-05-29
1,M,Vladimir Karandashev,Владимир Карандашев,89.1,,,,,,195,210,220,220,,,,,,,220,90,B,Unlimited,No,Masters 45-49,45,1972-03-12
1,M,Andrey Belavkin,Андрей Белавкин,95.9,,,,,,265,275,285,285,,,,,,,285,100,B,Unlimited,No,Open,29,1988-03-24
2,M,Andrey Borisov,Андрей Борисов,96.5,,,,,,-230,-230,230,230,,,,,,,230,100,B,Unlimited,No,Open,30,1987-03-10
1,M,Boris Kozhin,Борис Кожин,94.8,,,,,,140,-155,165,165,,,,,,,165,100,B,Unlimited,No,Masters 55-59,57,1960-05-03
1,M,Evgeniy Kozhemyako,Евгений Кожемяко,107.5,,,,,,300,315,325,325,,,,,,,325,110,B,Unlimited,No,Open,32,1986-01-14
DQ,M,Yuriy Kholodov,Юрий Холодов,132.2,,,,,,-270,-270,-280,,,,,,,,,140,B,Unlimited,No,Open,36,1982-01-07
1,M,Roman Abidzhba,Роман Абиджба,148,,,,,,380,402.5,410,410,,,,,,,410,140+,B,Unlimited,No,Open,29,1988-04-27
1,M,Timofey Anikin,Тимофей Аникин,52.6,,,,,,35,-40,40,40,,,,,,,40,56,B,Raw,No,Teen 13-15,13,2004-07-25
1,M,Timofey Anikin,Тимофей Аникин,52.6,,,,,,35,-40,40,40,,,,,,,40,56,B,Raw,No,Open,13,2004-07-25
