Place,Name,CyrillicName,BirthDate,BodyweightKg,WeightClassKg,Sex,Division,Squat1Kg,Squat2Kg,Squat3Kg,Best3SquatKg,Bench1Kg,Bench2Kg,Bench3Kg,Best3BenchKg,Deadlift1Kg,Deadlift2Kg,Deadlift3Kg,Deadlift4Kg,Best3DeadliftKg,TotalKg,Event,Equipment
1,Veronika Pavlenko,Вероника Павленко,2003-10-14,51.7,52,F,Teen 13-15,90,100,110,110,57.5,62.5,-67.5,62.5,100,110,115,,115,287.5,SBD,Wraps
1,Kseniya Polyanskaya,Ксения Полянская,1988-11-22,52,52,F,Open,140,145,-150,145,70,75,-77.5,75,150,160,-165,,160,380,SBD,Wraps
2,Yuliya Kozar,Юлия Козарь,1985-01-23,51.9,52,F,Open,90,100,105,105,65,-67.5,67.5,67.5,115,125,132.5,,132.5,305,SBD,Wraps
DQ,Evgeniya Antontseva,Евгения Антонцева,1985-04-24,51.7,52,F,Open,-110,110,-115,110,-55,-55,-55,,-100,,,,,,SBD,Wraps
1,Yuliya Ageeva,Юлия Агеева,1986-01-13,56,56,F,Open,135,145,155,155,-67.5,70,72.5,72.5,120,127.5,135,,135,362.5,SBD,Wraps
DQ,Yuliya Chabannaya,Юлия Чабанная,1986-02-12,55.2,56,F,Open,-130,-130,130,130,65,67.5,-70,67.5,-140,,,,,,SBD,Wraps
1,Oksana Pakhuchaya,Оксана Пахучая,1978-09-19,55.8,56,F,Masters 40-44,120,-125,-125,120,57.5,-62.5,-62.5,57.5,145,152.5,-157.5,,152.5,330,SBD,Wraps
1,Alina Korol,Алина Король,1989-07-10,58.8,60,F,Open,110,117.5,125,125,52.5,57.5,-60,57.5,110,120,130,,130,312.5,SBD,Wraps
2,Bozhena Lavrinenko,Божена Лавриненко,1983-07-26,59.2,60,F,Open,90,-100,-100,90,57.5,60,-62.5,60,125,135,-142.5,,135,285,SBD,Wraps
1,Vera Popkova,Вера Попкова,1979-10-08,58.5,60,F,Submasters 33-39,75,85,-90,85,50,52.5,-55,52.5,100,110,120,,120,257.5,SBD,Wraps
1,Evgeniy Maksimov,Евгений Максимов,2006-06-08,46,52,M,Teen 13-15,55,-65,65,65,40,45,47.5,47.5,90,100,105,,105,217.5,SBD,Wraps
1,Artem Velichko,Артем Величко,2004-12-12,63,67.5,M,Teen 13-15,100,110,120,120,70,80,-85,80,100,110,120,,120,320,SBD,Wraps
1,Nikita Belimov,Никита Белимов,1994-08-18,67.2,67.5,M,Open,150,165,-175,165,110,-115,-115,110,150,165,180,,180,455,SBD,Wraps
1,Daniil Pakhuchiy,Даниил Пахучий,2001-09-12,73.9,75,M,Teen 16-19,170,190,-200,190,100,110,112.5,112.5,180,200,-212.5,,200,502.5,SBD,Wraps
2,Vladislav Korplyakov,Владислав Корпляков,2002-09-25,71.7,75,M,Teen 16-19,-140,145,160,160,85,95,-105,95,160,-165,-165,,160,415,SBD,Wraps
1,Nikita Maksimov,Никита Максимов,2002-05-18,81.7,82.5,M,Teen 16-19,120,135,142.5,142.5,80,85,-90,85,155,170,-185,,170,397.5,SBD,Wraps
1,Vazgen Grigoryan,Вазген Григорян,1991-05-01,79.5,82.5,M,Open,-180,190,-200,190,140,145,147.5,147.5,210,220,,,220,557.5,SBD,Wraps
1,Artyom Bocharov,Артём Бочаров,2000-06-10,87.1,90,M,Teen 16-19,180,190,200,200,110,120,-127.5,120,190,210,-222.5,,210,530,SBD,Wraps
DQ,Dmitriy Yushchenko,Дмитрий Ющенко,2001-02-25,88.3,90,M,Teen 16-19,-190,-190,190,190,-132.5,-132.5,-132.5,,215,,,,215,,SBD,Wraps
1,Sergey Sitalo,Сергей Ситало,1982-06-01,84.5,90,M,Open,145,152.5,160,160,117.5,122.5,-127.5,122.5,175,185,195,,195,477.5,SBD,Wraps
1,Aleksandr Chenchikovskiy,Александр Ченчиковский,1997-01-26,87.5,90,M,Juniors 20-23,-170,170,-180,170,90,-95,-95,90,150,160,-165,,160,420,SBD,Wraps
1,Sergey Sitalo,Сергей Ситало,1982-06-01,84.5,90,M,Submasters 33-39,145,152.5,160,160,117.5,122.5,-127.5,122.5,175,185,195,,195,477.5,SBD,Wraps
1,Gamzat Akhmedov,Гамзат Ахмедов,1978-01-27,85.6,90,M,Masters 40-44,-145,155,162.5,162.5,120,125,130,130,180,185,195,,195,487.5,SBD,Wraps
1,Viktor Cherevkov,Виктор Черевков,1986-05-06,95.6,100,M,Open,205,220,230,230,110,120,-130,120,210,225,235,,235,585,SBD,Wraps
1,Vladimir Gonchar,Владимир Гончар,1991-09-20,109.8,110,M,Open,260,280,300,300,170,180,,180,280,300,,,300,780,SBD,Wraps
1,Valeriy Tatarenko,Валерий Татаренко,1966-12-11,102.1,110,M,Masters 50-54,170,180,185,185,130,135,-140,135,185,190,200,,200,520,SBD,Wraps
1,Vladislav Adamenko,Владислав Адаменко,1996-01-01,123.1,125,M,Juniors 20-23,230,240,250,250,150,-155,-155,150,250,260,270,,270,670,SBD,Wraps
1,Evgeniy Sidelnikov,Евгений Сидельников,1983-03-09,120.8,125,M,Submasters 33-39,190,200,210,210,145,155,160,160,235,247.5,250,,250,620,SBD,Wraps
1,Natalya Simakova,Наталья Симакова,1980-12-05,47.5,48,F,Open,,,,,50,52.5,-55,52.5,,,,,,52.5,B,Raw
1,Veronika Pavlenko,Вероника Павленко,2003-10-14,51.7,52,F,Teen 13-15,,,,,60,65,-67.5,65,,,,,,65,B,Raw
1,Kseniya Polyanskaya,Ксения Полянская,1988-11-22,52,52,F,Open,,,,,70,75,-77.5,75,,,,,,75,B,Raw
2,Marina Vishnyakova,Марина Вишнякова,1980-01-02,51.5,52,F,Open,,,,,67.5,-70,-70,67.5,,,,,,67.5,B,Raw
3,Yuliya Kozar,Юлия Козарь,1985-01-23,51.9,52,F,Open,,,,,65,-67.5,67.5,67.5,,,,,,67.5,B,Raw
1,Yuliya Chabannaya,Юлия Чабанная,1986-02-12,55.2,56,F,Open,,,,,65,67.5,-70,67.5,,,,,,67.5,B,Raw
2,Oksana Churikova,Оксана Чурикова,1984-02-15,55.9,56,F,Open,,,,,60,-62.5,62.5,62.5,,,,,,62.5,B,Raw
1,Oksana Pakhuchaya,Оксана Пахучая,1978-09-19,55.8,56,F,Masters 40-44,,,,,57.5,-62.5,-62.5,57.5,,,,,,57.5,B,Raw
1,Bozhena Lavrinenko,Божена Лавриненко,1983-07-26,59.2,60,F,Open,,,,,57.5,60,-62.5,60,,,,,,60,B,Raw
1,Vera Popkova,Вера Попкова,1979-10-08,58.5,60,F,Submasters 33-39,,,,,50,52.5,-55,52.5,,,,,,52.5,B,Raw
1,Anna Samokhina,Анна Самохина,1994-09-23,66.3,67.5,F,Open,,,,,-62.5,-62.5,62.5,62.5,,,,,,62.5,B,Raw
2,Galina Kichaeva,Галина Кичаева,1990-09-25,61.7,67.5,F,Open,,,,,47.5,50,52.5,52.5,,,,,,52.5,B,Raw
1,Elena Kolpakova,Елена Колпакова,1985-10-05,79.2,82.5,F,Open,,,,,42.5,45,47.5,47.5,,,,,,47.5,B,Raw
1,Aleksandr Tkachev,Александр Ткачев,2004-08-24,51.1,52,M,Teen 13-15,,,,,-65,-65,65,65,,,,,,65,B,Raw
2,Artem Koval,Артем Коваль,2005-01-05,50.5,52,M,Teen 13-15,,,,,55,57.5,-60,57.5,,,,,,57.5,B,Raw
3,Evgeniy Maksimov,Евгений Максимов,2006-06-08,46,52,M,Teen 13-15,,,,,40,45,47.5,47.5,,,,,,47.5,B,Raw
1,Daniil Menyaylov,Даниил Меняйлов,2006-12-29,55,56,M,Youth,,,,,45,47.5,-50,47.5,,,,,,47.5,B,Raw
1,Oleg Yarchenko,Олег Ярченко,2003-03-18,59.7,60,M,Teen 16-19,,,,,90,-95,95,95,,,,,,95,B,Raw
2,Andrey Yarchenko,Андрей Ярченко,2003-03-18,60,60,M,Teen 16-19,,,,,77.5,80,-82.5,80,,,,,,80,B,Raw
3,Yaroslav Kalyuzhin,Ярослав Калюжин,2003-12-11,59.4,60,M,Teen 13-15,,,,,65,67.5,70,70,,,,,,70,B,Raw
1,Pavel Sviridkin,Павел Свиридкин,2001-12-03,66.8,67.5,M,Teen 16-19,,,,,95,97.5,-100,97.5,,,,,,97.5,B,Raw
2,Kirill Gribov,Кирилл Грибов,2005-06-24,66.3,67.5,M,Teen 13-15,,,,,87.5,92.5,-95,92.5,,,,,,92.5,B,Raw
3,Denis Poluektov,Денис Полуэктов,2005-06-02,64.5,67.5,M,Teen 13-15,,,,,-82.5,-82.5,82.5,82.5,,,,,,82.5,B,Raw
4,Artem Velichko,Артем Величко,2004-12-12,63,67.5,M,Teen 13-15,,,,,70,80,-85,80,,,,,,80,B,Raw
5,Egor Dyachenko,Егор Дьяченко,2004-08-02,61.6,67.5,M,Teen 13-15,,,,,-70,70,72.5,72.5,,,,,,72.5,B,Raw
1,Dmitriy Ermolaev,Дмитрий Ермолаев,1995-08-31,67.5,67.5,M,Open,,,,,160,-162.5,-162.5,160,,,,,,160,B,Raw
2,Denis Shitov,Денис Шитов,1991-06-22,65.2,67.5,M,Open,,,,,-117.5,117.5,-122.5,117.5,,,,,,117.5,B,Raw
1,Daniil Pakhuchiy,Даниил Пахучий,2001-09-12,73.9,75,M,Teen 16-19,,,,,100,110,112.5,112.5,,,,,,112.5,B,Raw
2,Artem Minaev,Артем Минаев,2002-01-12,72.1,75,M,Teen 16-19,,,,,110,-115,-115,110,,,,,,110,B,Raw
3,Daniil Lagutin,Даниил Лагутин,2001-12-18,68,75,M,Teen 16-19,,,,,82.5,85,87.5,87.5,,,,,,87.5,B,Raw
4,Aleksandr Voytikov,Александр Войтиков,2004-12-02,70.8,75,M,Teen 13-15,,,,,72.5,-77.5,77.5,77.5,,,,,,77.5,B,Raw
5,Ilya Kolomoets,Илья Коломоец,2006-11-22,73,75,M,Youth,,,,,65,70,72.5,72.5,,,,,,72.5,B,Raw
1,Aleksandr Kiyko,Александр Кийко,1987-09-08,71.7,75,M,Open,,,,,135,145,,145,,,,,,145,B,Raw
2,Evgeniy Strazhenko,Евгений Страженко,1982-12-03,73.2,75,M,Open,,,,,130,135,,135,,,,,,135,B,Raw
1,Andrey Shipov,Андрей Шипов,1996-12-15,74.8,75,M,Juniors 20-23,,,,,132.5,-140,-140,132.5,,,,,,132.5,B,Raw
1,Andrey Katretskiy,Андрей Катрецкий,1981-07-25,74.1,75,M,Submasters 33-39,,,,,100,102.5,105,105,,,,,,105,B,Raw
1,Rostislav Sidorenko,Ростислав Сидоренко,2002-10-07,80.8,82.5,M,Teen 16-19,,,,,110,115,120,120,,,,,,120,B,Raw
2,Nikita Maksimov,Никита Максимов,2002-05-18,81.7,82.5,M,Teen 16-19,,,,,80,85,-90,85,,,,,,85,B,Raw
1,Pavel Muzychenko,Павел Музыченко,1980-05-30,80.5,82.5,M,Submasters 33-39,,,,,152.5,160,,160,,,,,,160,B,Raw
1,Vladimir Gomelauri,Владимир Гомелаури,1957-09-02,82,82.5,M,Masters 60-64,,,,,-110,110,-115,110,,,,,,110,B,Raw
1,Vladimir Sokolov,Владимир Соколов,2006-07-20,86.5,90,M,Teen 13-15,,,,,75,80,-82.5,80,,,,,,80,B,Raw
1,Ivan Glavinskiy,Иван Главинский,1990-03-16,86,90,M,Open,,,,,170,180,-182.5,180,,,,,,180,B,Raw
2,Aleksey Nikitenkov,Алексей Никитенков,1987-06-13,86.7,90,M,Open,,,,,-145,145,-152.5,145,,,,,,145,B,Raw
3,Ivan Romanov,Иван Романов,1988-03-26,88.7,90,M,Open,,,,,140,142.5,-145,142.5,,,,,,142.5,B,Raw
4,Ruslan Shakirov,Руслан Шакиров,1988-09-15,87.6,90,M,Open,,,,,135,140,-147.5,140,,,,,,140,B,Raw
1,Vasiliy Shmoylov,Василий Шмойлов,1960-04-28,86.2,90,M,Masters 55-59,,,,,107.5,112.5,-117.5,112.5,,,,,,112.5,B,Raw
1,Aleksandr Slepchenko,Александр Слепченко,1994-05-21,90.3,100,M,Open,,,,,175,-180,-180,175,,,,,,175,B,Raw
2,Andrey Panov,Андрей Панов,1988-09-17,99,100,M,Open,,,,,160,165,-170,165,,,,,,165,B,Raw
3,Artyom Chugunov,Артём Чугунов,1985-08-12,98.5,100,M,Open,,,,,-157.5,157.5,-162.5,157.5,,,,,,157.5,B,Raw
1,Remir Drizhika,Ремир Дрижика,1966-06-25,94.8,100,M,Masters 50-54,,,,,145,150,152.5,152.5,,,,,,152.5,B,Raw
1,Leonid Gorobtsov,Леонид Горобцов,1964-09-13,98.6,100,M,Masters 55-59,,,,,147.5,-152.5,-152.5,147.5,,,,,,147.5,B,Raw
1,Vladislav Suprunenko,Владислав Супруненко,1989-02-15,101.2,110,M,Open,,,,,185,192.5,200,200,,,,,,200,B,Raw
2,Aleksandr Surovtsev,Александр Суровцев,1987-05-27,103.2,110,M,Open,,,,,160,167.5,-172.5,167.5,,,,,,167.5,B,Raw
1,Dmitriy Gosman,Дмитрий Госман,1993-05-22,124.7,125,M,Open,,,,,192.5,200,-205,200,,,,,,200,B,Raw
1,Evgeniy Sidelnikov,Евгений Сидельников,1983-03-09,120.8,125,M,Submasters 33-39,,,,,145,155,160,160,,,,,,160,B,Raw
1,Pyotr Gomelauri,Пётр Гомелаури,1992-02-27,137.8,140,M,Open,,,,,187.5,195,200,200,,,,,,200,B,Raw
1,Andrey Ustimenko,Андрей Устименко,1977-03-27,129.4,140,M,Masters 40-44,,,,,180,190,200,200,,,,,,200,B,Unlimited
1,Veronika Pavlenko,Вероника Павленко,2003-10-14,51.7,52,F,Teen 13-15,,,,,,,,,100,110,115,,115,115,D,Raw
1,Kseniya Polyanskaya,Ксения Полянская,1988-11-22,52,52,F,Open,,,,,,,,,150,160,-165,,160,160,D,Raw
2,Tatyana Vayvod,Татьяна Вайвод,1980-07-16,51.6,52,F,Open,,,,,,,,,140,-150,-150,,140,140,D,Raw
3,Yuliya Kozar,Юлия Козарь,1985-01-23,51.9,52,F,Open,,,,,,,,,115,125,132.5,,132.5,132.5,D,Raw
4,Anna Reznikova,Анна Резникова,1985-12-09,50.3,52,F,Open,,,,,,,,,100,107.5,110,,110,110,D,Raw
5,Marina Vishnyakova,Марина Вишнякова,1980-01-02,51.5,52,F,Open,,,,,,,,,105,-110,-115,,105,105,D,Raw
1,Oksana Pakhuchaya,Оксана Пахучая,1978-09-19,55.8,56,F,Open,,,,,,,,,145,152.5,-157.5,,152.5,152.5,D,Raw
DQ,Yuliya Chabannaya,Юлия Чабанная,1986-02-12,55.2,56,F,Open,,,,,,,,,-140,,,,,,D,Raw
1,Oksana Pakhuchaya,Оксана Пахучая,1978-09-19,55.8,56,F,Masters 40-44,,,,,,,,,145,152.5,-157.5,,152.5,152.5,D,Raw
1,Bozhena Lavrinenko,Божена Лавриненко,1983-07-26,59.2,60,F,Open,,,,,,,,,125,135,-142.5,,135,135,D,Raw
1,Nina Romanenko,Ніна Романенко,1983-03-25,60,60,F,Submasters 33-39,,,,,,,,,130,137.5,-142.5,,137.5,137.5,D,Raw
2,Vera Popkova,Вера Попкова,1979-10-08,58.5,60,F,Submasters 33-39,,,,,,,,,100,110,120,,120,120,D,Raw
1,Galina Kichaeva,Галина Кичаева,1990-09-25,61.7,67.5,F,Open,,,,,,,,,90,100,-110,,100,100,D,Raw
1,Irina Akimova,Ирина Акимова,1988-03-01,84.1,90,F,Open,,,,,,,,,90,100,110,,110,110,D,Raw
1,Evgeniy Maksimov,Евгений Максимов,2006-06-08,46,52,M,Teen 13-15,,,,,,,,,90,100,105,,105,105,D,Raw
1,Artem Velichko,Артем Величко,2004-12-12,63,67.5,M,Teen 13-15,,,,,,,,,100,110,120,,120,120,D,Raw
1,Denis Shitov,Денис Шитов,1991-06-22,65.2,67.5,M,Open,,,,,,,,,165,170,-180,,170,170,D,Raw
1,Aleksandr Sorokin,Александр Сорокин,1996-08-25,65.8,67.5,M,Juniors 20-23,,,,,,,,,165,-175,175,,175,175,D,Raw
1,Daniil Pakhuchiy,Даниил Пахучий,2001-09-12,73.9,75,M,Teen 16-19,,,,,,,,,180,200,-212.5,,200,200,D,Raw
1,Andrey Katretskiy,Андрей Катрецкий,1981-07-25,74.1,75,M,Open,,,,,,,,,190,-202.5,-202.5,,190,190,D,Raw
1,Andrey Katretskiy,Андрей Катрецкий,1981-07-25,74.1,75,M,Submasters 33-39,,,,,,,,,190,-202.5,-202.5,,190,190,D,Raw
1,Nikita Maksimov,Никита Максимов,2002-05-18,81.7,82.5,M,Teen 16-19,,,,,,,,,155,170,-185,,170,170,D,Raw
1,Denis Pavlenko,Денис Павленко,1986-12-18,78.6,82.5,M,Open,,,,,,,,,-215,215,230,,230,230,D,Raw
2,Sergey Plaksunov,Сергей Плаксунов,1984-02-06,81.6,82.5,M,Open,,,,,,,,,200,-215,215,,215,215,D,Raw
1,Dmitriy Yushchenko,Дмитрий Ющенко,2001-02-25,88.3,90,M,Teen 16-19,,,,,,,,,215,-230,-235,,215,215,D,Raw
2,Artyom Bocharov,Артём Бочаров,2000-06-10,87.1,90,M,Teen 16-19,,,,,,,,,210,-222.5,-222.5,,210,210,D,Raw
1,Sergey Sitalo,Сергей Ситало,1982-06-01,84.5,90,M,Open,,,,,,,,,175,185,195,,195,195,D,Raw
DQ,Aleksandr Vasenin,Александр Васенин,1987-11-30,89.6,90,M,Open,,,,,,,,,-270,-270,-270,,,,D,Raw
1,Sergey Sitalo,Сергей Ситало,1982-06-01,84.5,90,M,Submasters 33-39,,,,,,,,,175,185,195,,195,195,D,Raw
1,Aleksandr Bykadorov,Александр Быкадоров,1959-03-20,88.9,90,M,Masters 60-64,,,,,,,,,125,130,135,,135,135,D,Raw
1,Viktor Cherevkov,Виктор Черевков,1986-05-06,95.6,100,M,Open,,,,,,,,,210,225,235,,235,235,D,Raw
2,Aleksandr Sulatskiy,Александр Сулацкий,1985-12-13,92.2,100,M,Open,,,,,,,,,200,-205,-205,,200,200,D,Raw
3,Eduard Kern,Эдуард Керн,1990-09-21,92.3,100,M,Open,,,,,,,,,-140,140,-160,,140,140,D,Raw
1,Igor Khvoshchevskiy,Игорь Хвощевский,1967-07-31,98.1,100,M,Masters 50-54,,,,,,,,,185,195,202.5,,202.5,202.5,D,Raw
1,Vladimir Gonchar,Владимир Гончар,1991-09-20,109.8,110,M,Open,,,,,,,,,280,300,,,300,300,D,Raw
2,Aleksandr Surovtsev,Александр Суровцев,1987-05-27,103.2,110,M,Open,,,,,,,,,240,250,260,,260,260,D,Raw
1,Sergey Drozdov,Сергей Дроздов,1984-09-23,106.3,110,M,Submasters 33-39,,,,,,,,,180,200,210,,210,210,D,Raw
1,Aleksandr Nazarov,Александр Назаров,1985-03-09,121.6,125,M,Open,,,,,,,,,230,-252.5,-252.5,,230,230,D,Raw
1,Evgeniy Sidelnikov,Евгений Сидельников,1983-03-09,120.8,125,M,Submasters 33-39,,,,,,,,,235,247.5,250,,250,250,D,Raw
1,Oleg Teperik,Олег Теперик,1976-02-14,130.1,140,M,Masters 40-44,,,,,,,,,200,222.5,235,,235,235,D,Raw
1,Daniil Fomin #2,Даниил Фомин,1999-06-03,65,67.5,M,Juniors 20-23,110,-120,-125,110,60,70,-75,70,130,137.5,-145,,137.5,317.5,SBD,Wraps
1,Stefan Talpa,Стефан Талпа,2001-08-14,70.2,75,M,Teen 16-19,140,150,160,160,100,107.5,112.5,112.5,150,160,170,,170,442.5,SBD,Wraps
1,Dmitriy Pavlov,Дмитрий Павлов,1992-10-24,75,75,M,Open,200,210,-220,210,110,120,-130,120,250,270,280,,280,610,SBD,Wraps
1,Igor Katyshev,Игорь Катышев,1983-04-15,82.3,82.5,M,Open,180,190,195,195,150,157.5,-165,157.5,210,217.5,-222.5,,217.5,570,SBD,Wraps
1,Yuriy Kulishov,Юрий Кулишов,1991-01-08,86.8,90,M,Open,200,210,215,215,137.5,-145,145,145,240,250,255,,255,615,SBD,Wraps
1,Andrey Pyatygin,Андрей Пятыгин,1986-04-14,99,100,M,Open,250,270,-285,270,155,165,170,170,270,290,300,,300,740,SBD,Wraps
2,Nikita Borisov,Никита Борисов,1989-11-05,96.5,100,M,Open,200,220,230,230,140,150,-160,150,270,290,305,,305,685,SBD,Wraps
1,Kirill Filatov,Кирилл Филатов,1999-07-23,103.2,110,M,Juniors 20-23,180,195,205,205,100,110,112.5,112.5,190,202.5,210,,210,527.5,SBD,Wraps
1,Fedor Shtaynert,Федор Штайнерт,1993-03-18,122.1,125,M,Open,220,240,250,250,150,160,165,165,210,225,250,,250,665,SBD,Wraps
1,Rostislav Petrenko,Ростислав Петренко,1981-08-27,59,60,M,Open,,,,,85,90,-95,90,,,,,,90,B,Raw
1,Danil Bogomaz,Данил Богомаз,2004-10-28,72.1,75,M,Teen 13-15,,,,,67.5,75,80,80,,,,,,80,B,Raw
1,Igor Katyshev,Игорь Катышев,1983-04-15,82.3,82.5,M,Open,,,,,150,157.5,-165,157.5,,,,,,157.5,B,Raw
1,Andrey Nozdrev,Андрей Ноздрев,1983-02-26,80.9,82.5,M,Submasters 33-39,,,,,110,115,-120,115,,,,,,115,B,Raw
1,Sergey Zubko,Сергей Зубко,1994-12-10,86.4,90,M,Open,,,,,170,177.5,185,185,,,,,,185,B,Raw
1,Sergey Greshnov,Сергей Грешнов,1972-10-07,87.1,90,M,Masters 45-49,,,,,162.5,-172.5,-172.5,162.5,,,,,,162.5,B,Raw
1,Georgiy Nikitin,Георгий Никитин,1991-05-24,104.5,110,M,Open,,,,,180,-187.5,-187.5,180,,,,,,180,B,Raw
2,Aleksandr Minasyan,Александр Минасян,1986-01-15,105.9,110,M,Open,,,,,155,-165,-165,155,,,,,,155,B,Raw
1,Viktor Garmatin,Виктор Гарматин,1983-08-27,81.3,82.5,M,Open,,,,,180,192.5,-205,192.5,,,,,,192.5,B,Unlimited
1,Ruslan Li,Руслан Ли,1977-10-06,86.9,90,M,Open,,,,,260,-275,-275,260,,,,,,260,B,Unlimited
1,Nikolay Glazyrin,Николай Глазырин,1987-09-02,92.8,100,M,Open,,,,,230,245,-255,245,,,,,,245,B,Unlimited
1,Dmitriy Kovalyov,Дмитрий Ковалёв,1995-11-15,112.7,125,M,Juniors 20-23,,,,,240,250,-265,250,,,,,,250,B,Unlimited
1,Dmitriy Proydakov,Дмитрий Пройдаков,1992-10-02,67.4,67.5,M,Open,,,,,,,,,210,220,230,-235,230,230,D,Raw
1,Dmitriy Pavlov,Дмитрий Павлов,1992-10-24,75,75,M,Open,,,,,,,,,250,270,280,,280,280,D,Raw
1,Dmitriy Paranin,Дмитрий Паранин,1996-08-29,70.4,75,M,Juniors 20-23,,,,,,,,,210,-220,-220,,210,210,D,Raw
1,Eduard Chubaryan,Эдуард Чубарьян,1986-10-09,78,82.5,M,Open,,,,,,,,,180,-190,,,180,180,D,Raw
1,Aleksandr Evdoshenko,Александр Евдошенко,1985-08-06,89.8,90,M,Open,,,,,,,,,290,-305,-305,,290,290,D,Raw
1,Aleksey Vorobev,Алексей Воробьев,1983-05-30,99.9,100,M,Open,,,,,,,,,275,290,300,,300,300,D,Raw
1,Denis Makeev,Денис Макеев,1983-04-22,123.3,125,M,Open,,,,,,,,,260,-270,-270,,260,260,D,Raw
