Place,Sex,Name,CyrillicName,BodyweightKg,Squat1Kg,Squat2Kg,Squat3Kg,Best3SquatKg,Squat4Kg,Bench1Kg,Bench2Kg,Bench3Kg,Best3BenchKg,Bench4Kg,Deadlift1Kg,Deadlift2Kg,Deadlift3Kg,Best3DeadliftKg,Deadlift4Kg,TotalKg,WeightClassKg,Event,Equipment,Tested,Division,Age,BirthDate
1,F,Tatyana Yatsenko,Татьяна Яценко,51.6,70,75,-80,75,,35,-40,-40,35,,75,82.5,92.5,92.5,,202.5,52,SBD,Wraps,Yes,Amateur Juniors 20-23,20,1998-08-14
2,F,Tatyana Anpalova,Татьяна Анпалова,51.9,70,75,-80,75,,35,-40,-40,35,,75,80,87.5,87.5,,197.5,52,SBD,Wraps,Yes,Amateur Juniors 20-23,21,1997-07-27
1,F,Irina Chyos,Ирина Чёс,54.2,67.5,-75,75,75,,30,-35,35,35,,90,95,-100,95,,205,56,SBD,Wraps,Yes,Amateur Open,32,1986-05-23
1,F,Karina Polinovskaya,Карина Полиновская,59.6,95,102.5,-107.5,102.5,,60,-65,65,65,,100,105,107.5,107.5,,275,60,SBD,Wraps,Yes,Amateur Sub-Juniors 17-19,19,1998-11-24
1,F,Anna Ivanova #3,Анна Іванова,63.2,90,100,-110,100,,57.5,62.5,65,65,,100,110,115,115,,280,67.5,SBD,Wraps,Yes,Amateur Open,24,1993-12-25
1,M,Aleksandr Bezheryanu,Александр Бэжеряну,71,120,140,150,150,,100,110,-115,110,,180,190,195,195,,455,75,SBD,Wraps,Yes,Amateur Open,25,1993-10-11
2,M,Ruslan Sidorchuk,Руслан Сидорчук,74.2,120,130,140,140,,130,-140,-140,130,,-160,-170,170,170,,440,75,SBD,Wraps,Yes,Amateur Open,42,1976-04-03
1,M,Nikolay Gordienko,Николай Гордиенко,89.9,150,157.5,165,165,,105,110,-115,110,,210,220,230,230,,505,90,SBD,Wraps,Yes,Amateur Open,26,1992-01-13
1,M,Aleksandr Aristov,Александр Аристов,92.7,170,180,190,190,,110,115,120,120,,200,210,230,230,,540,100,SBD,Wraps,Yes,Amateur Open,25,1993-08-24
1,M,Oleg Demchenko,Олег Демченко,129.2,245,-255,255,255,,165,170,,170,,315,335,350,350,,775,140,SBD,Wraps,Yes,Amateur Open,41,1977-08-11
1,M,Anton Barskov,Антон Барсков,153.4,230,240,255,255,,180,187.5,-192.5,187.5,,230,-245,250,250,,692.5,140+,SBD,Wraps,Yes,Amateur Open,34,1984-05-17
1,F,Olga Poralo,Ольга Порало,59.2,-87.5,-87.5,87.5,87.5,,47.5,-50,-50,47.5,,90,95,-97.5,95,,230,60,SBD,Wraps,No,Pro Open,37,1981-10-26
1,F,Yuliya Antonova #1,Юлія Антонова,62,125,132.5,137.5,137.5,,75,80,82.5,82.5,,145,152.5,157.5,157.5,,377.5,67.5,SBD,Wraps,No,Pro Open,38,1980-02-01
1,M,Dmitriy Goretskiy,Дмитрий Горецкий,83.2,180,185,-190,185,,120,130,140,140,,190,200,-210,200,,525,90,SBD,Wraps,No,Pro Juniors 20-23,22,1995-12-06
1,M,Sergey Belyanskiy,Сергей Белянский,93.6,200,215,,215,,170,185,-190,185,,-240,240,272.5,272.5,,672.5,100,SBD,Wraps,No,Pro Open,42,1976-03-10
2,M,Teymuraz Chikovani,Теймураз Чиковани,98.4,210,220,-230,220,,175,182.5,-187.5,182.5,,210,230,250,250,,652.5,100,SBD,Wraps,No,Pro Open,27,1991-10-15
1,M,Sergey Belyanskiy,Сергей Белянский,93.6,200,215,,215,,170,185,-190,185,,-240,240,272.5,272.5,,672.5,100,SBD,Wraps,No,Pro Masters 40-44,42,1976-03-10
1,M,Ivan Urlov,Иван Урлов,134.9,150,170,190,190,,130,145,160,160,,-200,200,230,230,,580,140,SBD,Wraps,No,Pro Open,36,1982-11-04
1,M,Aleksey Dubovenko,Алексей Дубовенко,76.1,-155,155,160,160,,95,100,-105,100,,-185,190,200,200,,460,82.5,SBD,Wraps,Yes,Amateur Sub-Juniors 17-19,17,2001-04-03
2,M,Daniil Ermakov,Даниил Ермаков,81.1,-110,115,-122.5,115,,65,70,-72.5,70,,110,115,117.5,117.5,,302.5,82.5,SBD,Wraps,Yes,Amateur Teen 14-16,14,2003-12-01
1,M,Sergey Zhuvaga,Сергей Жувага,87.2,-200,-200,200,200,,120,-125,-125,120,,260,272.5,-280,272.5,,592.5,90,SBD,Wraps,Yes,Amateur Open,26,1992-06-17
1,M,Dmitriy Daniv,Дмитрий Данив,88.9,220,240,250,250,,150,-160,160,160,,242.5,255,265,265,,675,90,SBD,Wraps,No,Pro Open,31,1987-10-03
1,F,Evgeniya Emtsova,Евгения Емцова,51.3,,,,,,42.5,-45,-45,42.5,,,,,,,42.5,52,B,Raw,Yes,Amateur Juniors 20-23,23,1995-09-09
1,F,Anna Pomozova,Анна Помозова,55.9,,,,,,45,-47.5,47.5,47.5,,,,,,,47.5,56,B,Raw,Yes,Amateur Sub-Juniors 17-19,18,2000-07-05
1,F,Anastasiya Chernyavskaya,Анастасия Чернявская,58.1,,,,,,67.5,,,67.5,,,,,,,67.5,60,B,Raw,Yes,Amateur Juniors 20-23,22,1995-12-13
1,F,Svetlana Khomenkova,Светлана Хоменкова,57.2,,,,,,60,65,-67.5,65,,,,,,,65,60,B,Raw,Yes,Amateur Open,37,1980-11-25
2,F,Anastasiya Bondar,Анастасия Бондарь,58.6,,,,,,52.5,57.5,60,60,,,,,,,60,60,B,Raw,Yes,Amateur Open,27,1991-05-21
1,F,Kseniya Dulub,Ксения Дулуб,63.9,,,,,,60,-62.5,-62.5,60,,,,,,,60,67.5,B,Raw,Yes,Amateur Teen 14-16,16,2002-08-17
1,F,Svetlana Rzhishcheva,Светлана Ржищева,63.5,,,,,,-55,57.5,62.5,62.5,,,,,,,62.5,67.5,B,Raw,Yes,Amateur Open,31,1987-07-27
2,F,Marina Chuvichkina,Марина Чувичкина,64.7,,,,,,40,42.5,45,45,,,,,,,45,67.5,B,Raw,Yes,Amateur Open,39,1979-08-07
1,M,Aleksandr Nikonorov,Александр Никоноров,57.5,,,,,,60,-62.5,62.5,62.5,,,,,,,62.5,60,B,Raw,Yes,Amateur Teen 14-16,16,2001-12-16
1,M,Aleksey Chernyy,Алексей Черный,63.4,,,,,,107.5,-115,-115,107.5,,,,,,,107.5,67.5,B,Raw,Yes,Amateur Open,28,1990-08-28
1,M,Timur Suleymanov,Тимур Сулейманов,73.1,,,,,,-135,142.5,147.5,147.5,,,,,,,147.5,75,B,Raw,Yes,Amateur Juniors 20-23,22,1996-01-20
1,M,Timur Suleymanov,Тимур Сулейманов,73.1,,,,,,-135,142.5,147.5,147.5,,,,,,,147.5,75,B,Raw,Yes,Amateur Open,22,1996-01-20
2,M,Ruslan Sidorchuk,Руслан Сидорчук,74.2,,,,,,130,-140,-140,130,,,,,,,130,75,B,Raw,Yes,Amateur Open,42,1976-04-03
3,M,Idris Khaybullaev,Идрис Хайбуллаев,71.5,,,,,,120,127.5,-135,127.5,,,,,,,127.5,75,B,Raw,Yes,Amateur Open,25,1993-08-23
4,M,Dmitriy Urlyapov,Дмитрий Урляпов,73,,,,,,125,-135,-135,125,,,,,,,125,75,B,Raw,Yes,Amateur Open,26,1992-10-11
1,M,Konstantin Melnikov,Константин Мельников,81.5,,,,,,-105,107.5,110,110,,,,,,,110,82.5,B,Raw,Yes,Amateur Sub-Juniors 17-19,17,2001-06-05
1,M,Mikhail Tikhomirov,Михаил Тихомиров,82.1,,,,,,125,127.5,,127.5,,,,,,,127.5,82.5,B,Raw,Yes,Amateur Open,32,1986-07-23
1,M,Denis Romanchev,Денис Романчев,87.5,,,,,,-145,145,150,150,,,,,,,150,90,B,Raw,Yes,Amateur Open,29,1989-06-06
2,M,Maksim Sverdlenko,Максим Свердленко,88.6,,,,,,142.5,-147.5,-147.5,142.5,,,,,,,142.5,90,B,Raw,Yes,Amateur Open,32,1986-08-04
3,M,Emir Abdurakhimov,Эмир Абдурахимов,88,,,,,,125,132.5,135,135,,,,,,,135,90,B,Raw,Yes,Amateur Open,25,1993-06-29
4,M,Aleksandr Tkachenko,Александр Ткаченко,88.9,,,,,,127.5,132.5,-137.5,132.5,,,,,,,132.5,90,B,Raw,Yes,Amateur Open,28,1990-03-02
5,M,Ilya Lukanin,Илья Луканин,82.7,,,,,,120,-127.5,-127.5,120,,,,,,,120,90,B,Raw,Yes,Amateur Open,30,1988-08-04
6,M,Aleksandr Karpovich,Александр Карпович,84.5,,,,,,-120,120,-132.5,120,,,,,,,120,90,B,Raw,Yes,Amateur Open,29,1988-12-14
DQ,M,Nikolay Mazur,Николай Мазур,89.5,,,,,,-122.5,-122.5,-122.5,,,,,,,,,90,B,Raw,Yes,Amateur Open,27,1991-09-22
1,M,Andrey Buryakov,Андрей Буряков,88.1,,,,,,90,-95,-97.5,90,,,,,,,90,90,B,Raw,Yes,Amateur Masters 40-44,43,1974-12-06
1,M,Leonid Sankov,Леонид Саньков,94.7,,,,,,140,145,152.5,152.5,,,,,,,152.5,100,B,Raw,Yes,Amateur Masters 45-49,48,1970-03-21
1,M,Sergey Kravchenko,Сергей Кравченко,107.2,,,,,,132.5,140,-147.5,140,,,,,,,140,110,B,Raw,Yes,Amateur Open,26,1992-11-15
DQ,M,Aleksandr Klyuchenko,Александр Ключенко,105.8,,,,,,-100,-100,,,,,,,,,,110,B,Raw,Yes,Amateur Open,32,1986-07-08
1,M,Oleg Shulga,Олег Шульга,105.4,,,,,,120,130,-135,130,,,,,,,130,110,B,Raw,Yes,Amateur Masters 45-49,49,1969-03-31
1,M,Sergey Pedosyuk,Сергей Педосюк,108.6,,,,,,115,120,-125,120,,,,,,,120,110,B,Raw,Yes,Amateur Masters 50-54,52,1966-07-18
1,M,Nikolay Shabliy,Николай Шаблий,121.4,,,,,,127.5,-130,-132.5,127.5,,,,,,,127.5,125,B,Raw,Yes,Amateur Open,31,1987-09-29
1,M,Andrey Ivanov,Андрей Иванов,112.8,,,,,,130,150,-155,150,,,,,,,150,125,B,Raw,Yes,Amateur Masters 50-54,51,1967-04-20
1,M,Aleksandr Buyanov,Александр Буянов,129.7,,,,,,150,165,170,170,,,,,,,170,140,B,Raw,Yes,Amateur Open,37,1981-05-18
1,M,Anton Barskov,Антон Барсков,153.4,,,,,,180,187.5,,187.5,,,,,,,187.5,140+,B,Raw,Yes,Amateur Open,34,1984-05-17
1,F,Elvira Fettaeva,Эльвира Феттаева,65,,,,,,50,55,-57.5,55,,,,,,,55,67.5,B,Raw,No,Pro Juniors 20-23,23,1995-08-29
1,F,Yuliya Antonova #1,Юлія Антонова,62,,,,,,75,80,82.5,82.5,,,,,,,82.5,67.5,B,Raw,No,Pro Open,38,1980-02-01
1,F,Elena Konyushenko,Елена Конюшенко,69.9,,,,,,80,85,-87.5,85,,,,,,,85,75,B,Raw,No,Pro Open,33,1985-03-11
1,M,Evgeniy Kalemi,Евгений Калеми,29,,,,,,25,30,32.5,32.5,,,,,,,32.5,52,B,Raw,No,Youth,6,2011-12-01
1,M,Sergey Chushev,Сергей Чушев,78.5,,,,,,90,100,115,115,,,,,,,115,82.5,B,Raw,No,Pro Sub-Juniors 17-19,17,2001-10-12
1,M,Artyom Vinogradskiy,Артём Виноградский,82.5,,,,,,150,157.5,165,165,,,,,,,165,82.5,B,Raw,No,Pro Open,32,1986-08-15
1,M,Aleksey Ksandopulo,Алексей Ксандопуло,88.3,,,,,,175,,,175,,,,,,,175,90,B,Raw,No,Pro Open,35,1983-04-23
1,M,Efim Fiks,Ефим Фикс,88.1,,,,,,95,100,102.5,102.5,,,,,,,102.5,90,B,Raw,No,Pro Masters,71,1946-11-27
1,M,Vladimir Bykov,Владимир Быков,95.8,,,,,,190,200,-205,200,,,,,,,200,100,B,Raw,No,Pro Open,32,1986-01-23
2,M,Sergey Belyanskiy,Сергей Белянский,93.6,,,,,,170,185,-190,185,,,,,,,185,100,B,Raw,No,Pro Open,42,1976-03-10
3,M,Dmitriy Kiselyov,Дмитрий Киселёв,95.9,,,,,,180,-185,185,185,,,,,,,185,100,B,Raw,No,Pro Open,34,1984-05-07
4,M,Teymuraz Chikovani,Теймураз Чиковани,98.4,,,,,,175,182.5,-187.5,182.5,,,,,,,182.5,100,B,Raw,No,Pro Open,27,1991-10-15
5,M,Stanislav Poplavskiy,Станислав Поплавский,95.3,,,,,,140,150,-162.5,150,,,,,,,150,100,B,Raw,No,Pro Open,27,1990-12-19
1,M,Sergey Belyanskiy,Сергей Белянский,93.6,,,,,,170,185,-190,185,,,,,,,185,100,B,Raw,No,Pro Masters 40-44,42,1976-03-10
1,M,Sergey Bagach,Сергей Багач,95.7,,,,,,140,150,-160,150,,,,,,,150,100,B,Raw,No,Pro Masters 45-49,45,1973-05-01
1,M,Denis Pavlenko,Денис Павленко,105.1,,,,,,-220,220,230,230,,,,,,,230,110,B,Raw,No,Pro Open,25,1993-03-11
1,M,Vladimir Goretskiy,Владимир Горецкий,119.9,,,,,,140,160,170,170,,,,,,,170,125,B,Raw,No,Pro Juniors 20-23,20,1998-07-21
1,M,Valeriy Beginin,Валерий Бегинин,112.8,,,,,,215,225,-232.5,225,,,,,,,225,125,B,Raw,No,Pro Open,39,1979-01-02
2,M,Aleksandr Kalinichenko,Александр Калиниченко,110.1,,,,,,170,177.5,-182.5,177.5,,,,,,,177.5,125,B,Raw,No,Pro Open,35,1983-07-22
3,M,Vitaliy Datsyuk,Виталий Дацюк,114.3,,,,,,170,175,-180,175,,,,,,,175,125,B,Raw,No,Pro Open,38,1980-09-23
1,M,Ivan Urlov,Иван Урлов,134.9,,,,,,130,145,160,160,,,,,,,160,140,B,Raw,No,Pro Open,36,1982-11-04
1,F,Diana Biryukova,Диана Бирюкова,54.4,,,,,,,,,,,-90,90,-100,90,,90,56,D,Raw,Yes,Amateur Sub-Juniors 17-19,18,2000-02-05
1,F,Aleksandra Yastrebtsova,Александра Ястребцова,55.8,,,,,,,,,,,102.5,110,-115,110,,110,56,D,Raw,Yes,Amateur Juniors 20-23,21,1997-01-10
1,F,Irina Chyos,Ирина Чёс,54.2,,,,,,,,,,,90,95,-100,95,,95,56,D,Raw,Yes,Amateur Open,32,1986-05-23
1,F,Anastasiya Chernyavskaya,Анастасия Чернявская,58.1,,,,,,,,,,,130,135,140,140,,140,60,D,Raw,Yes,Amateur Open,22,1995-12-13
1,F,Elvina Zaynulina,Эльвина Зайнулина,65.8,,,,,,,,,,,125,132.5,137.5,137.5,,137.5,67.5,D,Raw,Yes,Amateur Open,21,1997-10-29
1,F,Anna Nikishova,Анна Никишова,72.9,,,,,,,,,,,125,130,135,135,,135,75,D,Raw,Yes,Amateur Open,28,1989-12-26
1,M,Egor Poddubnyy,Егор Поддубный,55.6,,,,,,,,,,,125,135,142.5,142.5,,142.5,56,D,Raw,Yes,Amateur Teen 14-16,15,2003-06-02
1,M,Idris Khaybullaev,Идрис Хайбуллаев,71.5,,,,,,,,,,,182.5,190,200,200,,200,75,D,Raw,Yes,Amateur Open,25,1993-08-23
2,M,Ruslan Sidorchuk,Руслан Сидорчук,74.2,,,,,,,,,,,-160,-170,170,170,,170,75,D,Raw,Yes,Amateur Open,42,1976-04-03
1,M,Mikhail Tikhomirov,Михаил Тихомиров,82.1,,,,,,,,,,,170,180,-185,180,,180,82.5,D,Raw,Yes,Amateur Open,32,1986-07-23
1,M,Sergey Zhuvaga,Сергей Жувага,87.2,,,,,,,,,,,260,272.5,-280,272.5,,272.5,90,D,Raw,Yes,Amateur Open,26,1992-06-17
2,M,Nikolay Gordienko,Николай Гордиенко,89.9,,,,,,,,,,,210,220,230,230,,230,90,D,Raw,Yes,Amateur Open,26,1992-01-13
3,M,Nikolay Kiryukhin,Николай Кирюхин,88.2,,,,,,,,,,,190,202.5,-210,202.5,,202.5,90,D,Raw,Yes,Amateur Open,27,1991-10-20
1,M,Vasiliy Leonenko,Василий Леоненко,89,,,,,,,,,,,225,235,240,240,,240,90,D,Raw,Yes,Amateur Masters 50-54,51,1967-04-06
1,M,Artem Pashkin,Артем Пашкин,99,,,,,,,,,,,220,230,240,240,,240,100,D,Raw,Yes,Amateur Open,27,1991-07-29
2,M,Aleksandr Aristov,Александр Аристов,92.7,,,,,,,,,,,200,210,230,230,,230,100,D,Raw,Yes,Amateur Open,25,1993-08-24
1,M,Pyotr Litvinenko,Пётр Литвиненко,109.3,,,,,,,,,,,255,262.5,-270,262.5,,262.5,110,D,Raw,Yes,Amateur Open,27,1991-06-02
2,M,Artemiy Bogatyrev,Артемий Богатырев,108.2,,,,,,,,,,,200,215,-225,215,,215,110,D,Raw,Yes,Amateur Open,28,1990-03-21
1,M,Mikhail Yakovlev,Михаил Яковлев,123,,,,,,,,,,,230,-240,240,240,,240,125,D,Raw,Yes,Amateur Open,30,1988-02-28
1,F,Nadezhda Gorina,Надежда Горина,44.75,,,,,,,,,,,75,80,85,85,,85,48,D,Raw,No,Pro Juniors 20-23,20,1998-05-21
1,F,Olga Bashkirova,Ольга Башкирова,56,,,,,,,,,,,92.5,100,105,105,,105,56,D,Raw,No,Pro Open,29,1989-09-26
1,F,Yuliya Antonova #1,Юлія Антонова,62,,,,,,,,,,,145,152.5,157.5,157.5,,157.5,67.5,D,Raw,No,Pro Open,38,1980-02-01
1,M,Valeriy Telkin,Валерий Телкин,39.55,,,,,,,,,,,70,77.5,82.5,82.5,,82.5,52,D,Raw,No,Youth,13,2005-03-13
1,M,Shafeek Saleem,,54.8,,,,,,,,,,,-90,90,110,110,,110,56,D,Raw,No,Pro Open,24,1994-03-09
1,M,Eduard Annenkov,Эдуард Анненков,90,,,,,,,,,,,280,287.5,292.5,292.5,,292.5,90,D,Raw,No,Pro Open,30,1988-05-03
1,M,Sergey Belyanskiy,Сергей Белянский,93.6,,,,,,,,,,,-240,240,272.5,272.5,,272.5,100,D,Raw,No,Pro Open,42,1976-03-10
2,M,Teymuraz Chikovani,Теймураз Чиковани,98.4,,,,,,,,,,,210,230,250,250,,250,100,D,Raw,No,Pro Open,27,1991-10-15
3,M,Denis Galich,Денис Галич,97.3,,,,,,,,,,,190,200,-210,200,,200,100,D,Raw,No,Pro Open,31,1987-10-31
1,M,Sergey Belyanskiy,Сергей Белянский,93.6,,,,,,,,,,,-240,240,272.5,272.5,,272.5,100,D,Raw,No,Pro Masters 40-44,42,1976-03-10
1,M,Sergey Stupin,Сергей Ступин,103,,,,,,,,,,,300,315,325,325,,325,110,D,Raw,No,Pro Open,35,1983-01-11
2,M,Maksim Ilin,Максим Ильин,104,,,,,,,,,,,235,252.5,260,260,,260,110,D,Raw,No,Pro Open,30,1988-05-06
1,M,Oleg Sokolov,Олег Соколов,105,,,,,,,,,,,210,220,,220,,220,110,D,Raw,No,Pro Masters 45-49,46,1972-08-14
1,M,Ivan Urlov,Иван Урлов,134.9,,,,,,,,,,,-200,200,230,230,,230,140,D,Raw,No,Pro Open,36,1982-11-04
