Place,Sex,Name,CyrillicName,BodyweightKg,Squat1Kg,Squat2Kg,Squat3Kg,Best3SquatKg,Squat4Kg,Bench1Kg,Bench2Kg,Bench3Kg,Best3BenchKg,Bench4Kg,Deadlift1Kg,Deadlift2Kg,Deadlift3Kg,Best3DeadliftKg,Deadlift4Kg,TotalKg,WeightClassKg,Event,Equipment,Tested,Division,Age,BirthDate
1,F,Ekaterina Avdeeva,Екатерина Авдеева,51.2,55,60,65,65,,37.5,42.5,47.5,47.5,,70,77.5,-82.5,77.5,,190,52,SBD,Raw,Yes,Open,37,1982-02-09
1,F,Olga Povorova,Ольга Поворова,51.7,75,-80,80,80,,35,40,-45,40,,95,100,-105,100,,220,52,SBD,Raw,Yes,Masters 40-44,41,1978-03-06
1,F,Yaroslava Kachan,Ярослава Качан,54.1,95,102.5,-110,102.5,,65,72.5,-75,72.5,,105,115,-125,115,,290,56,SBD,Raw,Yes,Open,29,1990-03-03
1,F,Anastasiya Vorobeva,Анастасия Воробьева,60,85,-92.5,-92.5,85,,52.5,57.5,-62.5,57.5,,-112.5,112.5,-120,112.5,,255,60,SBD,Raw,Yes,Open,36,1983-01-05
1,F,Elena Kosolapova,Елена Косолапова,66.2,100,110,112.5,112.5,,62.5,-67.5,67.5,67.5,,132.5,142.5,,142.5,,322.5,67.5,SBD,Raw,Yes,Teen 18-19,19,1999-07-19
1,F,Marina Kutepova,Марина Кутепова,66.3,-85,-85,85,85,,55,60,-62.5,60,,115,125,-130,125,,270,67.5,SBD,Raw,Yes,Open,40,1979-01-12
2,F,Olga Parkhomenko,Ольга Пархоменко,65.6,90,95,-97.5,95,,55,57.5,60,60,,-100,100,107.5,107.5,,262.5,67.5,SBD,Raw,Yes,Open,30,1988-11-12
1,F,Olga Korsunova,Ольга Корсунова,66.3,97.5,105,110,110,,52.5,57.5,62.5,62.5,,102.5,110,117.5,117.5,,290,67.5,SBD,Raw,Yes,Masters 40-44,43,1976-01-27
2,F,Marina Kutepova,Марина Кутепова,66.3,-85,-85,85,85,,55,60,-62.5,60,,115,125,-130,125,,270,67.5,SBD,Raw,Yes,Masters 40-44,40,1979-01-12
1,F,Yuliya Shutova,Юлия Шутова,71.4,140,-150,150,150,,72.5,-77.5,77.5,77.5,,140,-150,-150,140,,367.5,75,SBD,Raw,Yes,Open,32,1986-10-13
1,M,Danila Namestnikov,Данила Наместников,61.5,65,70,-80,70,,40,45,-50,45,,75,85,90,90,,205,67.5,SBD,Raw,Yes,Teen 16-17,16,2003-01-27
1,M,Vardgez Paronyan,Вардгез Паронян,74.9,200,210,-220,210,,125,-132.5,-132.5,125,,240,-260,-260,240,,575,75,SBD,Raw,Yes,Teen 18-19,18,2001-02-08
1,M,Evgeniy Lebedikov,Евгений Лебедиков,73.2,200,-212.5,215,215,,105,110,-115,110,,210,225,237.5,237.5,,562.5,75,SBD,Raw,Yes,Open,26,1992-12-19
2,M,Vladimir Borovkov,Владимир Боровков,74.7,120,125,-130,125,,100,110,-115,110,,-180,180,,180,,415,75,SBD,Raw,Yes,Open,26,1992-11-13
3,M,Sergey Kryukov,Сергей Крюков,74.9,130,140,-145,140,,95,-105,-107.5,95,,145,-160,160,160,,395,75,SBD,Raw,Yes,Open,38,1980-07-30
1,M,Zakhar Kolchushkin,Захар Колчушкин,79.1,150,160,170,170,,110,115,-120,115,,180,190,-195,190,,475,82.5,SBD,Raw,Yes,Teen 18-19,18,2000-11-17
1,M,Nikita Kanaev,Никита Канаев,81.4,-120,120,130,130,,80,85,90,90,,140,150,160,160,,380,82.5,SBD,Raw,Yes,Juniors 20-23,22,1996-11-19
1,M,Aleksey Vorotnikov,Алексей Воротников,81.7,200,210,-220,210,,130,135,-137.5,135,,230,237.5,-240,237.5,,582.5,82.5,SBD,Raw,Yes,Open,38,1980-10-08
2,M,Samvel Edigaryan,Самвел Едигарян,82.4,-190,190,-200,190,,142.5,152.5,157.5,157.5,,205,215,,215,,562.5,82.5,SBD,Raw,Yes,Open,33,1985-11-23
3,M,Maksim Platonov,Максим Платонов,82.4,170,180,-190,180,,145,-150,-150,145,,180,195,215,215,,540,82.5,SBD,Raw,Yes,Open,24,1995-04-07
4,M,Andrey Kiselev,Андрей Киселев,81.4,167.5,172.5,177.5,177.5,,117.5,-122.5,-122.5,117.5,,220,225,230,230,,525,82.5,SBD,Raw,Yes,Open,27,1991-10-31
5,M,Evgeniy Taran,Евгений Таран,82.2,180,-190,-195,180,,145,150,155,155,,180,190,-195,190,,525,82.5,SBD,Raw,Yes,Open,33,1986-06-13
6,M,Aleksandr Zavernyaev,Александр Заверняев,78.6,140,-150,-155,140,,125,-130,130,130,,200,210,-215,210,,480,82.5,SBD,Raw,Yes,Open,38,1980-10-17
7,M,Aleksey Bulatov,Алексей Булатов,80.8,140,-150,150,150,,-107.5,107.5,-110,107.5,,160,172.5,-182.5,172.5,,430,82.5,SBD,Raw,Yes,Open,33,1986-01-09
1,M,Evgeniy Avvakumov,Евгений Аввакумов,87.7,210,222.5,-230,222.5,,160,165,170,170,,255,265,270,270,,662.5,90,SBD,Raw,Yes,Open,28,1990-07-24
2,M,Aleksandr Kireev,Александр Киреев,86.4,190,195,200,200,,145,152.5,-157.5,152.5,,250,262.5,267.5,267.5,,620,90,SBD,Raw,Yes,Open,26,1992-07-25
3,M,Yuliy Chernositov,Юлий Черноситов,88.9,202.5,207.5,210,210,,155,160,-162.5,160,,220,230,240,240,,610,90,SBD,Raw,Yes,Open,39,1979-11-30
4,M,Aleksandr Lyovin,Александр Лёвин,89.2,195,205,210,210,,127.5,135,-142.5,135,,235,250,257.5,257.5,,602.5,90,SBD,Raw,Yes,Open,30,1989-03-01
5,M,Artem Vostroknutov,Артем Вострокнутов,88.8,-195,195,-200,195,,127.5,-135,-135,127.5,,210,220,232.5,232.5,,555,90,SBD,Raw,Yes,Open,33,1985-09-10
6,M,Evgeniy Kornilov,Евгений Корнилов,87.4,180,190,-195,190,,122.5,130,135,135,,195,-205,-205,195,,520,90,SBD,Raw,Yes,Open,28,1991-05-10
1,M,Aleksey Kosyanov,Алексей Косьянов,99.3,-200,210,-220,210,,157.5,162.5,-165,162.5,,220,232.5,-240,232.5,,605,100,SBD,Raw,Yes,Juniors 20-23,21,1998-02-10
1,M,Yuriy Gubanov,Юрий Губанов,98.5,225,240,250,250,,165,172.5,175,175,,250,270,277.5,277.5,,702.5,100,SBD,Raw,Yes,Open,32,1987-03-06
2,M,Evgeniy Lyapin,Евгений Ляпин,97.2,220,230,240,240,,170,180,185,185,,250,265,-275,265,,690,100,SBD,Raw,Yes,Open,31,1988-06-03
3,M,Artyom Klopov,Артём Клопов,98.6,210,225,235,235,,-165,-170,170,170,,200,-225,225,225,,630,100,SBD,Raw,Yes,Open,28,1990-10-11
4,M,Ali Sergeev,Али Сергеев,97,170,182.5,-187.5,182.5,,125,130,132.5,132.5,,200,212.5,225,225,,540,100,SBD,Raw,Yes,Open,33,1985-07-27
5,M,Artyom Marchenko,Артём Марченко,94.2,145,-152.5,-160,145,,107.5,112.5,-117.5,112.5,,180,190,205,205,,462.5,100,SBD,Raw,Yes,Open,30,1988-09-21
6,M,Artyom Volkov,Артём Волков,96.6,140,150,152.5,152.5,,100,-107.5,110,110,,160,170,180,180,,442.5,100,SBD,Raw,Yes,Open,26,1992-11-30
1,M,Sergey Tretyakov,Сергей Третьяков,92.9,145,152.5,160,160,,120,127.5,-135,127.5,,175,185,192.5,192.5,,480,100,SBD,Raw,Yes,Masters 40-44,40,1978-08-17
DQ,M,Ivan Zagorodnyuk,Иван Загороднюк,109.3,235,245,-255,245,,-155,-155,-155,,,250,265,-270,265,,,110,SBD,Raw,Yes,Juniors 20-23,22,1997-05-02
1,M,Aleksandr Efimov,Александр Ефимов,108.2,225,235,-245,235,,155,-160,160,160,,255,265,270,270,,665,110,SBD,Raw,Yes,Open,40,1979-03-18
DQ,M,Ivan Zagorodnyuk,Иван Загороднюк,109.3,235,245,-255,245,,-155,-155,-155,,,250,265,-270,265,,,110,SBD,Raw,Yes,Open,22,1997-05-02
DQ,M,Pavel Bondarev,Павел Бондарев,109.3,250,270,-282.5,270,,-175,-185,-185,,,,,,,,,110,SBD,Raw,Yes,Open,31,1988-06-10
1,M,Zhanis Zarinsh,Жанис Зариньш,137.1,220,235,-242.5,235,,152.5,-157.5,,152.5,,230,247.5,255,255,260,642.5,140,SBD,Raw,Yes,Teen 18-19,19,1999-11-15
1,F,Elena Labudova,Елена Лабудова,51.8,55,62.5,65,65,,37.5,40,-42.5,40,,85,92.5,95,95,,200,52,SBD,Raw,No,Open,31,1987-11-11
1,F,Darya Smirnova,Дарья Смирнова,66.9,120,130,135,135,,87.5,92.5,95,95,,125,135,140,140,,370,67.5,SBD,Raw,No,Open,27,1991-10-24
2,F,Nina Kondrashyova,Нина Кондрашёва,67.3,115,122.5,130,130,,75,80,82.5,82.5,,130,145,-160,145,,357.5,67.5,SBD,Raw,No,Open,59,1960-01-02
1,F,Aleksandra Avanesyan,Александра Аванесян,72.8,145,155,165,165,,100,110,115,115,,155,170,180,180,,460,75,SBD,Raw,No,Open,24,1995-05-23
1,M,Stanislav Polyakov,Станислав Поляков,74.2,150,160,-170,160,,120,-127.5,127.5,127.5,,170,180,190,190,,477.5,75,SBD,Raw,No,Open,28,1991-01-07
1,M,Evgeniy Zhadnov,Евгений Жаднов,80.5,190,200,-205,200,,115,120,-125,120,,160,170,180,180,,500,82.5,SBD,Raw,No,Juniors 20-23,23,1996-06-11
1,M,Vitaliy Burov,Виталий Буров,78.5,-220,220,-240,220,,145,152.5,-155,152.5,,270,280,-292.5,280,,652.5,82.5,SBD,Raw,No,Open,33,1986-05-22
1,M,Aleksandr Cherednichenko,Александр Чередниченко,88.6,255,262.5,267.5,267.5,,182.5,187.5,-192.5,187.5,,300,-310,-310,300,,755,90,SBD,Raw,No,Open,28,1991-02-04
2,M,Sergey Surkov,Сергей Сурков,90,225,240,250,250,,180,190,195,195,,-290,290,302.5,302.5,,747.5,90,SBD,Raw,No,Open,33,1985-10-14
3,M,Sergey Kachan,Сергей Качан,88.6,230,240,245,245,,185,-192.5,-192.5,185,,305,315,-320,315,,745,90,SBD,Raw,No,Open,27,1992-03-21
4,M,Aleksey Maksimov,Алексей Максимов,89.7,210,-225,225,225,,160,170,175,175,,240,-255,-255,240,,640,90,SBD,Raw,No,Open,29,1989-12-11
1,M,Anton Kashentsev,Антон Кашенцев,87.8,175,185,195,195,,125,132.5,-140,132.5,,220,230,-240,230,,557.5,90,SBD,Raw,No,Masters 40-44,42,1976-09-26
1,M,Igor Matsko,Игорь Мацько,97.7,-295,295,305,305,,220,-230,-230,220,,330,-352.5,-352.5,330,,855,100,SBD,Raw,No,Open,26,1993-05-24
2,M,Ilya Mironov,Илья Миронов,99.4,210,225,-235,225,,150,160,-165,160,,250,265,-272.5,265,,650,100,SBD,Raw,No,Open,26,1992-10-23
3,M,Dmitriy Kamynin,Дмитрий Камынин,98.7,200,210,220,220,,140,-150,-150,140,,220,230,250,250,,610,100,SBD,Raw,No,Open,38,1981-03-14
1,M,Maksim Povorov,Максим Поворов,95.7,150,160,-170,160,,90,100,-110,100,,170,180,200,200,,460,100,SBD,Raw,No,Masters 40-44,40,1978-08-06
1,M,Aleksandr Sharov,Александр Шаров,110,270,285,-290,285,,200,210,-215,210,,300,315,-320,315,,810,110,SBD,Raw,No,Open,35,1983-09-03
2,M,Ivan Pezikov,Иван Пезиков,108.7,285,302.5,-310,302.5,,175,182.5,-187.5,182.5,,305,315,-322.5,315,,800,110,SBD,Raw,No,Open,25,1994-04-24
3,M,Roman Denisov,Роман Денисов,100.9,220,232.5,-237.5,232.5,,187.5,-195,-195,187.5,,270,-285,-285,270,,690,110,SBD,Raw,No,Open,31,1988-04-13
4,M,Aleksey Makarenko,Алексей Макаренко,108.4,150,165,170,170,,130,-140,-140,130,,160,180,200,200,,500,110,SBD,Raw,No,Open,38,1981-02-22
DQ,M,Danil Glukhov,Данил Глухов,106.1,-250,260,-275,260,,,,,,,,,,,,,110,SBD,Raw,No,Open,26,1992-10-09
DQ,M,Egor Ermolov,Егор Ермолов,115.1,-210,-210,-210,,,,,,,,,,,,,,125,SBD,Raw,No,Juniors 20-23,21,1997-08-11
1,M,Aleksey Nemov,Алексей Немов,123.8,250,265,270,270,,190,197.5,-205,197.5,,300,-310,310,310,,777.5,125,SBD,Raw,No,Open,29,1990-01-30
2,M,Igor Sharapov,Игорь Шарапов,124,265,-281,-281,265,,185,195,,195,,265,280,-285,280,,740,125,SBD,Raw,No,Open,47,1971-10-30
1,M,Igor Sharapov,Игорь Шарапов,124,265,-281,-281,265,,185,195,,195,,265,280,-285,280,,740,125,SBD,Raw,No,Masters 45-49,47,1971-10-30
1,F,Kristina Nikiforova,Кристина Никифорова,55.9,-97.5,-97.5,97.5,97.5,102.5,45,47.5,-50,47.5,,90,95,100,100,,245,56,SBD,Wraps,Yes,Teen 16-17,16,2002-12-24
1,F,Natalya Konchakova,Наталья Кончакова,54.5,152.5,162.5,-170,162.5,,72.5,-77.5,-77.5,72.5,,170,-177.5,-177.5,170,,405,56,SBD,Wraps,Yes,Open,41,1977-08-14
1,M,Mikhail Lebedev,Михаил Лебедев,86.8,190,-200,-205,190,,102.5,110,-115,110,,200,210,-215,210,,510,90,SBD,Wraps,Yes,Juniors 20-23,23,1996-02-01
2,M,Sergey Runtov,Сергей Рунтов,83.3,162.5,175,182.5,182.5,,100,110,115,115,,160,175,-185,175,,472.5,90,SBD,Wraps,Yes,Juniors 20-23,20,1999-05-20
1,M,Dmitriy Galaktionov,Дмитрий Галактионов,86.8,170,180,185,185,,-105,105,110,110,,175,185,-195,185,,480,90,SBD,Wraps,Yes,Open,36,1983-01-10
1,M,Yuriy Marenkov,Юрий Маренков,99.8,240,250,260,260,,-155,155,160,160,,232.5,240,,240,,660,100,SBD,Wraps,Yes,Open,42,1976-12-18
2,M,Sergey Banturov,Сергей Бантуров,99.5,205,215,-220,215,,120,-125,125,125,,220,242.5,-245,242.5,,582.5,100,SBD,Wraps,Yes,Open,36,1982-09-28
3,M,Artur Khachatryan,Артур Хачатрян,98.4,190,210,230,230,,110,115,-120,115,,200,210,220,220,,565,100,SBD,Wraps,Yes,Open,27,1992-05-22
4,M,Anton Kraynikov,Антон Крайников,99.4,-180,180,-190,180,,120,125,-130,125,,190,200,210,210,,515,100,SBD,Wraps,Yes,Open,29,1990-02-11
1,M,Yuriy Marenkov,Юрий Маренков,99.8,240,250,260,260,,-155,155,160,160,,232.5,240,,240,,660,100,SBD,Wraps,Yes,Masters 40-44,42,1976-12-18
1,M,Artem Bryantsev,Артем Брянцев,102.4,185,200,-215,200,,120,130,137.5,137.5,,210,230,-250,230,,567.5,110,SBD,Wraps,Yes,Open,36,1982-12-27
1,M,Dmitriy Sidorov,Дмитрий Сидоров,123.3,215,222.5,232.5,232.5,,-162.5,-162.5,162.5,162.5,,250,260,270,270,,665,125,SBD,Wraps,Yes,Masters 40-44,42,1977-05-04
1,F,Svetlana Shishkanova,Светлана Шишканова,59.4,-120,120,-130,120,,60,65,-70,65,,125,135,140,140,,325,60,SBD,Wraps,No,Masters 45-49,45,1973-08-07
1,F,Tatyana Mazar,Татьяна Мазар,67.1,202.5,-212.5,220,220,,112.5,120,122.5,122.5,,185,195,202.5,202.5,,545,67.5,SBD,Wraps,No,Open,23,1996-01-23
2,F,Natalya Maslova,Наталья Маслова,65.9,110,120,125,125,,47.5,52.5,-55,52.5,,-105,105,,105,,282.5,67.5,SBD,Wraps,No,Open,33,1985-12-11
1,M,Timur Vaapov,Тимур Ваапов,73.9,202.5,-212.5,217.5,217.5,,102.5,107.5,112.5,112.5,,182.5,192.5,-200,192.5,,522.5,75,SBD,Wraps,No,Juniors 20-23,21,1997-11-29
1,M,Daniil Poddubnyy,Даниил Поддубный,75,220,235,-242.5,235,,150,157.5,160,160,,230,240,250,250,,645,75,SBD,Wraps,No,Open,25,1994-04-10
1,M,Aleksandr Maslov,Александр Маслов,90,240,252.5,-260,252.5,,140,147.5,-150,147.5,,240,-252.5,252.5,252.5,,652.5,90,SBD,Wraps,No,Open,33,1985-11-14
DQ,M,Nikolay Zamp,Николай Замп,88.4,-240,-250,-250,,,,,,,,,,,,,,90,SBD,Wraps,No,Open,29,1990-03-02
1,M,Ivan Novikov,Иван Новиков,99.6,215,225,-240,225,,165,-172.5,172.5,172.5,,260,-280,-300,260,,657.5,100,SBD,Wraps,No,Juniors 20-23,23,1996-05-23
1,M,Aleksandr Rozhkov,Александр Рожков,100,275,300,310,310,,175,185,195,195,,285,300,325,325,,830,100,SBD,Wraps,No,Open,27,1991-10-16
2,M,Sergey Klyauzov,Сергей Кляузов,100,250,265,275,275,,140,152.5,162.5,162.5,,280,300,-320,300,,737.5,100,SBD,Wraps,No,Open,29,1990-01-28
3,M,Nikolay Fedoseev,Николай Федосеев,93,240,252.5,262.5,262.5,,157.5,165,170,170,,270,-280,,270,,702.5,100,SBD,Wraps,No,Open,28,1991-02-23
4,M,Ruslan Shestopyorstov,Руслан Шестопёрстов,93.3,257.5,267.5,277.5,277.5,,147.5,157.5,-165,157.5,,247.5,255,265,265,,700,100,SBD,Wraps,No,Open,30,1989-03-21
5,M,Ivan Poryadin,Иван Порядин,98.9,-250,250,-270,250,,160,170,-175,170,,260,280,-290,280,,700,100,SBD,Wraps,No,Open,37,1982-06-06
6,M,Maksim Babashkin,Максим Бабашкин,95.2,-230,-240,240,240,,150,-160,160,160,,250,270,-287.5,270,,670,100,SBD,Wraps,No,Open,24,1995-02-19
7,M,Ivan Novikov,Иван Новиков,99.6,215,225,-240,225,,165,-172.5,172.5,172.5,,260,-280,-300,260,,657.5,100,SBD,Wraps,No,Open,23,1996-05-23
8,M,Andrey Antipin,Андрей Антипин,98,230,245,255,255,,140,147.5,-152.5,147.5,,230,250,-255,250,,652.5,100,SBD,Wraps,No,Open,28,1990-12-20
1,M,Andrey Shchennikov,Андрей Щенников,99.6,280,300,-307.5,300,,210,220,222.5,222.5,,275,-287.5,287.5,287.5,,810,100,SBD,Wraps,No,Masters 40-44,44,1974-10-14
1,M,Vladimir Marchenko,Владимир Марченко,120.4,320,-340,340,340,,160,170,180,180,,325,-340,340,340,,860,125,SBD,Wraps,No,Open,34,1984-10-19
2,M,Dmitriy Volkov,Дмитрий Волков,121.5,210,230,-245,230,,140,-147.5,-147.5,140,,200,215,222.5,222.5,,592.5,125,SBD,Wraps,No,Open,36,1983-02-24
1,M,Oleg Bunin,Олег Бунин,124.2,260,-280,,260,,170,180,190,190,,290,-302.5,-302.5,290,,740,125,SBD,Wraps,No,Masters 40-44,40,1979-05-20
1,M,Ruslan Petrushkin,Руслан Петрушкин,151.7,290,305,320,320,,195,205,,205,,270,-280,280,280,,805,140+,SBD,Wraps,No,Open,34,1984-08-24
1,M,Aleksey Emelyanov,Алексей Емельянов,79.9,280,300,-305,300,,185,190,195,195,,260,267.5,-272.5,267.5,,762.5,82.5,SBD,Single-ply,No,Open,36,1983-02-25
1,M,Andrey Izvekov,Андрей Извеков,118,-340,-350,350,350,,-210,215,225,225,,295,307.5,-315,307.5,,882.5,125,SBD,Single-ply,No,Open,37,1981-10-15
2,M,Evgeniy Tyutyaev,Евгений Тютяев,123,300,-320,-330,300,,-240,240,250,250,,250,260,270,270,,820,125,SBD,Single-ply,No,Open,31,1987-07-25
1,M,Dmitriy Loginov,Дмитрий Логинов,125.1,-350,350,-375,350,,235,250,-260,250,,350,-370,,350,,950,140,SBD,Single-ply,No,Open,30,1989-05-12
1,F,Anna Golub,Анна Голуб,55.9,,,,,,47.5,52.5,-55,52.5,,80,90,-100,90,,142.5,56,BD,Raw,Yes,Open,26,1992-06-23
1,F,Marina Kutepova,Марина Кутепова,66.3,,,,,,55,60,-62.5,60,,115,125,-130,125,,185,67.5,BD,Raw,Yes,Open,40,1979-01-12
1,M,Aleksey Novikov,Алексей Новиков,67.1,,,,,,105,110,-115,110,,95,,,95,,205,67.5,BD,Raw,Yes,Open,35,1984-02-25
1,M,Igor Pashkov,Игорь Пашков,80.8,,,,,,140,145,147.5,147.5,,-255,255,-262.5,255,,402.5,82.5,BD,Raw,Yes,Open,33,1986-06-10
1,M,Artem Vostroknutov,Артем Вострокнутов,88.8,,,,,,127.5,-135,-135,127.5,,210,220,232.5,232.5,,360,90,BD,Raw,Yes,Open,33,1985-09-10
2,M,Evgeniy Kiselev,Евгений Киселев,86.2,,,,,,120,125,127.5,127.5,,200,210,-215,210,,337.5,90,BD,Raw,Yes,Open,30,1988-08-23
3,M,Valeriy Osechkin,Валерий Осечкин,87.8,,,,,,115,120,125,125,,170,185,-195,185,,310,90,BD,Raw,Yes,Open,30,1988-12-02
1,M,Aleksey Kosyanov,Алексей Косьянов,99.3,,,,,,157.5,162.5,-165,162.5,,220,232.5,-240,232.5,,395,100,BD,Raw,Yes,Juniors 20-23,21,1998-02-10
1,M,Aleksey Kosyanov,Алексей Косьянов,99.3,,,,,,157.5,162.5,-165,162.5,,220,232.5,-240,232.5,,395,100,BD,Raw,Yes,Open,21,1998-02-10
2,M,Roman Ilin,Роман Ильин,97,,,,,,145,150,-152.5,150,,230,240,-245,240,,390,100,BD,Raw,Yes,Open,24,1995-01-26
1,M,Dmitriy Samaryanov,Дмитрий Самарянов,110,,,,,,175,185,-187.5,185,,260,-272.5,-272.5,260,,445,110,BD,Raw,Yes,Open,40,1978-10-17
1,M,Aleksandr Shishkin,Александр Шишкин,102.1,,,,,,120,140,150,150,,230,240,250,250,,400,110,BD,Raw,No,Masters 40-44,43,1975-10-27
1,M,Andrey Kochetov,Андрей Кочетов,128.2,,,,,,210,220,230,230,,310,325,335,335,,565,140,BD,Raw,No,Open,29,1990-05-21
1,F,Irina Albova,Ирина Альбова,65.7,65,72.5,-75,72.5,,,,,,,,,,,,72.5,67.5,S,Raw,Yes,Open,32,1987-02-19
1,M,Vladimir Borovkov,Владимир Боровков,74.7,120,125,-130,125,,,,,,,,,,,,125,75,S,Raw,Yes,Open,26,1992-11-13
1,M,Artem Vostroknutov,Артем Вострокнутов,88.8,-195,195,-200,195,,,,,,,,,,,,195,90,S,Raw,Yes,Open,33,1985-09-10
1,M,Artyom Klopov,Артём Клопов,98.6,210,225,235,235,,,,,,,,,,,,235,100,S,Raw,Yes,Open,28,1990-10-11
1,M,Pavel Bondarev,Павел Бондарев,109.3,250,270,-282.5,270,,,,,,,,,,,,270,110,S,Raw,Yes,Open,31,1988-06-10
1,M,Aleksandr Cherednichenko,Александр Чередниченко,88.6,255,262.5,267.5,267.5,,,,,,,,,,,,267.5,90,S,Raw,No,Open,28,1991-02-04
1,F,Darya Shevlyakova,Дарья Шевлякова,52,90,100,-112.5,100,,,,,,,,,,,,100,52,S,Wraps,Yes,Juniors 20-23,22,1997-06-02
1,F,Anna Korolyova,Анна Королёва,36.9,,,,,,-37.5,37.5,-40,37.5,,,,,,,37.5,44,B,Raw,Yes,Juniors 20-23,21,1997-07-28
1,F,Olga Polygalova,Ольга Полыгалова,45.15,,,,,,62.5,-67.5,67.5,67.5,,,,,,,67.5,48,B,Raw,Yes,Open,31,1988-02-08
2,F,Angelina Ezhova,Ангелина Ежова,47.3,,,,,,-45,-45,45,45,,,,,,,45,48,B,Raw,Yes,Open,33,1985-06-27
1,F,Evgeniya Ruleva,Евгения Рулева,51.5,,,,,,72.5,-77.5,-77.5,72.5,,,,,,,72.5,52,B,Raw,Yes,Open,30,1989-02-27
2,F,Elena Labudova,Елена Лабудова,51.8,,,,,,35,40,-42.5,40,,,,,,,40,52,B,Raw,Yes,Open,31,1987-11-11
1,F,Yaroslava Kachan,Ярослава Качан,54.1,,,,,,65,72.5,-75,72.5,,,,,,,72.5,56,B,Raw,Yes,Open,29,1990-03-03
2,F,Anna Goloviznina,Анна Головизнина,55.4,,,,,,62.5,65,-67.5,65,,,,,,,65,56,B,Raw,Yes,Open,27,1991-10-25
3,F,Ekaterina Bannova,Екатерина Баннова,54.8,,,,,,55,57.5,60,60,,,,,,,60,56,B,Raw,Yes,Open,33,1986-02-12
4,F,Elena Panteleva,Елена Пантелева,55.5,,,,,,-60,-60,60,60,,,,,,,60,56,B,Raw,Yes,Open,32,1987-05-05
5,F,Anna Golub,Анна Голуб,55.9,,,,,,47.5,52.5,-55,52.5,,,,,,,52.5,56,B,Raw,Yes,Open,26,1992-06-23
1,F,Aleksandra Bolshakova,Александра Большакова,65.9,,,,,,-57.5,57.5,-62.5,57.5,,,,,,,57.5,67.5,B,Raw,Yes,Teen 18-19,19,2000-05-10
1,F,Nataliya Ukhanova,Наталия Уханова,84,,,,,,70,75,77.5,77.5,,,,,,,77.5,90,B,Raw,Yes,Open,30,1989-05-31
1,M,Nikita Suchkov,Никита Сучков,50.9,,,,,,55,60,-62.5,60,,,,,,,60,52,B,Raw,Yes,Teen 13-15,13,2006-03-10
1,M,Nikita Samokhvalov,Никита Самохвалов,67.5,,,,,,135,142.5,-147.5,142.5,,,,,,,142.5,67.5,B,Raw,Yes,Open,30,1988-08-11
2,M,Aleksey Novikov,Алексей Новиков,67.1,,,,,,105,110,-115,110,,,,,,,110,67.5,B,Raw,Yes,Open,35,1984-02-25
1,M,Aleksandr Kapustin,Александр Капустин,74.6,,,,,,85,-92.5,92.5,92.5,,,,,,,92.5,75,B,Raw,Yes,Teen 13-15,15,2003-08-30
2,M,Daniil Shishlyannikov,Даниил Шишлянников,69.4,,,,,,85,87.5,-90,87.5,,,,,,,87.5,75,B,Raw,Yes,Teen 16-17,17,2002-04-05
1,M,Nikita Denisenko,Никита Денисенко,73.3,,,,,,110,-115,-115,110,,,,,,,110,75,B,Raw,Yes,Juniors 20-23,23,1996-01-12
1,M,Denis Seleverstenko,Денис Селеверстенко,71.3,,,,,,120,125,127.5,127.5,,,,,,,127.5,75,B,Raw,Yes,Open,26,1992-09-25
2,M,Kirill Kondrashev,Кирилл Кондрашев,74.6,,,,,,112.5,117.5,-122.5,117.5,,,,,,,117.5,75,B,Raw,Yes,Open,32,1987-01-14
DQ,M,Aleksandr Goliney,Александр Голиней,74.5,,,,,,-100,-100,,,,,,,,,,75,B,Raw,Yes,Masters 60-64,61,1957-11-01
1,M,Egor Vorobyov,Егор Воробьёв,78.4,,,,,,92.5,100,102.5,102.5,,,,,,,102.5,82.5,B,Raw,Yes,Teen 18-19,19,2000-02-16
1,M,Pavel Tsvetkov,Павел Цветков,82.2,,,,,,155,162.5,-167.5,162.5,,,,,,,162.5,82.5,B,Raw,Yes,Open,30,1988-10-15
2,M,Fedor Zhirkov,Федор Жирков,80,,,,,,-150,155,-162.5,155,,,,,,,155,82.5,B,Raw,Yes,Open,35,1984-01-19
3,M,Maksim Platonov,Максим Платонов,82.4,,,,,,145,-150,-150,145,,,,,,,145,82.5,B,Raw,Yes,Open,24,1995-04-07
4,M,Rasul Payzulaev,Расул Пайзулаев,81.9,,,,,,135,140,-145,140,,,,,,,140,82.5,B,Raw,Yes,Open,30,1988-09-07
5,M,Dmitriy Rodionov,Дмитрий Родионов,79.8,,,,,,-122.5,-122.5,122.5,122.5,,,,,,,122.5,82.5,B,Raw,Yes,Open,25,1994-04-26
1,M,Sergey Kalinin,Сергей Калинин,77.6,,,,,,135,140,-142.5,140,,,,,,,140,82.5,B,Raw,Yes,Masters 40-44,43,1975-11-19
2,M,Mikhail Vishnyakov,Михаил Вишняков,81.2,,,,,,137.5,140,-145,140,,,,,,,140,82.5,B,Raw,Yes,Masters 40-44,42,1976-10-18
1,M,Vladislav Antipov,Владислав Антипов,88.5,,,,,,135,140,145,145,,,,,,,145,90,B,Raw,Yes,Juniors 20-23,23,1996-03-28
1,M,Vladislav Girko,Владислав Гирко,88.6,,,,,,155,-160,160,160,,,,,,,160,90,B,Raw,Yes,Open,31,1987-09-19
2,M,Aleksandr Kireev,Александр Киреев,86.4,,,,,,145,152.5,-157.5,152.5,,,,,,,152.5,90,B,Raw,Yes,Open,26,1992-07-25
DQ,M,Denis Mikhaylov,Денис Михайлов,85.9,,,,,,-180,-180,-180,,,,,,,,,90,B,Raw,Yes,Open,34,1985-01-29
1,M,Aleksey Kosyanov,Алексей Косьянов,99.3,,,,,,157.5,162.5,-165,162.5,,,,,,,162.5,100,B,Raw,Yes,Juniors 20-23,21,1998-02-10
1,M,Vadim Makartsov,Вадим Макарцов,96.6,,,,,,195,205,215,215,,,,,,,215,100,B,Raw,Yes,Open,37,1981-08-07
2,M,Andrey Bogachev,Андрей Богачев,97.9,,,,,,175,185,-190,185,,,,,,,185,100,B,Raw,Yes,Open,25,1994-04-29
3,M,Denis Chakalov,Денис Чакалов,97.7,,,,,,167.5,175,182.5,182.5,,,,,,,182.5,100,B,Raw,Yes,Open,31,1987-06-19
4,M,Mikhail Chachev,Михаил Чачев,99.9,,,,,,170,175,180,180,,,,,,,180,100,B,Raw,Yes,Open,25,1994-02-23
5,M,Artyom Klopov,Артём Клопов,98.6,,,,,,-165,-170,170,170,,,,,,,170,100,B,Raw,Yes,Open,28,1990-10-11
6,M,Pavel Miloserdov,Павел Милосердов,95.4,,,,,,120,130,-140,130,,,,,,,130,100,B,Raw,Yes,Open,25,1993-10-11
1,M,Dmitriy Pochechuy,Дмитрий Почечуй,99.3,,,,,,162.5,170,-175,170,,,,,,,170,100,B,Raw,Yes,Masters 40-44,42,1976-10-24
1,M,Mikhail Potapov,Михаил Потапов,98.5,,,,,,140,147.5,155,155,,,,,,,155,100,B,Raw,Yes,Masters 45-49,45,1973-12-16
1,M,Vladimir Makarov,Владимир Макаров,98.5,,,,,,100,105,107.5,107.5,,,,,,,107.5,100,B,Raw,Yes,Masters 70-74,72,1946-07-25
1,M,Aleksandr Zhachenkov,Александр Жаченков,108,,,,,,210,217.5,225,225,230,,,,,,225,110,B,Raw,Yes,Open,37,1981-07-30
2,M,Vladimir Petrykin,Владимир Петрыкин,105.2,,,,,,195,-200,,195,,,,,,,195,110,B,Raw,Yes,Open,37,1981-09-25
3,M,Mikhail Rotkov,Михаил Ротков,103.4,,,,,,180,190,-200,190,,,,,,,190,110,B,Raw,Yes,Open,34,1985-01-25
4,M,Maksim Brykin,Максим Брыкин,109.3,,,,,,150,-167.5,167.5,167.5,,,,,,,167.5,110,B,Raw,Yes,Open,33,1985-10-16
1,M,Vladislav Makushka,Владислав Макушка,116.2,,,,,,200,-217.5,220,220,,,,,,,220,125,B,Raw,Yes,Open,23,1995-06-15
2,M,Aleksandr Petaev,Александр Петаев,110.8,,,,,,145,152.5,160,160,,,,,,,160,125,B,Raw,Yes,Open,31,1987-07-18
1,M,Dmitriy Kalyakin,Дмитрий Калякин,137.6,,,,,,195,-205,-205,195,,,,,,,195,140,B,Raw,Yes,Open,34,1984-12-09
2,M,Oleg Volkov,Олег Волков,137.3,,,,,,-180,180,-185,180,,,,,,,180,140,B,Raw,Yes,Open,31,1987-06-27
1,M,Vladimir Chubarov,Владимир Чубаров,130,,,,,,155,160,165,165,,,,,,,165,140,B,Raw,Yes,Masters 55-59,55,1964-04-03
1,F,Olga Lomova,Ольга Ломова,56.1,,,,,,62.5,67.5,70,70,,,,,,,70,60,B,Raw,No,Open,26,1992-09-10
1,F,Alyona Mukhina,Алёна Мухина,66.1,,,,,,55,57.5,60,60,,,,,,,60,67.5,B,Raw,No,Teen 13-15,15,2003-11-08
1,F,Natalya Samarina,Наталья Самарина,67.1,,,,,,140,145,147.5,147.5,,,,,,,147.5,67.5,B,Raw,No,Open,34,1984-06-27
2,F,Tatyana Mazar,Татьяна Мазар,67.1,,,,,,112.5,120,122.5,122.5,,,,,,,122.5,67.5,B,Raw,No,Open,23,1996-01-23
1,F,Aleksandra Avanesyan,Александра Аванесян,72.8,,,,,,100,110,115,115,,,,,,,115,75,B,Raw,No,Open,24,1995-05-23
DQ,F,Natalya Marinina,Наталья Маринина,74.5,,,,,,-60,-60,-60,,,,,,,,,75,B,Raw,No,Masters 40-44,43,1975-09-24
1,F,Yuliya Medvedeva #1,Юлия Медведева,87.4,,,,,,155,162.5,-165,162.5,,,,,,,162.5,90,B,Raw,No,Open,39,1979-07-08
1,M,Andrey Zhilin,Андрей Жилин,67.4,,,,,,115,-120,-120,115,,,,,,,115,67.5,B,Raw,No,Open,39,1980-04-05
2,M,Aleksey Novikov,Алексей Новиков,67.1,,,,,,105,110,-115,110,,,,,,,110,67.5,B,Raw,No,Open,35,1984-02-25
1,M,Vadim Elistratov,Вадим Елистратов,73.6,,,,,,157.5,-167.5,-167.5,157.5,,,,,,,157.5,75,B,Raw,No,Open,35,1983-06-30
2,M,Artur Minasyan,Артур Минасян,74.6,,,,,,120,127.5,-132.5,127.5,,,,,,,127.5,75,B,Raw,No,Open,31,1988-02-09
1,M,Ivan Rogozin,Иван Рогозин,81.2,,,,,,135,142.5,145,145,,,,,,,145,82.5,B,Raw,No,Juniors 20-23,22,1996-07-09
1,M,Aleksandr Moiseev,Александр Моисеев,81,,,,,,-180,190,-192.5,190,,,,,,,190,82.5,B,Raw,No,Open,29,1989-08-17
2,M,Denis Sokov,Денис Соков,80.8,,,,,,180,185,-190,185,,,,,,,185,82.5,B,Raw,No,Open,33,1985-12-26
3,M,Ilya Sushiy,Илья Суший,82.5,,,,,,165,172.5,175,175,,,,,,,175,82.5,B,Raw,No,Open,34,1984-08-20
4,M,Sergey Mozhaev,Сергей Можаев,79.6,,,,,,155,160,-165,160,,,,,,,160,82.5,B,Raw,No,Open,31,1988-04-16
5,M,Dmitriy Tarasov,Дмитрий Тарасов,81.9,,,,,,135,140,-142.5,140,,,,,,,140,82.5,B,Raw,No,Open,29,1989-08-21
1,M,Dmitriy Bakhteev,Дмитрий Бахтеев,81.6,,,,,,127.5,-130,-132.5,127.5,,,,,,,127.5,82.5,B,Raw,No,Masters 50-54,52,1966-08-25
1,M,Sergey Surkov,Сергей Сурков,90,,,,,,180,190,195,195,,,,,,,195,90,B,Raw,No,Open,33,1985-10-14
2,M,Maksim Petrichenko,Максим Петриченко,89.2,,,,,,177.5,182.5,187.5,187.5,,,,,,,187.5,90,B,Raw,No,Open,32,1987-05-31
3,M,Sergey Kachan,Сергей Качан,88.6,,,,,,185,-192.5,-192.5,185,,,,,,,185,90,B,Raw,No,Open,27,1992-03-21
4,M,Roman Prasolov,Роман Прасолов,89.2,,,,,,-175,175,180,180,,,,,,,180,90,B,Raw,No,Open,28,1991-05-12
DQ,M,Artem Kirillov,Артем Кириллов,84.4,,,,,,-155,-155,-155,,,,,,,,,90,B,Raw,No,Open,30,1988-06-28
1,M,Yuriy Lyubach,Юрий Любач,88.5,,,,,,135,-140,-142.5,135,,,,,,,135,90,B,Raw,No,Masters 50-54,50,1968-10-23
2,M,Vladimir Vetrov,Владимир Ветров,87.8,,,,,,110,120,127.5,127.5,,,,,,,127.5,90,B,Raw,No,Masters 50-54,54,1964-09-02
1,M,Andrey Shchennikov,Андрей Щенников,99.6,,,,,,210,220,222.5,222.5,,,,,,,222.5,100,B,Raw,No,Open,44,1974-10-14
2,M,Matvey Terletskiy,Матвей Терлецкий,99.2,,,,,,-190,190,195,195,,,,,,,195,100,B,Raw,No,Open,27,1992-04-22
3,M,Dmitriy Churilov,Дмитрий Чурилов,99.1,,,,,,185,190,192.5,192.5,,,,,,,192.5,100,B,Raw,No,Open,35,1983-07-11
4,M,Evgeniy Zaytsev,Евгений Зайцев,99.7,,,,,,180,-187.5,-187.5,180,,,,,,,180,100,B,Raw,No,Open,28,1991-04-17
5,M,Andrey Karmishin,Андрей Кармишин,96.5,,,,,,-157.5,160,165,165,,,,,,,165,100,B,Raw,No,Open,35,1984-03-13
6,M,Andrey Lyubimov,Андрей Любимов,96.1,,,,,,140,160,-165,160,,,,,,,160,100,B,Raw,No,Open,32,1987-03-04
DQ,M,Oleg Mayorov,Олег Майоров,97.9,,,,,,-205,-205,,,,,,,,,,100,B,Raw,No,Open,31,1987-12-25
1,M,Nikolay Zyablov,Николай Зяблов,98.3,,,,,,132.5,142.5,150,150,,,,,,,150,100,B,Raw,No,Masters 60-64,61,1958-04-05
1,M,Denis Lazarev,Денис Лазарев,105.2,,,,,,80,85,-90,85,,,,,,,85,110,B,Raw,No,Teen 13-15,15,2003-09-02
1,M,Aleksey Solovev,Алексей Соловьев,109.3,,,,,,265,-275,-275,265,,,,,,,265,110,B,Raw,No,Open,28,1990-07-01
2,M,David Sablin,Давид Саблин,108.9,,,,,,225,232.5,-237.5,232.5,,,,,,,232.5,110,B,Raw,No,Open,29,1989-12-21
3,M,Akhmed Musaev,Ахмед Мусаев,104.5,,,,,,210,215,-220,215,,,,,,,215,110,B,Raw,No,Open,38,1980-10-10
4,M,Artem Reshetnikov,Артем Решетников,108.8,,,,,,215,-222.5,-222.5,215,,,,,,,215,110,B,Raw,No,Open,30,1989-06-08
5,M,Denis Puzyrev,Денис Пузырев,108.4,,,,,,185,190,,190,,,,,,,190,110,B,Raw,No,Open,45,1974-03-31
6,M,Evgeniy Ashtaev,Евгений Аштаев,104.6,,,,,,185,-192.5,-192.5,185,,,,,,,185,110,B,Raw,No,Open,30,1989-02-24
1,M,Aleksey Uchyonov,Алексей Учёнов,104.4,,,,,,180,-192.5,-192.5,180,,,,,,,180,110,B,Raw,No,Masters 40-44,44,1974-12-10
1,M,Denis Puzyrev,Денис Пузырев,108.4,,,,,,185,190,,190,,,,,,,190,110,B,Raw,No,Masters 45-49,45,1974-03-31
1,M,Stanislav Bakhtin,Станислав Бахтин,115.4,,,,,,240,250,260,260,,,,,,,260,125,B,Raw,No,Open,30,1989-06-06
2,M,Artur Sapuntsov,Артур Сапунцов,120,,,,,,220,230,-232.5,230,,,,,,,230,125,B,Raw,No,Open,36,1983-01-09
3,M,Anton Begalko,Антон Бегалко,121,,,,,,-200,220,,220,,,,,,,220,125,B,Raw,No,Open,32,1986-11-06
4,M,Oleg Shlepin,Олег Шлепин,119.8,,,,,,190,200,,200,,,,,,,200,125,B,Raw,No,Open,43,1975-07-08
5,M,Aleksandr Vagin,Александр Вагин,117.9,,,,,,165,-175,-175,165,,,,,,,165,125,B,Raw,No,Open,33,1986-04-25
1,M,Valentin Cherepnin,Валентин Черепнин,118.1,,,,,,202.5,212.5,220,220,,,,,,,220,125,B,Raw,No,Masters 40-44,42,1976-12-08
2,M,Oleg Shlepin,Олег Шлепин,119.8,,,,,,190,200,,200,,,,,,,200,125,B,Raw,No,Masters 40-44,43,1975-07-08
1,M,Maksim Silaev,Максим Силаев,124.9,,,,,,225,232.5,-240,232.5,,,,,,,232.5,125,B,Raw,No,Masters 50-54,51,1968-06-07
1,M,Aleksey Chilikin,Алексей Чиликин,126.6,,,,,,230,240,-250,240,,,,,,,240,140,B,Raw,No,Open,41,1978-01-21
1,M,Arif Makhmudov,Ариф Махмудов,136.4,,,,,,190,195,200,200,,,,,,,200,140,B,Raw,No,Masters 55-59,56,1962-07-31
DQ,M,Valeriy Ruban,Валерий Рубан,82.5,,,,,,-210,-210,-210,,,,,,,,,82.5,B,Single-ply,Yes,Open,31,1988-04-24
1,M,Vladimir Konchakov,Владимир Кончаков,97.6,,,,,,270,290,-300,290,,,,,,,290,100,B,Single-ply,Yes,Open,46,1973-05-25
1,M,Vladimir Konchakov,Владимир Кончаков,97.6,,,,,,270,290,-300,290,,,,,,,290,100,B,Single-ply,Yes,Masters 45-49,46,1973-05-25
1,M,Sergey Bolshakov,Сергей Большаков,109.5,,,,,,-200,210,-227.5,210,,,,,,,210,110,B,Single-ply,Yes,Open,28,1991-05-06
DQ,M,Pavel Silushin,Павел Силушин,84.4,,,,,,-240,-255,,,,,,,,,,90,B,Single-ply,No,Open,29,1989-09-17
1,M,Vitaliy Pletnev,Виталий Плетнев,96,,,,,,220,,,220,,,,,,,220,100,B,Single-ply,No,Open,39,1979-08-20
1,M,Aleksandr Olkhovskiy,Александр Ольховский,103.8,,,,,,260,-270,-270,260,,,,,,,260,110,B,Single-ply,No,Open,40,1978-12-25
1,M,Anton Begalko,Антон Бегалко,121,,,,,,-320,330,,330,,,,,,,330,125,B,Single-ply,No,Open,32,1986-11-06
2,M,Dmitriy Gorbachev,Дмитрий Горбачев,118.3,,,,,,305,315,-330,315,,,,,,,315,125,B,Single-ply,No,Open,49,1970-03-06
1,M,Dmitriy Gorbachev,Дмитрий Горбачев,118.3,,,,,,305,315,-330,315,,,,,,,315,125,B,Single-ply,No,Masters 45-49,49,1970-03-06
1,F,Ekaterina Zaytseva,Екатерина Зайцева,78.1,,,,,,-185,185,195,195,-205,,,,,,195,82.5,B,Multi-ply,No,Open,32,1987-02-12
DQ,M,Vadim Sakhautdinov,Вадим Сахаутдинов,72.7,,,,,,-130,-140,-140,,,,,,,,,75,B,Multi-ply,No,Teen 18-19,19,1999-12-12
1,M,Andrey Paley,Андрей Палей,101.3,,,,,,250,-260,,250,,,,,,,250,110,B,Multi-ply,No,Open,57,1961-10-11
2,M,Evgeniy Nikandrov,Евгений Никандров,105.8,,,,,,190,-210,-232.5,190,,,,,,,190,110,B,Multi-ply,No,Open,28,1990-11-20
DQ,F,Elena Kolpakova,Елена Колпакова,58,,,,,,-87.5,-90,-90,,,,,,,,,60,B,Unlimited,Yes,Open,40,1978-06-16
1,F,Elena Lymareva,Елена Лымарева,57.8,,,,,,77.5,82.5,85,85,,,,,,,85,60,B,Unlimited,Yes,Masters 50-54,53,1966-04-20
1,F,Kseniya Vezyonova,Ксения Везёнова,66.2,,,,,,120,-130,-130,120,,,,,,,120,67.5,B,Unlimited,Yes,Open,25,1994-04-28
1,M,Ilya Varshavskiy,Илья Варшавский,74.9,,,,,,265,275,283,283,,,,,,,283,75,B,Unlimited,Yes,Open,27,1991-11-03
1,M,Sergey Sidorovskiy,Сергей Сидоровский,74.7,,,,,,185,195,-207.5,195,,,,,,,195,75,B,Unlimited,Yes,Masters 45-49,48,1971-05-12
1,M,Petr Shcherbakov,Петр Щербаков,82.1,,,,,,175,187.5,202.5,202.5,,,,,,,202.5,82.5,B,Unlimited,Yes,Open,32,1986-08-09
1,M,Sergey Minashkin,Сергей Минашкин,86.7,,,,,,247.5,255,260,260,,,,,,,260,90,B,Unlimited,Yes,Open,33,1985-11-04
2,M,Igor Ivanov #1,Игорь Иванов,88.9,,,,,,252.5,,,252.5,,,,,,,252.5,90,B,Unlimited,Yes,Open,50,1968-08-05
3,M,Sergey Biryukov #1,Сергей Бирюков,90,,,,,,-240,247.5,-260,247.5,,,,,,,247.5,90,B,Unlimited,Yes,Open,33,1985-07-17
4,M,Roman Skobkarev,Роман Скобкарев,88.7,,,,,,-205,217.5,-230,217.5,,,,,,,217.5,90,B,Unlimited,Yes,Open,32,1986-09-25
5,M,Nikita Yaremenko,Никита Яременко,89.9,,,,,,-217.5,-217.5,217.5,217.5,,,,,,,217.5,90,B,Unlimited,Yes,Open,27,1991-12-02
1,M,Kirill Sukharev,Кирилл Сухарев,98.4,,,,,,267.5,275,-282.5,275,,,,,,,275,100,B,Unlimited,Yes,Open,25,1993-12-21
2,M,Georgiy Kotelnikov,Георгий Котельников,96.6,,,,,,220,232.5,-245,232.5,,,,,,,232.5,100,B,Unlimited,Yes,Open,27,1992-06-04
3,M,Vitaliy Gorbanev,Виталий Горбанев,99.4,,,,,,-202.5,202.5,,202.5,,,,,,,202.5,100,B,Unlimited,Yes,Open,31,1987-09-28
1,M,Andrey Sukharev,Андрей Сухарев,105.4,,,,,,305,317.5,332.5,332.5,,,,,,,332.5,110,B,Unlimited,Yes,Open,44,1974-07-22
2,M,Vladimir Petrykin,Владимир Петрыкин,105.2,,,,,,282.5,292.5,300,300,,,,,,,300,110,B,Unlimited,Yes,Open,37,1981-09-25
1,M,Andrey Sukharev,Андрей Сухарев,105.4,,,,,,305,317.5,332.5,332.5,,,,,,,332.5,110,B,Unlimited,Yes,Masters 40-44,44,1974-07-22
1,M,Dmitriy Abramov,Дмитрий Абрамов,124.6,,,,,,300,320,330,330,,,,,,,330,125,B,Unlimited,Yes,Open,32,1987-05-25
2,M,Vladislav Emelyanov,Владислав Емельянов,119.1,,,,,,262.5,-277.5,280,280,,,,,,,280,125,B,Unlimited,Yes,Open,46,1973-05-30
1,M,Vladislav Emelyanov,Владислав Емельянов,119.1,,,,,,262.5,-277.5,280,280,,,,,,,280,125,B,Unlimited,Yes,Masters 45-49,46,1973-05-30
1,F,Elena Kolpakova,Елена Колпакова,59.3,,,,,,80,-86,87.5,87.5,-93,,,,,,87.5,60,B,Unlimited,No,Open,40,1978-06-16
1,F,Elena Prokopova,Елена Прокопова,67.5,,,,,,165,170,175,175,,,,,,,175,67.5,B,Unlimited,No,Open,53,1966-03-07
1,F,Elena Prokopova,Елена Прокопова,67.5,,,,,,165,170,175,175,,,,,,,175,67.5,B,Unlimited,No,Masters 50-54,53,1966-03-07
1,M,Aleksey Samardin,Алексей Самардин,74.9,,,,,,237.5,-250,250,250,,,,,,,250,75,B,Unlimited,No,Open,35,1983-09-08
2,M,Aleksandr Parfenov,Александр Парфенов,74.9,,,,,,207.5,217.5,220,220,,,,,,,220,75,B,Unlimited,No,Open,30,1988-09-20
3,M,Aleksandr Matveev,Александр Матвеев,75,,,,,,180,-190,190,190,,,,,,,190,75,B,Unlimited,No,Open,45,1974-03-14
DQ,M,Denis Kopyttsev,Денис Копытцев,74.6,,,,,,-180,-180,-182.5,,,,,,,,,75,B,Unlimited,No,Open,28,1990-12-31
1,M,Yuriy Eremin,Юрий Еремин,82.5,,,,,,230,252.5,-272.5,252.5,,,,,,,252.5,82.5,B,Unlimited,No,Open,35,1983-11-23
2,M,Aleksey Volkov,Алексей Волков,81.9,,,,,,-250,250,-272.5,250,,,,,,,250,82.5,B,Unlimited,No,Open,34,1985-05-03
1,M,Ruslan Ilyushin,Руслан Илюшин,89.8,,,,,,305,315,-325,315,,,,,,,315,90,B,Unlimited,No,Open,28,1991-02-25
2,M,Danil Kolchev,Данил Колчев,85.6,,,,,,292.5,-300,-300,292.5,,,,,,,292.5,90,B,Unlimited,No,Open,28,1990-11-22
1,M,Valeriy Bespalikov,Валерий Беспаликов,99.5,,,,,,295,-312.5,-312.5,295,,,,,,,295,100,B,Unlimited,No,Open,38,1981-04-07
2,M,Aleksey Belov,Алексей Белов,94.1,,,,,,290,-300,-300,290,,,,,,,290,100,B,Unlimited,No,Open,24,1994-07-14
3,M,Vitaliy Pletnev,Виталий Плетнев,96.6,,,,,,-252.5,252.5,,252.5,,,,,,,252.5,100,B,Unlimited,No,Open,39,1979-08-20
4,M,Matvey Terletskiy,Матвей Терлецкий,99.2,,,,,,-250,250,-270,250,,,,,,,250,100,B,Unlimited,No,Open,27,1992-04-22
1,M,Dmitriy Vasilenko,Дмитрий Василенко,107.6,,,,,,-320,320,-332.5,320,,,,,,,320,110,B,Unlimited,No,Open,44,1975-06-03
2,M,Sergey Rychagov,Сергей Рычагов,108,,,,,,275,-290,-290,275,,,,,,,275,110,B,Unlimited,No,Open,39,1980-05-20
3,M,Denis Puzyrev,Денис Пузырев,108.4,,,,,,255,265,-270,265,,,,,,,265,110,B,Unlimited,No,Open,45,1974-03-31
1,M,Denis Puzyrev,Денис Пузырев,108.4,,,,,,255,265,-270,265,,,,,,,265,110,B,Unlimited,No,Masters 45-49,45,1974-03-31
1,M,Stanislav Bakhtin,Станислав Бахтин,115.4,,,,,,370,380,390,390,,,,,,,390,125,B,Unlimited,No,Open,30,1989-06-06
2,M,Oleg Shlepin,Олег Шлепин,119.8,,,,,,285,300,-307.5,300,,,,,,,300,125,B,Unlimited,No,Open,43,1975-07-08
3,M,Vladislav Emelyanov,Владислав Емельянов,119.1,,,,,,262.5,-277.5,280,280,,,,,,,280,125,B,Unlimited,No,Open,46,1973-05-30
1,M,Oleg Shlepin,Олег Шлепин,119.8,,,,,,285,300,-307.5,300,,,,,,,300,125,B,Unlimited,No,Masters 40-44,43,1975-07-08
2,M,Vladislav Emelyanov,Владислав Емельянов,119.1,,,,,,262.5,-277.5,280,280,,,,,,,280,125,B,Unlimited,No,Masters 45-49,46,1973-05-30
1,M,Sergey Nakonechnyy,Сергей Наконечный,134.5,,,,,,-380,400,-407.5,400,,,,,,,400,140,B,Unlimited,No,Open,32,1986-11-04
1,M,Roman Skobkarev,Роман Скобкарев,88.7,,,,,,230,-247.5,-247.5,230,,,,,,,230,90,B,Unlimited,Yes,Open,32,1986-09-25
1,M,Vladislav Emelyanov,Владислав Емельянов,119.1,,,,,,262.5,-277.5,280,280,,,,,,,280,125,B,Unlimited,Yes,Open,46,1973-05-30
1,M,Vladislav Emelyanov,Владислав Емельянов,119.1,,,,,,262.5,-277.5,280,280,,,,,,,280,125,B,Unlimited,Yes,Masters 45-49,46,1973-05-30
1,M,Vladislav Emelyanov,Владислав Емельянов,119.1,,,,,,262.5,-277.5,280,280,,,,,,,280,125,B,Unlimited,No,Open,46,1973-05-30
1,M,Vladislav Emelyanov,Владислав Емельянов,119.1,,,,,,262.5,-277.5,280,280,,,,,,,280,125,B,Unlimited,No,Masters 45-49,46,1973-05-30
1,F,Margarita Talitsyna,Маргарита Талицына,55,,,,,,50,-52.5,-52.5,50,,,,,,,50,56,B,Raw,No,Masters 50-54,50,1968-10-13
1,F,Liliya Novikova,Лилия Новикова,70.4,,,,,,50,55,57.5,57.5,,,,,,,57.5,75,B,Raw,No,Masters 50-54,54,1964-08-20
1,F,Valentina Semenyuk,Валентина Семенюк,80.3,,,,,,30,32.5,-35,32.5,,,,,,,32.5,82.5,B,Raw,No,Masters 65-69,67,1952-05-20
1,F,Taisya Zaytseva,Таисья Зайцева,77,,,,,,50,55,-57.5,55,,,,,,,55,82.5,B,Raw,No,Masters 70-74,71,1947-08-30
1,F,Marina Pugacheva,Марина Пугачева,86.5,,,,,,60,-62.5,-62.5,60,,,,,,,60,90,B,Raw,No,Masters 55-59,55,1964-02-22
1,F,Tatyana Maeva,Татьяна Маева,88.3,,,,,,75,77.5,80,80,,,,,,,80,90,B,Raw,No,Masters 60-64,60,1958-07-05
1,M,Evgeniy Kornilov,Евгений Корнилов,34.2,,,,,,90,95,100,100,,,,,,,100,52,B,Raw,No,Open,26,1993-03-14
1,M,Stanislav Belyaev,Станислав Беляев,51.9,,,,,,60,65,-67.5,65,,,,,,,65,52,B,Raw,No,Open,34,1984-08-20
1,M,Evgeniy Kosarev,Евгений Косарев,65.3,,,,,,95,100,-102.5,100,,,,,,,100,67.5,B,Raw,No,Masters 55-59,58,1961-03-29
1,M,Nikolay Gorev,Николай Горев,66.2,,,,,,70,75,-80,75,,,,,,,75,67.5,B,Raw,No,Masters 65-69,69,1950-03-15
1,M,Aleksey Pachin,Алексей Пачин,70.3,,,,,,70,75,-77.5,75,,,,,,,75,75,B,Raw,No,Masters 40-44,40,1979-03-02
1,M,Georgiy Gvozdev,Георгий Гвоздев,80.2,,,,,,112.5,-117.5,117.5,117.5,,,,,,,117.5,82.5,B,Raw,No,Masters 60-64,60,1959-04-26
1,M,Vyacheslav Grunichev,Вячеслав Груничев,79.5,,,,,,30,32.5,,32.5,,,,,,,32.5,82.5,B,Raw,No,Masters 75-79,79,1939-06-22
1,M,Aleksandr Izbyakov,Александр Избяков,88.3,,,,,,-115,115,-117.5,115,,,,,,,115,90,B,Raw,No,Open,34,1984-12-10
1,M,Sergey Sokolov,Сергей Соколов,89.9,,,,,,110,115,120,120,,,,,,,120,90,B,Raw,No,Masters 65-69,68,1951-03-12
1,M,Ivan Puryshev,Иван Пурышев,97.8,,,,,,-85,85,90,90,,,,,,,90,100,B,Raw,No,Open,39,1980-05-03
1,M,Sergey Kovalyov,Сергей Ковалёв,97.1,,,,,,110,115,117.5,117.5,,,,,,,117.5,100,B,Raw,No,Masters 50-54,50,1969-05-22
1,M,Oleg Aristov,Олег Аристов,94,,,,,,112.5,115,-122.5,115,,,,,,,115,100,B,Raw,No,Masters 60-64,64,1955-03-08
1,F,Natalya Konchakova,Наталья Кончакова,54.5,,,,,,,,,,,170,-177.5,-177.5,170,,170,56,D,Raw,Yes,Open,41,1977-08-14
2,F,Tatyana Fedorova,Татьяна Федорова,54.4,,,,,,,,,,,90,95,-100,95,,95,56,D,Raw,Yes,Open,29,1990-04-25
1,F,Zhanna Fedorova,Жанна Федорова,58.8,,,,,,,,,,,95,100,105,105,,105,60,D,Raw,Yes,Masters 55-59,55,1963-08-25
1,F,Irina Albova,Ирина Альбова,65.7,,,,,,,,,,,75,85,-95,85,,85,67.5,D,Raw,Yes,Open,32,1987-02-19
1,F,Irina Karpova,Ирина Карпова,65.2,,,,,,,,,,,105,-115,-115,105,,105,67.5,D,Raw,Yes,Masters 40-44,40,1978-12-22
1,F,Lidiya Kalinaicheva,Лидия Калинаичева,87.7,,,,,,,,,,,107.5,117.5,125,125,,125,90,D,Raw,Yes,Open,31,1988-03-09
1,F,Svetlana Tershukova,Светлана Тершукова,86.8,,,,,,,,,,,120,127.5,132.5,132.5,,132.5,90,D,Raw,Yes,Masters 50-54,50,1968-11-08
1,M,Anton Menshikov,Антон Меньшиков,60.9,,,,,,,,,,,112.5,125,-135,125,,125,67.5,D,Raw,Yes,Teen 13-15,15,2003-11-23
1,M,Ivan Komissarov #2,Иван Комиссаров,64.7,,,,,,,,,,,-150,160,-170,160,,160,67.5,D,Raw,Yes,Juniors 20-23,22,1997-05-17
1,M,Aleksey Pikalov,Алексей Пикалов,66.7,,,,,,,,,,,180,195,-205,195,,195,67.5,D,Raw,Yes,Open,32,1986-12-19
1,M,Vartan Paloyan,Вартан Палоян,74.2,,,,,,,,,,,280,290,300,300,305,300,75,D,Raw,Yes,Open,30,1989-06-11
2,M,Aleksandr Yakushev,Александр Якушев,74.8,,,,,,,,,,,210,217.5,-220,217.5,,217.5,75,D,Raw,Yes,Open,36,1982-10-26
1,M,Nikita Goloviznin,Никита Головизнин,81.4,,,,,,,,,,,-262.5,262.5,-282.5,262.5,,262.5,82.5,D,Raw,Yes,Open,30,1988-11-24
2,M,Igor Pashkov,Игорь Пашков,80.8,,,,,,,,,,,-255,255,-262.5,255,,255,82.5,D,Raw,Yes,Open,33,1986-06-10
3,M,Aleksandr Novikov,Александр Новиков,81.8,,,,,,,,,,,220,-237.5,-237.5,220,,220,82.5,D,Raw,Yes,Open,29,1989-12-16
1,M,Aleksandr Kireev,Александр Киреев,86.4,,,,,,,,,,,250,262.5,267.5,267.5,,267.5,90,D,Raw,Yes,Open,26,1992-07-25
2,M,Vladislav Girko,Владислав Гирко,88.6,,,,,,,,,,,225,235,-242.5,235,,235,90,D,Raw,Yes,Open,31,1987-09-19
3,M,Aleksey Semenov,Алексей Семенов,88.4,,,,,,,,,,,215,230,,230,,230,90,D,Raw,Yes,Open,29,1989-10-06
1,M,Sergey Banturov,Сергей Бантуров,99.5,,,,,,,,,,,220,242.5,-245,242.5,,242.5,100,D,Raw,Yes,Open,36,1982-09-28
2,M,Roman Ilin,Роман Ильин,97,,,,,,,,,,,230,240,-245,240,,240,100,D,Raw,Yes,Open,24,1995-01-26
1,M,Sergey Efimov,Сергей Ефимов,98.6,,,,,,,,,,,250,260,270,270,,270,100,D,Raw,Yes,Masters 40-44,44,1974-08-19
1,M,Ivan Zagorodnyuk,Иван Загороднюк,109.3,,,,,,,,,,,250,265,-270,265,,265,110,D,Raw,Yes,Juniors 20-23,22,1997-05-02
1,M,Ivan Zagorodnyuk,Иван Загороднюк,109.3,,,,,,,,,,,250,265,-270,265,,265,110,D,Raw,Yes,Open,22,1997-05-02
2,M,Sergey Gurev,Сергей Гурьев,106.7,,,,,,,,,,,200,210,-230,210,,210,110,D,Raw,Yes,Open,33,1985-07-08
1,M,Sergey Muravyov,Сергей Муравьёв,115.7,,,,,,,,,,,-280,290,300.5,300.5,,300.5,125,D,Raw,Yes,Masters 40-44,43,1975-12-28
1,F,Ekaterina Filimonova,Екатерина Филимонова,65.2,,,,,,,,,,,130,137.5,-145,137.5,,137.5,67.5,D,Raw,No,Open,35,1984-05-19
1,M,Sergey Sitov,Сергей Ситов,82.3,,,,,,,,,,,250,-270,-287.5,250,,250,82.5,D,Raw,No,Open,24,1994-09-05
2,M,Anton Kalinov,Антон Калинов,82.5,,,,,,,,,,,190,202.5,-210,202.5,,202.5,82.5,D,Raw,No,Open,27,1991-09-22
1,M,Sergey Kachan,Сергей Качан,88.6,,,,,,,,,,,305,315,-320,315,,315,90,D,Raw,No,Open,27,1992-03-21
2,M,Sergey Surkov,Сергей Сурков,90,,,,,,,,,,,-290,290,302.5,302.5,,302.5,90,D,Raw,No,Open,33,1985-10-14
3,M,Aleksandr Maslov,Александр Маслов,90,,,,,,,,,,,240,-252.5,252.5,252.5,,252.5,90,D,Raw,No,Open,33,1985-11-14
1,M,Aleksandr Rozhkov,Александр Рожков,100,,,,,,,,,,,285,300,325,325,,325,100,D,Raw,No,Open,27,1991-10-16
2,M,Igor Parinov,Игорь Паринов,97.4,,,,,,,,,,,-260,272.5,-280,272.5,,272.5,100,D,Raw,No,Open,35,1983-06-27
3,M,Vladimir Brusov,Владимир Брусов,98,,,,,,,,,,,-270,270,-282.5,270,,270,100,D,Raw,No,Open,35,1983-12-17
1,M,Eldar Salakhetdinov,Эльдар Салахетдинов,109.8,,,,,,,,,,,-300,300,-310,300,,300,110,D,Raw,No,Juniors 20-23,20,1998-08-22
1,M,Sergey Muravyov,Сергей Муравьёв,115.7,,,,,,,,,,,-280,290,300.5,300.5,,300.5,125,D,Raw,No,Open,43,1975-12-28
2,M,Dmitriy Gromov,Дмитрий Громов,124.8,,,,,,,,,,,270,290,-300,290,,290,125,D,Raw,No,Open,28,1991-03-16
3,M,Viktor Kapralov,Виктор Капралов,113.2,,,,,,,,,,,270,-280,-280,270,,270,125,D,Raw,No,Open,37,1981-09-30
DQ,M,Andrey Semenkov,Андрей Семенков,124.6,,,,,,,,,,,-330,-330,,,,,125,D,Raw,No,Open,34,1984-07-16
1,M,Sergey Muravyov,Сергей Муравьёв,115.7,,,,,,,,,,,-280,290,300.5,300.5,,300.5,125,D,Raw,No,Masters 40-44,43,1975-12-28
1,M,Aleksandr Lugovoy,Александр Луговой,136,,,,,,,,,,,355,-375,-375,355,,355,140,D,Raw,No,Open,23,1995-10-28
2,M,Sergey Odegov,Сергей Одегов,130.6,,,,,,,,,,,320,335,350,350,,350,140,D,Raw,No,Open,42,1976-10-02
1,F,Veronika Grishina,Вероника Гришина,60.9,,,,,,,,,,,80,90,-100,90,,90,67.5,D,Single-ply,Yes,Open,24,1995-04-19
1,M,Aleksandr Nosov,Александр Носов,98.2,,,,,,,,,,,280,295,305,305,,305,100,D,Multi-ply,No,Open,34,1985-01-31
