Division,WeightClassKg,Place,Name,Team,BodyweightKg,Best3SquatKg,Best3BenchKg,Best3DeadliftKg,TotalKg,Equipment,Event,Sex
Boys,51.71,1,Cole Terry,Skidmore-Tynan,51.71,172.37,90.72,172.37,435.45,Single-ply,SBD,M
Boys,51.71,2,Robert Montemayor,Taft,51.44,115.67,74.84,149.69,340.19,Single-ply,SBD,M
Boys,51.71,3,Deonte Duhart,Ingleside,51.71,120.2,70.31,136.08,326.59,Single-ply,SBD,M
Boys,51.71,4,Gabriel Bejeran,Sinton,50.35,111.13,58.97,120.2,290.3,Single-ply,SBD,M
Boys,51.71,5,Austin Mendez,San Diego,51.71,115.67,52.16,122.47,290.3,Single-ply,SBD,M
Boys,51.71,6,Cory Moore,Corpus Christi Calallen,50.8,86.18,47.63,113.4,247.21,Single-ply,SBD,M
Boys,51.71,7,Esteaban Corpus,Gregory-Portland,51.62,77.11,40.82,117.93,235.87,Single-ply,SBD,M
Boys,51.71,DQ,Estaban Urqureta,Corpus Christi Tuloso-Midway,51.71,174.63,,,,Single-ply,SBD,M
Boys,59.87,1,Lucas Lara,Mathis,58.79,154.22,102.06,199.58,455.86,Single-ply,SBD,M
Boys,59.87,2,Juan Vasquez,Corpus Christi Calallen,59.24,167.83,81.65,172.37,421.84,Single-ply,SBD,M
Boys,59.87,3,Austin Gonzalez,Robstown,59.69,149.69,88.45,145.15,383.29,Single-ply,SBD,M
Boys,59.87,DQ,Joseph Espinosa,Taft,57.15,,,,,Single-ply,SBD,M
Boys,67.13,1,Cristian Alvarado,Corpus Christi Calallen,67.04,217.72,117.93,208.65,544.31,Single-ply,SBD,M
Boys,67.13,2,Jaysen Orozco,Corpus Christi Calallen,66.86,204.12,127.01,192.78,523.9,Single-ply,SBD,M
Boys,67.13,3,Gabriel Quinones,Gregory-Portland,65.05,204.12,104.33,192.78,501.22,Single-ply,SBD,M
Boys,67.13,4,Jonathon Pena,Banquete,66.68,170.1,131.54,181.44,483.08,Single-ply,SBD,M
Boys,67.13,5,Byron Perez,Ben Bolt-Palito Blanco,65.86,172.37,108.86,179.17,460.4,Single-ply,SBD,M
Boys,67.13,6,Ulysses Botello,Corpus Christi Tuloso-Midway,63.59,158.76,92.99,161.03,412.77,Single-ply,SBD,M
Boys,67.13,7,Justin Cardenas,Pettus,64.77,142.88,88.45,181.44,412.77,Single-ply,SBD,M
Boys,67.13,8,Ryan Fransham,Orange Grove,66.32,161.03,88.45,163.29,412.77,Single-ply,SBD,M
Boys,67.13,9,Kaleb Gutirrez,Taft,60.33,129.27,88.45,154.22,371.95,Single-ply,SBD,M
Boys,67.13,10,Justin Goben,Taft,66.86,136.08,81.65,154.22,371.95,Single-ply,SBD,M
Boys,74.84,1,Joel Garza,Corpus Christi Calallen,74.66,249.48,149.69,256.28,655.44,Single-ply,SBD,M
Boys,74.84,2,Anthony Perez,San Diego,68.58,256.28,149.69,219.99,625.96,Single-ply,SBD,M
Boys,74.84,3,Seth Ruff,Ingleside,72.3,197.31,102.06,208.65,508.02,Single-ply,SBD,M
Boys,74.84,4,Natthew Mireles,Gregory-Portland,67.77,170.1,86.18,179.17,435.45,Single-ply,SBD,M
Boys,74.84,5,Cody Prather #1,Ben Bolt-Palito Blanco,68.31,183.7,79.38,165.56,428.64,Single-ply,SBD,M
Boys,74.84,6,Joseph Dominguez,Taft,70.85,154.22,88.45,181.44,424.11,Single-ply,SBD,M
Boys,74.84,7,Robert Lerma,Banquete,74.03,147.42,95.25,170.1,412.77,Single-ply,SBD,M
Boys,74.84,8,Stephen Ayala,Ingleside,67.95,142.88,83.91,151.95,378.75,Single-ply,SBD,M
Boys,74.84,DQ,Zachary Rodruguez,Three Rivers,70.49,170.1,102.06,,,Single-ply,SBD,M
Boys,74.84,DQ,Gustavo Gallardo,Sinton,74.75,224.53,117.93,,,Single-ply,SBD,M
Boys,74.84,DQ,Devon Garrett,Pettus,73.03,133.81,,,,Single-ply,SBD,M
Boys,74.84,DQ,Patrick Williams #1,Ingleside,74.75,224.53,102.06,,,Single-ply,SBD,M
Boys,74.84,DQ,Chris Ceballos,Rockport-Fulton,73.57,204.12,142.88,,,Single-ply,SBD,M
Boys,82.1,1,Elijah Valencia,Orange Grove,81.28,274.42,140.61,235.87,650.91,Single-ply,SBD,M
Boys,82.1,2,John Hodge,Pettus,79.65,235.87,127.01,235.87,598.74,Single-ply,SBD,M
Boys,82.1,3,Damian Hinojosa,Corpus Christi Calallen,81.47,224.53,142.88,224.53,591.94,Single-ply,SBD,M
Boys,82.1,4,Enrique Espinoza,Mathis,78.93,195.04,124.74,213.19,532.97,Single-ply,SBD,M
Boys,82.1,5,James Romero,Odem,75.57,158.76,90.72,181.44,430.91,Single-ply,SBD,M
Boys,82.1,6,Cale Kruger,Gregory-Portland,76.43,163.29,90.72,167.83,421.84,Single-ply,SBD,M
Boys,82.1,7,Devin Bazan,Ingleside,80.38,95.25,65.77,111.13,272.16,Single-ply,SBD,M
Boys,82.1,DQ,Demetri Sanchez,Corpus Christi London,81.1,195.04,97.52,,,Single-ply,SBD,M
Boys,82.1,DQ,Jacob Brake,Rockport-Fulton,79.2,165.56,,,,Single-ply,SBD,M
Boys,89.81,1,Joseph Araujo,San Diego,83.91,235.87,145.15,215.46,596.47,Single-ply,SBD,M
Boys,89.81,2,Dante Vasquez,Corpus Christi Tuloso-Midway,89.09,251.74,138.35,204.12,594.21,Single-ply,SBD,M
Boys,89.81,3,Marcus Cerda,Taft,89.36,226.8,136.08,226.8,589.67,Single-ply,SBD,M
Boys,89.81,4,Zack Pulido,Rockport-Fulton,83.64,224.53,133.81,215.46,573.79,Single-ply,SBD,M
Boys,89.81,5,Tevin Moreno,Odem,88.99,231.33,124.74,199.58,555.65,Single-ply,SBD,M
Boys,89.81,6,Edelmiro Reyna,Gregory-Portland,87.18,219.99,117.93,188.24,526.17,Single-ply,SBD,M
Boys,89.81,7,Luis Trujillo,Rockport-Fulton,83.19,195.04,117.93,206.38,519.36,Single-ply,SBD,M
Boys,89.81,8,Robert Dorsch,Corpus Christi Calallen,87.91,201.85,111.13,206.38,519.36,Single-ply,SBD,M
Boys,89.81,9,Landon Garcia,Odem,85.09,165.56,108.86,149.69,424.11,Single-ply,SBD,M
Boys,89.81,10,Cody Rosas,Robstown,88.45,133.81,92.99,151.95,378.75,Single-ply,SBD,M
Boys,89.81,11,Mateo Rios,Banquete,87.63,129.27,70.31,145.15,344.73,Single-ply,SBD,M
Boys,89.81,DQ,Tristian Perez,Ben Bolt-Palito Blanco,83.37,,,,,Single-ply,SBD,M
Boys,89.81,DQ,Michael Barajas,Mathis,89.45,197.31,108.86,,,Single-ply,SBD,M
Boys,99.79,1,Ethan Gonzalez #2,San Diego,99.34,272.16,170.1,238.14,680.39,Single-ply,SBD,M
Boys,99.79,2,Raul Fernandez,Rockport-Fulton,96.62,272.16,140.61,244.94,657.71,Single-ply,SBD,M
Boys,99.79,3,Luke Michael,Rockport-Fulton,97.43,249.48,158.76,219.99,628.23,Single-ply,SBD,M
Boys,99.79,4,Lorenzo Perez,Mathis,95.53,231.33,170.1,204.12,605.55,Single-ply,SBD,M
Boys,99.79,5,Victor Mendez,Gregory-Portland,94.98,240.4,124.74,238.14,603.28,Single-ply,SBD,M
Boys,99.79,6,Tyler Gassaway,Gregory-Portland,94.44,226.8,147.42,215.46,589.67,Single-ply,SBD,M
Boys,99.79,7,Ryan Rasburry,Mathis,95.71,260.82,115.67,213.19,589.67,Single-ply,SBD,M
Boys,99.79,8,Ross Delgado,Gregory-Portland,96.25,242.67,133.81,199.58,576.06,Single-ply,SBD,M
Boys,99.79,9,Johnathan Gonzales,Taft,93.98,204.12,99.79,217.72,521.63,Single-ply,SBD,M
Boys,99.79,10,Michael Esquivel,Taft,96.16,174.63,102.06,183.7,460.4,Single-ply,SBD,M
Boys,99.79,11,Gage Gomez,Gregory-Portland,97.43,158.76,92.99,183.7,435.45,Single-ply,SBD,M
Boys,99.79,12,Joshua Quintaria,Banquete,90.36,154.22,77.11,170.1,401.43,Single-ply,SBD,M
Boys,99.79,13,Gus Rodriguez,Banquete,92.26,151.95,90.72,158.76,401.43,Single-ply,SBD,M
Boys,99.79,DQ,John Equia,Corpus Christi Tuloso-Midway,98.43,,,,,Single-ply,SBD,M
Boys,99.79,DQ,Toby Medina,Mathis,93.17,210.92,,,,Single-ply,SBD,M
Boys,109.77,1,Federico Ruiz Jr,Corpus Christi Calallen,100.43,303.91,165.56,294.84,764.3,Single-ply,SBD,M
Boys,109.77,2,Michael Salaiz,San Diego,106.41,308.44,163.29,249.48,721.21,Single-ply,SBD,M
Boys,109.77,3,Jorge Mortera,Corpus Christi Tuloso-Midway,108.86,238.14,170.1,244.94,653.17,Single-ply,SBD,M
Boys,109.77,4,Alex Tijerina,Ingleside,108.95,251.74,129.27,208.65,589.67,Single-ply,SBD,M
Boys,109.77,5,Robert de la Cruz,Corpus Christi London,103.06,199.58,133.81,238.14,571.53,Single-ply,SBD,M
Boys,109.77,6,Sebastain Opal,Gregory-Portland,100.79,222.26,138.35,208.65,569.26,Single-ply,SBD,M
Boys,109.77,7,Anthony Rogers,Ingleside,105.51,235.87,142.88,185.97,564.72,Single-ply,SBD,M
Boys,109.77,8,Francisco Gonzalez,Sinton,107.95,217.72,158.76,188.24,564.72,Single-ply,SBD,M
Boys,109.77,9,Victor Vera,Sinton,105.32,199.58,163.29,185.97,548.85,Single-ply,SBD,M
Boys,109.77,10,Leo Soliz,Corpus Christi Tuloso-Midway,106.23,231.33,104.33,192.78,528.44,Single-ply,SBD,M
Boys,109.77,11,Seth Colsa,Corpus Christi Calallen,103.6,226.8,106.59,181.44,514.83,Single-ply,SBD,M
Boys,109.77,12,Daniel Ware,Gregory-Portland,100.52,195.04,99.79,213.19,508.02,Single-ply,SBD,M
Boys,109.77,13,Steve Peña #2,Robstown,106.96,192.78,115.67,163.29,471.74,Single-ply,SBD,M
Boys,109.77,14,Brandon Rodriguez,Robstown,107.77,163.29,124.74,158.76,446.79,Single-ply,SBD,M
Boys,109.77,15,James Gomez,Banquete,102.06,142.88,90.72,156.49,390.09,Single-ply,SBD,M
Boys,109.77,DQ,Marcus Avitia,Ingleside,104.05,229.06,161.03,,,Single-ply,SBD,M
Boys,109.77,DQ,John Espinoza,Odem,104.01,102.06,,,,Single-ply,SBD,M
Boys,109.77,DQ,Anjel Canelo,Orange Grove,107.95,,,,,Single-ply,SBD,M
Boys,109.77,DQ,Justin Chavera,Banquete,106.23,219.99,111.13,185.97,,Single-ply,SBD,M
Boys,124.74,1,Luis Garcia #5,Odem,121.74,274.42,172.37,249.48,696.26,Single-ply,SBD,M
Boys,124.74,2,David Mendez,Taft,120.93,283.5,163.29,244.94,691.73,Single-ply,SBD,M
Boys,124.74,3,Louie Sanchez,Three Rivers,122.47,274.42,165.56,233.6,673.58,Single-ply,SBD,M
Boys,124.74,4,Cameron Ngo,Rockport-Fulton,120.29,249.48,133.81,226.8,610.08,Single-ply,SBD,M
Boys,124.74,5,Jakob Encinia,Sinton,113.31,235.87,163.29,197.31,596.47,Single-ply,SBD,M
Boys,124.74,6,Cameron Roulston,Corpus Christi London,118.84,238.14,111.13,226.8,576.06,Single-ply,SBD,M
Boys,124.74,7,Jeffery Hobbs,Orange Grove,119.84,219.99,136.08,208.65,564.72,Single-ply,SBD,M
Boys,124.74,8,Gilbert Cruz,Odem,121.83,195.04,156.49,208.65,560.19,Single-ply,SBD,M
Boys,124.74,9,Jaime Gonzalez,Taft,111.67,208.65,138.35,208.65,555.65,Single-ply,SBD,M
Boys,124.74,10,Julian Gomez,Odem,111.95,219.99,142.88,192.78,555.65,Single-ply,SBD,M
Boys,124.74,11,Demitri Castro,Corpus Christi Calallen,118.57,188.24,113.4,206.38,508.02,Single-ply,SBD,M
Boys,124.74,12,Felipe Conchas,Orange Grove,114.4,190.51,111.13,170.1,471.74,Single-ply,SBD,M
Boys,124.74,DQ,Trey Vaiz,Robstown,110.04,208.65,,,,Single-ply,SBD,M
Boys,124.74+,1,Isaiah Allen,Corpus Christi Tuloso-Midway,131.63,276.69,156.49,240.4,673.58,Single-ply,SBD,M
Boys,124.74+,2,Edward Carrera,Taft,137.8,242.67,158.76,235.87,637.3,Single-ply,SBD,M
Boys,124.74+,3,Will Atwood,Orange Grove,143.79,226.8,156.49,215.46,598.74,Single-ply,SBD,M
