Place,Name,BodyweightKg,Best3SquatKg,Best3BenchKg,Best3DeadliftKg,TotalKg,WeightClassKg,Sex,CyrillicName,BirthYear,Equipment,Division,Event
1,Vladimir Talankin,51.35,195,107.5,190,492.5,52,M,Владимир Таланкин,1985,Single-ply,Open,SBD
2,Evgeniy Karimov,51.75,162.5,120,182.5,465,52,M,Евгений Каримов,1983,Single-ply,Open,SBD
3,Ivan Moskalev,51.95,185,115,155,455,52,M,Иван Москалев,1984,Single-ply,Open,SBD
4,Farid Pikashev,51.5,145,102.5,160,407.5,52,M,Фарид Пикашев,1985,Single-ply,Open,SBD
1,Konstantin Pavlov,56,230,170,205,605,56,M,Константин Павлов,1973,Single-ply,Open,SBD
2,Aleksandr Koval,56,210,137.5,205,552.5,56,M,Александр Коваль,1988,Single-ply,Open,SBD
3,Vitaliy Tikhonovskiy,55.35,210,117.5,207.5,535,56,M,Виталий Тихоновский,1984,Single-ply,Open,SBD
4,Yevgeny Manyanov,55.85,200,130,205,535,56,M,Евгений Манянов,1988,Single-ply,Open,SBD
1,Maksim Perkov,60,252.5,145,227.5,625,60,M,Максим Перков,1985,Single-ply,Open,SBD
2,Nikolay Pochinkin,59.4,220,155,210,585,60,M,Николай Починкин,1985,Single-ply,Open,SBD
3,Mikhail Sokolnikov,57,195,120,200,515,60,M,Михаил Сокольников,1987,Single-ply,Open,SBD
4,Dmitriy Polekhin,58.55,160,100,160,420,60,M,Дмитрий Полехин,1985,Single-ply,Open,SBD
1,Sergei Gaishinetc,67.4,290,180,307.5,777.5,67.5,M,Сергей Гайшинец,1986,Single-ply,Open,SBD
2,Aleksandr Zolov,67.45,300,205,272.5,777.5,67.5,M,Александр Золов,1980,Single-ply,Open,SBD
3,Evgeniy Yatsyuk,67.3,277.5,167.5,222.5,667.5,67.5,M,Евгений Яцюк,1986,Single-ply,Open,SBD
4,Vladimir Volodin,67.3,250,180,235,665,67.5,M,Владимир Володин,1985,Single-ply,Open,SBD
5,Denis Zarapov,67.2,252.5,170,225.5,648,67.5,M,Денис Зарапов,1986,Single-ply,Open,SBD
6,Maksim Beloborodov,67.2,250,165,230,645,67.5,M,Максим Белобородов,1983,Single-ply,Open,SBD
1,Artem Korotygin,74.9,322.5,230,285,837.5,75,M,Артем Коротыгин,1980,Single-ply,Open,SBD
2,Alexey Merkulov,74.9,335,240,260,835,75,M,Алексей Меркулов,1983,Single-ply,Open,SBD
3,Maxim Nurutdinov,73.95,315,180,297.5,792.5,75,M,Максим Нурутдинов,1982,Single-ply,Open,SBD
4,Mikhail Bardukov,74.65,322.5,187.5,282.5,792.5,75,M,Михаил Бардуков,1984,Single-ply,Open,SBD
5,Artem Bykhovets,74.85,290,172.5,272.5,735,75,M,Артем Быховец,1983,Single-ply,Open,SBD
6,Mikhail Melnichenko,74.15,290,175,250,715,75,M,Михаил Мельниченко,1985,Single-ply,Open,SBD
7,Ivan Danilko,74.2,280,150,260,690,75,M,Иван Данилко,1983,Single-ply,Open,SBD
8,Denis Kochmarev,74.75,250,155,260,665,75,M,Денис Кочмарев,1981,Single-ply,Open,SBD
9,Vladimir Koltakov,74.3,252.5,157.5,240,650,75,M,Владимир Колтаков,1986,Single-ply,Open,SBD
1,Alexey Sorokin,82.15,362.5,217.5,307.5,887.5,82.5,M,Алексей Сорокин,1985,Single-ply,Open,SBD
2,Alexander Govorin,80.1,345,190,337.5,872.5,82.5,M,Александр Говорин,1985,Single-ply,Open,SBD
3,Sergey Potapenko,81.9,322.5,227.5,315,865,82.5,M,Сергей Потапенко,1969,Single-ply,Open,SBD
4,Denis Arkhipov #4,82.05,330,210,312.5,852.5,82.5,M,Денис Архипов,1979,Single-ply,Open,SBD
5,Evgeniy Vasyukov,82.25,320,210,270,800,82.5,M,Евгений Васюков,1985,Single-ply,Open,SBD
6,Aleksandr Kolmakov,81.25,285,162.5,285,732.5,82.5,M,Александр Колмаков,1984,Single-ply,Open,SBD
7,Vasiliy Gusev,81.7,285,200,240,725,82.5,M,Василий Гусев,1977,Single-ply,Open,SBD
8,Pavel Putyatin,80.4,265,160,265,690,82.5,M,Павел Путятин,1980,Single-ply,Open,SBD
9,Konstantin Lobanov,82.1,240,157.5,250,647.5,82.5,M,Константин Лобанов,1983,Single-ply,Open,SBD
DQ,Aleksey Retuntsev,,,,,,82.5,M,Алексей Ретунцев,1984,Single-ply,Open,SBD
DQ,Sergey Merdishev,,,,,,82.5,M,Сергей Мердишев,1952,Single-ply,Open,SBD
1,Sergey Bogdanov,87.2,345,230,300,875,90,M,Сергей Богданов,1985,Single-ply,Open,SBD
2,Igor Rudnev,89.35,330,225,300,855,90,M,Игорь Руднев,1983,Single-ply,Open,SBD
3,Denis Knyazev,89.6,330,225,300,855,90,M,Денис Князев,1987,Single-ply,Open,SBD
4,Victor Biryukov,88.7,335,180,305,820,90,M,Виктор Бирюков,1986,Single-ply,Open,SBD
5,Aleksey Zamyatkin,89.15,295,190,275,760,90,M,Алексей Замяткин,1980,Single-ply,Open,SBD
6,Mikhail Kuksenko,89.6,285,177.5,292.5,755,90,M,Михаил Куксенко,1980,Single-ply,Open,SBD
7,Mikhail Muravyev,88.9,280,170,300,750,90,M,Михаил Муравьев,1985,Single-ply,Open,SBD
8,Nikolay Shamarov,85.9,240,175,245,660,90,M,Николай Шамаров,1980,Single-ply,Open,SBD
DQ,Viktor Maksimkin,,,,,,90,M,Виктор Максимкин,1948,Single-ply,Open,SBD
1,Konstantin Lebedko,96.9,390,270,350,1010,100,M,Константин Лебедко,1981,Single-ply,Open,SBD
2,Andrey Tarasenko,95.7,382.5,272.5,350,1005,100,M,Андрей Тарасенко,1975,Single-ply,Open,SBD
3,Aleksey Pavlovskiy,95.8,355,260,300,915,100,M,Алексей Павловский,1974,Single-ply,Open,SBD
4,Alexei Kudryavtsev,90.1,300,177.5,315,792.5,100,M,Алексей Кудрявцев,1988,Single-ply,Open,SBD
DQ,Denis Plesennikov,,,,,,100,M,Денис Плесенников,1985,Single-ply,Open,SBD
DQ,Valeriy Zarapov,,,,,,100,M,Валерий Зарапов,1963,Single-ply,Open,SBD
DQ,Maksim Kuzin,,,,,,100,M,Максим Кузин,1977,Single-ply,Open,SBD
1,Roman Gavrusik,108.8,370,265,350,985,110,M,Роман Гаврусик,1982,Single-ply,Open,SBD
2,Vasiliy Omelchenko,109.5,360,247.5,300,907.5,110,M,Василий Омельченко,1973,Single-ply,Open,SBD
3,Yaroslav Kuznetsov,109.4,355,220,320,895,110,M,Ярослав Кузнецов,1984,Single-ply,Open,SBD
4,Mikhail Romanov,103.8,355,227.5,310,892.5,110,M,Михаил Романов,1977,Single-ply,Open,SBD
5,Evgeniy Goncharuk,109.5,340,220,332.5,892.5,110,M,Евгений Гончарук,1971,Single-ply,Open,SBD
6,Aleksey Klimenko,105.7,280,200,300,780,110,M,Алексей Клименко,1975,Single-ply,Open,SBD
DQ,Vladimir Prokushev,,,,,,110,M,Владимир Прокушев,1970,Single-ply,Open,SBD
1,Sergey Surov,123.95,400,285,325,1010,125,M,Сергей Суров,1974,Single-ply,Open,SBD
2,Igor Gagin,124.6,410,265,317.5,992.5,125,M,Игорь Гагин,1969,Single-ply,Open,SBD
3,Stanislav Alekseykin,114.2,355,225,330,910,125,M,Станислав Алексейкин,1982,Single-ply,Open,SBD
4,Andrey Lazarevskiy,112.65,345,215,295,855,125,M,Андрей Лазаревский,1983,Single-ply,Open,SBD
5,Anton Kobar,113.35,310,220,285,815,125,M,Антон Кобар,1985,Single-ply,Open,SBD
6,Konstantin Miroshnikov,112.7,290,180,290,760,125,M,Константин Мирошников,1982,Single-ply,Open,SBD
DQ,Vitaliy Kuznetsov,,,,,,125,M,Виталий Кузнецов,1973,Single-ply,Open,SBD
DQ,Evgeniy Malchenkov,,,,,,125,M,Евгений Мальченков,1973,Single-ply,Open,SBD
1,Oleg Gagin,153,400,270,332.5,1002.5,125+,M,Олег Гагин,1975,Single-ply,Open,SBD
2,Vitaliy Mikheev,144.3,385,282.5,315,982.5,125+,M,Виталий Михеев,1977,Single-ply,Open,SBD
3,Alexander Berezin,126,352.5,270,327.5,950,125+,M,Александр Березин,1974,Single-ply,Open,SBD
4,Aleksandr Kolchanov,134.4,265,200,260,725,125+,M,Александр Колчанов,1969,Single-ply,Open,SBD
DQ,Aleksey Mikhalev,125.85,370,,,,125+,M,Алексей Михалев,1984,Single-ply,Open,SBD
DQ,Sergey Kolosov,,,,,,125+,M,Сергей Колосов,1973,Single-ply,Open,SBD
1,Valentina Vermenyuk,43.95,152.5,80,160,392.5,44,F,Валентина Верменюк,1986,Single-ply,Open,SBD
2,Oksana Ryzhenko,43.95,145,80,130,355,44,F,Оксана Рыженко,1975,Single-ply,Open,SBD
3,Viktoriya Merkulova,43.85,125,65,102.5,292.5,44,F,Виктория Меркулова,1989,Single-ply,Open,SBD
4,Anastasya Strufa,43,125,60,105,290,44,F,Анастасия Струфа,1986,Single-ply,Open,SBD
5,Vera Arsentyeva,43.85,97.5,45,115,257.5,44,F,Вера Арсентьева,1983,Single-ply,Open,SBD
1,Svetlana Tesleva,47.95,185,107.5,182.5,475,48,F,Светлана Теслева,1975,Single-ply,Open,SBD
2,Yana Zadorina,47.3,150,112.5,140,402.5,48,F,Яна Задорина,1982,Single-ply,Open,SBD
3,Nadezhda Vaganova,47.95,140,100,120,360,48,F,Надежда Ваганова,1983,Single-ply,Open,SBD
4,Kseniya Lagina,47.85,117.5,60,117.5,295,48,F,Ксения Лагина,1986,Single-ply,Open,SBD
1,Oksana Pochinkina-Sokovnina,51.25,177.5,120,157.5,455,52,F,Оксана Починкина-Соковнина,1986,Single-ply,Open,SBD
2,Ekaterina Perina,51.55,180,92.5,162.5,435,52,F,Екатерина Перина,1977,Single-ply,Open,SBD
3,Marina Shevchenko,51.95,175,90,170,435,52,F,Марина Шевченко,1974,Single-ply,Open,SBD
4,Elena Akimova,52,167.5,90,150,407.5,52,F,Елена Акимова,1985,Single-ply,Open,SBD
5,Natalya Starygina,51.15,135,75,140,350,52,F,Наталья Старыгина,1986,Single-ply,Open,SBD
6,Ekaterina Mochkina,51.6,130,70,140,340,52,F,Екатерина Мочкина,1983,Single-ply,Open,SBD
7,Yuliya Arsentyeva,50.3,115,40,125,280,52,F,Юлия Арсентьева,1981,Single-ply,Open,SBD
1,Anzhelika Kond,56,175,130,187.5,492.5,56,F,Анжелика Конд,1975,Single-ply,Open,SBD
2,Olga Kabanova,56,197.5,117.5,175,490,56,F,Ольга Кабанова,1978,Single-ply,Open,SBD
3,Olesya Pokidko,55.65,190,105,170,465,56,F,Олеся Покидько,1982,Single-ply,Open,SBD
4,Alena Maltseva,55.85,175,95,175,445,56,F,Алена Мальцева,1984,Single-ply,Open,SBD
5,Natalya Tkacheva,55.45,170,105,165,440,56,F,Наталья Ткачева,1977,Single-ply,Open,SBD
6,Ekaterina Kadatskaya,54.3,155,72.5,145,372.5,56,F,Екатерина Кадацкая,1982,Single-ply,Open,SBD
1,Irina Poletaeva,59.8,227.5,150,200,577.5,60,F,Ирина Полетаева,1982,Single-ply,Open,SBD
2,Valentina Nelyubova,59.85,207.5,130,190,527.5,60,F,Валентина Нелюбова,1966,Single-ply,Open,SBD
3,Kira Pavlovskaya,59.85,202.5,120,192.5,515,60,F,Кира Павловская,1983,Single-ply,Open,SBD
4,Evgeniya Petrova,56.5,160,70,160,390,60,F,Евгения Петрова,1982,Single-ply,Open,SBD
5,Natalya Yariz,59.6,145,75,125,345,60,F,Наталья Яриз,1979,Single-ply,Open,SBD
DQ,Ekaterina Ivanova,58.95,137.5,,,,60,F,Екатерина Иванова,1982,Single-ply,Open,SBD
1,Natalya Barybina,65.4,225,132,200,557,67.5,F,Наталья Барыбина,1983,Single-ply,Open,SBD
2,Olga Kozub,65.6,220,122.5,190,532.5,67.5,F,Ольга Козуб,1987,Single-ply,Open,SBD
3,Anastasia Yakovleva,62.75,205,105,202.5,512.5,67.5,F,Анастасия Яковлева,1983,Single-ply,Open,SBD
4,Kseniya Petrova,67.25,205,127.5,180,512.5,67.5,F,Ксения Петрова,1981,Single-ply,Open,SBD
5,Olga Ustinova,60.5,195,105,185,485,67.5,F,Ольга Устинова,1984,Single-ply,Open,SBD
6,Tatyana Bolotova,66.7,165,90,165,420,67.5,F,Татьяна Болотова,1979,Single-ply,Open,SBD
7,Natalya Nesterovich,63.65,165,85,162.5,412.5,67.5,F,Наталья Нестерович,1974,Single-ply,Open,SBD
1,Ekaterina Sadokhina,73.55,237.5,142.5,210,590,75,F,Екатерина Садохина,1988,Single-ply,Open,SBD
2,Olga Chuvileva,67.7,230,122.5,185,537.5,75,F,Ольга Чувилева,1979,Single-ply,Open,SBD
3,Zhanna Gorunovskaya,72.3,207.5,112.5,202.5,522.5,75,F,Жанна Горуновская,1983,Single-ply,Open,SBD
1,Evgeniya Mazaylova,75.05,235,132.5,232.5,600,82.5,F,Евгения Мазайлова,1982,Single-ply,Open,SBD
2,Evgeniya Sukhova,75.45,207.5,137.5,210,555,82.5,F,Евгения Сухова,1980,Single-ply,Open,SBD
1,Tatyana Mescheryakova,88.65,210,165,220,595,90,F,Татьяна Мещерякова,1974,Single-ply,Open,SBD
2,Oksana Ageeva,82.6,202.5,102.5,200,505,90,F,Оксана Агеева,1979,Single-ply,Open,SBD
3,Tamara Nekoshnova,82.55,172.5,137.5,160,470,90,F,Тамара Некошнова,1982,Single-ply,Open,SBD
4,Yana Zubova,83.6,120,80,170,370,90,F,Яна Зубова,1978,Single-ply,Open,SBD
1,Anastasia Pavlova,119.6,230,160,210,600,90+,F,Анастасия Павлова,1968,Single-ply,Open,SBD
2,Kristina Ryabova,98.6,205,147.5,175,527.5,90+,F,Кристина Рябова,1981,Single-ply,Open,SBD
3,Eldina Tarakulova,90.6,185,100,200,485,90+,F,Эльдина Таракулова,1983,Single-ply,Open,SBD
DQ,Yevgeniya Shabanova,90.05,195,,,,90+,F,Евгения Шабанова,1977,Single-ply,Open,SBD
