Place,Sex,Name,CyrillicName,BodyweightKg,Bench1Kg,Bench2Kg,Bench3Kg,Best3BenchKg,Bench4Kg,TotalKg,WeightClassKg,Event,Equipment,Tested,Deadlift1Kg,Deadlift2Kg,Deadlift3Kg,Best3DeadliftKg,Deadlift4Kg,Division,Age,BirthDate
1,F,Olesya Yureva,Олеся Юрьева,51,50,55,-57.5,55,,55,52,B,Raw,No,,,,,,Masters 40-44,44,1975-11-21
1,M,Nikolay Romanov,Николай Романов,34.8,30,-35,-35,30,,30,60,B,Raw,No,,,,,,Youth,10,2010-07-29
2,M,Daniil Podgornyy,Даниил Подгорный,51.9,-30,-30,30,30,,30,60,B,Raw,No,,,,,,Youth,12,2008-06-18
3,M,Daniil Gorshkov,Даниил Горшков,31.4,20,-25,-25,20,,20,60,B,Raw,No,,,,,,Youth,9,2010-12-02
4,M,Mikhail Poskannyy,Михаил Посканный,31.9,-20,20,-25,20,,20,60,B,Raw,No,,,,,,Youth,10,2010-04-22
DQ,M,Aleksandr Migutin,Александр Мигутин,37.7,-30,-30,-30,,,,60,B,Raw,No,,,,,,Youth,11,2008-10-12
DQ,M,Kirill Kondratinskiy,Кирилл Кондратинский,57.2,-30,-30,-30,,,,60,B,Raw,No,,,,,,Youth,12,2008-03-04
1,M,Kirill Traskin,Кирилл Траскин,64.1,112.5,-115,-115,112.5,,112.5,60+,B,Raw,No,,,,,,Teen 16-17,16,2004-08-07
2,M,Dmitriy Naumenko,Дмитрий Науменко,106,-100,102.5,110,110,,110,60+,B,Raw,No,,,,,,Teen 16-17,17,2002-11-10
3,M,Kirill Grigorev,Кирилл Григорьев,83.5,70,75,-80,75,,75,60+,B,Raw,No,,,,,,Teen 13-15,15,2004-09-27
1,M,Artem Danelyants,Артём Данельянц,81.7,195,-202.5,-202.5,195,,195,100,B,Raw,No,,,,,,Open,27,1993-08-01
2,M,Sergey Mikhaylov,Сергей Михайлов,87.8,160,-170,-170,160,,160,100,B,Raw,No,,,,,,Open,38,1982-07-29
3,M,Konstantin Novikov,Константин Новиков,72.4,120,122.5,125,125,,125,100,B,Raw,No,,,,,,Open,27,1993-08-21
4,M,Sergey Evseev,Сергей Евсеев,79.7,105,115,,115,,115,100,B,Raw,No,,,,,,Open,29,1990-10-09
5,M,Pavel Kovkin,Павел Ковкин,81,90,100,105,105,,105,100,B,Raw,No,,,,,,Open,23,1997-07-02
6,M,Aleksey Gudoshnik,Алексей Гудошник,68.5,-60,60,-65,60,,60,100,B,Raw,No,,,,,,Open,20,2000-04-02
DQ,M,Andrey Ignatenko,Андрей Игнатенко,91.7,-90,-90,-90,,,,100,B,Raw,No,,,,,,Open,35,1985-06-23
1,M,Anton Yudenkov,Антон Юденков,106,185,195,200,200,,200,100+,B,Raw,No,,,,,,Open,30,1989-12-06
2,M,Sergey Frolov,Сергей Фролов,109.6,175,182.5,-190,182.5,,182.5,100+,B,Raw,No,,,,,,Open,34,1986-03-21
3,M,Sergey Kondratinskiy,Сергей Кондратинский,104.4,170,-175,-175,170,,170,100+,B,Raw,No,,,,,,Open,36,1984-07-06
4,M,Igor Mishanov,Игорь Мишанов,105.8,160,170,-175,170,,170,100+,B,Raw,No,,,,,,Open,31,1989-04-18
1,M,Eduard Dmitriev,Эдуард Дмитриев,109.7,190,195,-200,195,,195,,B,Raw,No,,,,,,Masters 45-49,48,1972-05-26
2,M,Roman Ivanov,Роман Иванов,92.5,130,150,-160,150,,150,,B,Raw,No,,,,,,Masters 40-44,,1978-11-07
3,M,Denis Smirnov,Денис Смирнов,94.6,125,130,-135,130,,130,,B,Raw,No,,,,,,Masters 40-44,41,1978-12-18
1,F,Olesya Yureva,Олеся Юрьева,51,,,,,,110,52,D,Raw,No,100,105,110,110,,Masters 40-44,44,1975-11-21
1,M,Dmitriy Naumenko,Дмитрий Науменко,106,,,,,,155,,D,Raw,No,140,150,155,155,,Teen 16-17,17,2002-11-10
2,M,Sergey Vorobev,Сергей Воробьев,65.6,,,,,,110,,D,Raw,No,90,100,110,110,,Teen 16-17,16,2003-11-16
1,M,Nikolay Kuchumov,Николай Кучумов,81.4,,,,,,270,,D,Raw,No,240,255,270,270,,Open,27,1993-06-14
2,M,Sergey Evseev,Сергей Евсеев,79.7,,,,,,240,,D,Raw,No,220,240,,240,,Open,29,1990-10-09
3,M,Vyacheslav Vorobev,Вячеслав Воробьев,87.6,,,,,,190,,D,Raw,No,160,175,190,190,,Masters 40-44,44,1975-11-30
