Division,WeightClassKg,Place,Name,Team,BodyweightKg,Best3SquatKg,Best3BenchKg,Best3DeadliftKg,TotalKg,Equipment,Event,Sex,BirthDate
Boys,51.71,1,Dylan McDonald,Abilene Cooper,48.44,83.91,45.36,120.2,249.48,Single-ply,SBD,M,
Boys,51.71,2,Nick Garcia #1,Abilene,51.26,86.18,45.36,90.72,222.26,Single-ply,SBD,M,
Boys,51.71,3,Rajen Bhujel,Abilene Cooper,51.3,61.23,56.7,97.52,215.46,Single-ply,SBD,M,
Boys,51.71,DQ,Eric Broussard,Tuscola Jim Ned,48.99,102.06,,,,Single-ply,SBD,M,
Boys,55.79,1,Roberto Hernandez,Abilene Cooper,55.75,104.33,68.04,136.08,308.44,Single-ply,SBD,M,
Boys,55.79,2,Christian Rodriquez,Tuscola Jim Ned,52.16,106.59,58.97,113.4,278.96,Single-ply,SBD,M,
Boys,55.79,3,Chase Ihse,Tuscola Jim Ned,55.79,95.25,56.7,106.59,258.55,Single-ply,SBD,M,
Boys,55.79,DQ,Wyatt Kofoed,Merkel,53.52,102.06,,,,Single-ply,SBD,M,
Boys,59.87,1,Tristen Thompson,Merkel,59.42,149.69,92.99,151.95,394.63,Single-ply,SBD,M,
Boys,59.87,2,Joseph Woodyard,Abilene,59.42,102.06,65.77,124.74,292.57,Single-ply,SBD,M,
Boys,59.87,3,Corbin Otto,Abilene Cooper,59.78,92.99,63.5,108.86,265.35,Single-ply,SBD,M,
Boys,67.13,1,Andrew Bradley,Abilene Cooper,62.64,136.08,79.38,149.69,365.14,Single-ply,SBD,M,
Boys,67.13,2,D'Alan Cotton,Merkel,66.68,136.08,83.91,145.15,365.14,Single-ply,SBD,M,
Boys,67.13,3,Jackson Myers,Merkel,61.69,133.81,83.91,127.01,344.73,Single-ply,SBD,M,
Boys,67.13,4,Tony Leyva,Merkel,61.69,122.47,81.65,140.61,344.73,Single-ply,SBD,M,
Boys,67.13,5,Ethan Estes,Tuscola Jim Ned,66.22,117.93,72.57,117.93,308.44,Single-ply,SBD,M,
Boys,67.13,6,Cruz Cantu,Stamford,61.69,86.18,52.16,102.06,240.4,Single-ply,SBD,M,
Boys,67.13,DQ,Oscar Montoya,Merkel,63.05,127.01,,,,Single-ply,SBD,M,
Boys,74.84,1,Matthew Lozano,Anson,73.03,165.56,108.86,165.56,439.98,Single-ply,SBD,M,
Boys,74.84,2,Isaac Braun,Anson,72.12,161.03,92.99,170.1,424.11,Single-ply,SBD,M,
Boys,74.84,3,Nimfasha Olivier,Abilene Cooper,73.21,167.83,79.38,170.1,417.3,Single-ply,SBD,M,
Boys,74.84,4,Ramiro Aguilar,Hawley,68.04,124.74,99.79,183.7,408.23,Single-ply,SBD,M,
Boys,74.84,5,Brady Miller,Abilene Cooper,74.75,158.76,90.72,158.76,408.23,Single-ply,SBD,M,
Boys,74.84,6,Nathaniel Guzman,Abilene,71.21,142.88,81.65,142.88,367.41,Single-ply,SBD,M,
Boys,74.84,7,Justin Turk,Abilene,71.21,138.35,70.31,154.22,362.87,Single-ply,SBD,M,
Boys,74.84,8,Jeshari Houston,Abilene,73.94,140.61,90.72,129.27,360.61,Single-ply,SBD,M,
Boys,74.84,9,Lawrence Diles,Abilene Cooper,69.44,122.47,77.11,154.22,353.8,Single-ply,SBD,M,
Boys,74.84,10,Mark Leyva,Merkel,72.12,124.74,70.31,147.42,342.46,Single-ply,SBD,M,
Boys,74.84,11,Evan Mier,Merkel,68.95,104.33,49.9,102.06,256.28,Single-ply,SBD,M,
Boys,74.84,12,Truett Ekdahl,Stamford,69.85,74.84,47.63,83.91,206.38,Single-ply,SBD,M,
Boys,74.84,DQ,Jesse Pete,Stamford,69.85,,,,,Single-ply,SBD,M,
Boys,82.1,1,Medina Daniel,Ballinger,80.29,172.37,111.13,163.29,446.79,Single-ply,SBD,M,
Boys,82.1,2,Matthew Ezzell,Abilene,79.83,170.1,102.06,158.76,430.91,Single-ply,SBD,M,
Boys,82.1,3,Johnathan Vanwinkle,Abilene Cooper,75.8,142.88,92.99,174.63,410.5,Single-ply,SBD,M,
Boys,82.1,4,Jacobe Moore,Abilene Cooper,79.2,154.22,83.91,154.22,392.36,Single-ply,SBD,M,
Boys,82.1,5,Carson England,Abilene Cooper,80.47,122.47,83.91,142.88,349.27,Single-ply,SBD,M,
Boys,89.81,1,Jacob Deax,Abilene Cooper,86.91,192.78,113.4,210.92,517.1,Single-ply,SBD,M,
Boys,89.81,2,James Griffin,Abilene Cooper,88.72,183.7,106.59,188.24,478.54,Single-ply,SBD,M,
Boys,89.81,3,Phonzo Dotson,Abilene,88.9,192.78,95.25,181.44,469.47,Single-ply,SBD,M,
Boys,89.81,4,Landon McIntire,Ballinger,84.37,165.56,113.4,174.63,453.59,Single-ply,SBD,M,
Boys,89.81,5,Tyler Stevens,Tuscola Jim Ned,87.54,163.29,92.99,181.44,437.72,Single-ply,SBD,M,
Boys,89.81,6,Jackson Wilson,Abilene,88.9,154.22,88.45,145.15,387.82,Single-ply,SBD,M,
Boys,89.81,7,Kobe Martinez,Hawley,88,140.61,95.25,149.69,385.55,Single-ply,SBD,M,
Boys,89.81,8,Maison Dickinson,Abilene,83.46,136.08,88.45,138.35,362.87,Single-ply,SBD,M,
Boys,89.81,DQ,Fabian Rubio,Ballinger,83.46,165.56,,,,Single-ply,SBD,M,
Boys,99.79,1,Arthur Murillo,Tuscola Jim Ned,92.08,233.6,154.22,229.06,616.89,Single-ply,SBD,M,
Boys,99.79,2,Colton Marshall,Hawley,93.44,224.53,154.22,219.99,598.74,Single-ply,SBD,M,
Boys,99.79,3,Colton Strickland,Hawley,99.79,185.97,136.08,233.6,555.65,Single-ply,SBD,M,
Boys,99.79,4,Caleb Moreno,Anson,94.35,151.95,102.06,156.49,410.5,Single-ply,SBD,M,
Boys,99.79,5,Wyatt Southerland,Abilene,91.17,142.88,83.91,149.69,376.48,Single-ply,SBD,M,
Boys,99.79,6,Adan Navarette,Merkel,90.26,124.74,81.65,149.69,356.07,Single-ply,SBD,M,
Boys,109.77,1,Tate Thompson,Hawley,103.42,215.46,161.03,183.7,560.19,Single-ply,SBD,M,
Boys,109.77,2,Dylan Worgull,Abilene,104.78,204.12,122.47,210.92,537.51,Single-ply,SBD,M,
Boys,109.77,3,Colby Ernst,Abilene,105.69,204.12,122.47,183.7,510.29,Single-ply,SBD,M,
Boys,109.77,4,Keanu Graves,Abilene,106.14,183.7,102.06,183.7,469.47,Single-ply,SBD,M,
Boys,109.77,5,Miguel Silva,Abilene Cooper,107,190.51,108.86,170.1,469.47,Single-ply,SBD,M,
Boys,109.77,6,Zach Killam,Abilene,108.86,183.7,97.52,167.83,449.06,Single-ply,SBD,M,
Boys,109.77,7,Joe Galvan,Anson,101.15,174.63,92.99,165.56,433.18,Single-ply,SBD,M,
Boys,109.77,8,Steven Cavasos,Stamford,109.77,136.08,83.91,142.88,362.87,Single-ply,SBD,M,
Boys,109.77,9,JaQuinton Gates,Abilene Cooper,103.6,120.2,70.31,131.54,322.05,Single-ply,SBD,M,
Boys,124.74,1,Bo Thompson,Hawley,119.29,260.82,226.8,226.8,714.41,Single-ply,SBD,M,
Boys,124.74,2,Dakota Nichols,Hawley,123.83,249.48,183.7,215.46,648.64,Single-ply,SBD,M,
Boys,124.74,3,Lucas Gomez,Abilene,117.48,238.14,142.88,226.8,607.81,Single-ply,SBD,M,
Boys,124.74,4,Thad Hazlewood,Hawley,123.83,208.65,142.88,199.58,551.11,Single-ply,SBD,M,
Boys,124.74,5,Bradley Byrne,Abilene,113.4,219.99,106.59,197.31,523.9,Single-ply,SBD,M,
Boys,124.74,6,Cody Farley,Abilene Cooper,116.21,188.24,117.93,190.51,496.68,Single-ply,SBD,M,
Boys,124.74,7,Gatlyn Cooper,Tuscola Jim Ned,122.47,174.63,106.59,213.19,494.42,Single-ply,SBD,M,
Boys,124.74,8,Julian Garcia,Abilene,111.58,208.65,115.67,158.76,483.08,Single-ply,SBD,M,
Boys,124.74,9,Jayston Jones,Abilene Cooper,124.6,172.37,145.15,161.03,478.54,Single-ply,SBD,M,
Boys,124.74,10,Jakoby Castro,Stamford,111.58,161.03,79.38,154.22,394.63,Single-ply,SBD,M,
Boys,124.74,11,Jonathan Modica,Abilene Cooper,117.75,158.76,102.06,129.27,390.09,Single-ply,SBD,M,
Boys,124.74,12,Aaron Duran,Stamford,124.74,142.88,70.31,142.88,356.07,Single-ply,SBD,M,
Boys,124.74,DQ,Ben Gomez,Abilene,111.58,158.76,,,,Single-ply,SBD,M,
Boys,124.74+,1,Kolter Willeford,Hawley,131.09,347,199.58,249.48,796.05,Single-ply,SBD,M,
Boys,124.74+,2,Devon Cosby,Abilene Cooper,133.22,235.87,156.49,242.67,635.03,Single-ply,SBD,M,
Boys,124.74+,3,Austin Escobar,Merkel,158.76,208.65,147.42,219.99,576.06,Single-ply,SBD,M,
Boys,124.74+,4,Gage McVey,Abilene Cooper,128,210.92,142.88,192.78,546.58,Single-ply,SBD,M,
Boys,124.74+,5,Jaime Rodriguez,Abilene,126.55,199.58,111.13,192.78,503.49,Single-ply,SBD,M,
Boys,124.74+,6,Daniel Salazar,Abilene Cooper,129.05,181.44,127.01,149.69,458.13,Single-ply,SBD,M,
Boys,124.74+,DQ,Khalil Spivey,Abilene,138.8,256.28,,,,Single-ply,SBD,M,
Boys,124.74+,DQ,Jaxon O'Kelly,Merkel,136.08,226.8,133.81,,,Single-ply,SBD,M,
